﻿id,value,sign
BUSINESS,Negocios,Negocios
DEATHS,Muertes,Muertes
HECT,Hectáreas,ha
INDEX,Índice,Indice 0-100
KG,Kilogramos,kg
NUMCOMPENSATION,Indemnizaciones,Indemnizaciones
NUMDEPART,Departamentos,Departamentos
PERCENTAGE,Porcentaje,%
PESOS_MTR3,Pesos / m^3,CO$ /m3
PLANS,Planes,Planes
POINTS,Puntos,Puntos
PORPOINTS,Puntos porcentuales,Puntos porcentuales
PROPORTION,Proporción,Proporción
RATE,Tasa,Tasa
RATEX1MILLIONHAB,Tasa por cada 1.000.000 de habitantes,por 1.000.000 de habitantes
RATEX100THALIVE,Razón por cada 100.000 nacidos vivos,por 100.000 nacidos vivos
RATEX100THCHILDREN,Tasa por cada 100.000 niños y niñas menores de 5 años,por 100.000
RATEX100THHAB,Tasa por cada 100.000 habitantes,por 100.000 habitantes
RATEX100THHABW,Tasa por cada 100.000 mujeres,por 100.000 mujeres
RATEX100TH018,Tasa por cada 100.000 menores de 18 años,por 100.000 menores de 18 años
RATEX100TH3070,Tasa por cada 100.000 habitantes de 30 a 70 años,por 100.000 personas de 30 a 70 años
RATEX1000ALIVE,Tasa por cada 1.000 nacidos vivos,por 1.000 nacidos vivos
RATEX1000HAB,Tasa por cada 1.000 habitantes,por 1.000 habitantes
RATEX1000WOMEN1519,Tasa por cada 1.000 mujeres de 15 a 19 años,por cada 1.000 mujeres de 15 a 19 año
TERAJOULESMILLION,Terajulios / mil millones de pesos de 2005,TJ / CO$
TERRITORIALENTITIES,Entidades territoriales,entidades territoriales
TONS,Toneladas,Ton
TRAVELS,Viajes,Viajes
UNITS,Unidades,Unidades
VICTIMS,Víctimas,Víctimas
MILLIONS_COP,Millones de pesos,Millones de pesos
MW,Mega vatios,Mega vatios
TONSXBILLIONS,Toneladas por billón de pesos,Toneladas por billón de pesos
NUM,Número,Número
GIGA_CO2,Gigagramos de CO2 equivalente por miles de millones de pesos,Giga_CO2 por $ miles de millones



