goal,target,id,id_internal,name,is_good,type,has_data,unit,unit_sign,definition,source,notes,dimensions,baseline,baseline_year,intermediate_national_target,intermediate_year,national_target_2030,note,responsible_entity,globalindicator,megameta
1,1.1,1.1.1.G,1.1.1.G,Porcentaje de población que vive por debajo del umbral internacional de pobreza extrema,Low,GLOBAL,1,PERCENTAGE,%,"Mide el porcentaje de la población total en los hogares que tienen un consumo per cápita o ingreso, que está por debajo del umbral internacional de pobreza de US $ 1,90 (PPA de 2011) al día.",DANE - Gran Encuesta Integrada de Hogares (GEIH),Sin nota,"TIME,OBS,COUNTRY,DES_GEO_CCPRURALDISP,DES_GEO_MUNICIPIOS,SEXO,EDAD5,SITUACION_LABORAL",5.6,2015,5,2018,1.7,,DANE - Gran Encuesta Integrada de Hogares (GEIH),1,NO
1,1.1,1.1.2.C,1.1.2.C,Incidencia de la Pobreza Monetaria Extrema,Low,NATIONAL,1,PERCENTAGE,%,"Mide el porcentaje de la población que tiene un ingreso per cápita en el hogar por debajo de la línea de pobreza extrema (calculada a partir del costo per cápita mínimo de una canasta alimentaria que garantiza las necesidades básicas calóricas), respecto a la población total.",DANE - Gran Encuesta Integrada de Hogares (GEIH),Sin nota,"TIME,OBS,COUNTRY,DES_GEO_CCPRURALDISP,DES_GEO_DEPTOS,DES_GEO_REGIONES,DES_GEO_MUNICIPIOS,SEXO,EDAD5,SITUACION_LABORAL",7.9,2015,7.9,2018,4,,DANE - Gran Encuesta Integrada de Hogares (GEIH),0,NO
1,1.2,1.2.1.P,1.2.1.P,Incidencia de la Pobreza Monetaria,Low,GLOBAL,1,PERCENTAGE,%,"Mide el porcentaje de la población que tiene un ingreso per cápita en el hogar por debajo de la línea de pobreza (calculada como el costo per cápita mínimo de una canasta básica de bienes alimentarios y no alimentarios), respecto a la población total.",DANE - Gran Encuesta Integrada de Hogares (GEIH),Sin nota,"TIME,OBS,COUNTRY,DES_GEO_CCPRURALDISP,DES_GEO_DEPTOS,DES_GEO_REGIONES,DES_GEO_MUNICIPIOS,SEXO,EDAD5,SITUACION_LABORAL",27.8,2015,25,2018,18.7,,DANE - Gran Encuesta Integrada de Hogares (GEIH),1,NO
1,1.2,1.2.2.P,1.2.2.P,Indice de Pobreza Multidimensional (IPM),Low,GLOBAL,1,PERCENTAGE,%,"Mide el porcentaje de la población en condición de pobreza, a través de 5 dimensiones: 1) condiciones educativas del hogar, 2) condiciones de la niñez y la juventud, 3) trabajo, 4) salud y 5) acceso a servicios públicos y condiciones de la vivienda. Estas dimensiones incluyen 15 indicadores, y aquellos hogares que tengan privación en por lo menos el 33% de los indicadores, son considerados pobres.",DANE - Encuesta Nacional de Calidad de Vida (ECV),Sin nota,"TIME,OBS,COUNTRY,DES_GEO_REGIONES,DES_GEO_CCPRURALDISP,SEXO,EDAD5",20.2,2015,17.8,2018,8.4,,DANE - Encuesta Nacional de Calidad de Vida (ECV),1,SI
1,1.3,1.3.1.C,1.3.1.C,Porcentaje de población afiliada al sistema de seguridad social en salud,High,NATIONAL,,PERCENTAGE,%,"Mide el porcentaje de la población afiliada al Sistema General de Seguridad Social en Salud, en cualquiera de sus regímenes, respecto a la población total.",ADRRES - Base de Datos Única de Afiliados (BDUA),,"TIME,OBS,COUNTRY,DES_GEO_DEPTOS,DES_GEO_REGIONES,EDAD",95.7,2016,97,2018,99,,MinSalud,,
1,1.3,1.3.2.C,1.3.2.C,Porcentaje de población ocupada afiliada a Administradora de Riesgos Laborales,High,NATIONAL,,PERCENTAGE,%,"Mide el porcentaje de la población ocupada afiliada a administradora de riesgos laborales, respecto al total de población ocupada.",DANE - Gran Encuesta Integrada de Hogares (GEIH),,"TIME,OBS,COUNTRY,DES_GEO_CCPRURALDISP,DES_GEO_DEPTOS,DES_GEO_REGIONES,DES_GEO_MUNICIPIOS,SEXO,EDAD9",34.3,2015,37.1,2018,48,,DANE - Gran Encuesta Integrada de Hogares (GEIH),,
1,1.3,1.3.3.C,1.3.3.C,Porcentaje de población ocupada cotizante al sistema de pensiones,High,NATIONAL,1,PERCENTAGE,%,"Mide el porcentaje de la población ocupada que se encuentra afiliada al sistema de pensiones, respecto a la población ocupada total.",DANE - Gran Encuesta Integrada de Hogares (GEIH),Sin nota,"TIME,OBS,COUNTRY,DES_GEO_CCPRURALDISP,DES_GEO_DEPTOS,DES_GEO_REGIONES,SEXO,EDAD9",36.8,2015,37.9,2018,42.1,,DANE - Gran Encuesta Integrada de Hogares (GEIH),0,NO
1,1.4,1.4.1.C,1.4.1.C,"Hectáreas de pequeña y mediana propiedad rural, formalizadas",High,NATIONAL,1,HECT,ha,"Mide el número de hectáreas de pequeña y mediana propiedad rural formalizadas, en el marco de los compromisos establecidos en el Acuerdo  final para la terminación del conflicto y el establecimiento de una paz estable y duradera.",Agencia Nacional de Tierras,,"TIME,OBS,COUNTRY",0,2015,,2018,7000000,,Agencia Nacional de Tierras,,
1,1.5,1.5.1.P,1.5.1.P,Mortalidad nacional causada por eventos recurrentes,Low,NATIONAL,1,DEATHS,Muertes,"Se refiere al número muertes confirmadas en un desastre o tras el impacto de un desastre ocasionado por un evento recurrente. Por evento recurrente se consideran todos aquellos asociados a inundaciones, avenidas torrenciales y remoción en masa (se excluyen los eventos atípicos)",Unidad Nacional de Gestión del Riesgo de Desastre (UNGRD) - Consolidado Atención de Emergencias,,"TIME,OBS,COUNTRY",89,2015,87,2018,80,,UNGRD,,
1,1.5,1.5.2.P,1.5.2.P,Tasa de personas afectadas a causa de eventos recurrentes,Low,NATIONAL,1,RATEX100THHAB,por 100.000 habitantes,"Se refiere al número de personas afectadas en sus bienes, infraestructura y/o medios de subsistencia tras el impacto de un evento recurrente, por cada 100.000 habitantes. Por evento recurrente se consideran todos aquellos asociados a inundaciones, avenidas torrenciales y remoción en masa (se excluyen los eventos atípicos)",Unidad Nacional de Gestión del Riesgo de Desastre (UNGRD) - Consolidado Atención de Emergencias,,"TIME,OBS,COUNTRY",989.79,2015,971.98,2018,890.82,,UNGRD,,
2,2.1,2.1.1.P,2.1.1.P,Prevalencia de inseguridad alimentaria en el hogar (moderada o severa),Low,NATIONAL,,PERCENTAGE,%,"Mide la proporción de hogares que experimentan inseguridad alimentaria desde el acceso a los alimentos. Asimismo, mide la gravedad de la inseguridad alimentaria basándose en las respuestas de las preguntas sobre las limitaciones a su capacidad de obtener alimentos suficientes, en dos niveles: moderada y severa. ",Encuesta Nacional de la Situación Nutricional en Colombia - ENSIN,Sin nota,"TIME,OBS,COUNTRY",23.5,2016,20.3,2020,13.9,,ICBF,,
2,2.1,2.1.2.C,2.1.2.C,Porcentaje de menores de 6 meses con lactancia materna exclusiva,High,NATIONAL,1,PERCENTAGE,%,"Mide el porcentaje de lactantes menores de 5 meses 29 días de edad alimentados exclusivamente con leche materna durante el día anterior (Incluye ser amamantado por una nodriza y alimentación con leche materna extraída), respecto al total de niños en este grupo de edad.",ICBF - Encuesta Nacional de Situación Nutricional en Colombia (ENSIN),Sin nota,"TIME,OBS,COUNTRY",36.1,2015,40,2020,51,,MinSalud,0,NO
2,2.2,2.2.1.G,2.2.1.G,Prevalencia de desnutrición crónica en menores de 5 años,Low,GLOBAL,1,PERCENTAGE,%,"Mide el porcentaje de niños y niñas menores de 5 años con retraso en el crecimiento (<-2DE) de acuerdo a la Resolución 2465 del 2016, respecto al total de niños y niñas menores de 5 años.",ICBF - Encuesta Nacional de Situación Nutricional en Colombia (ENSIN),Sin nota,"TIME,OBS,COUNTRY,DES_GEO_REGIONES,DES_GEO_URBANORURAL,SEXO",10.8,2015,8,2020,5,,MinSalud,1,NO
2,2.2,2.2.2.P,2.2.2.P,Prevalencia de desnutrición aguda en menores de 5 años,Low,GLOBAL,,PERCENTAGE,%,"Mide el porcentaje de niños y niñas menores de 5 años con bajo peso para la talla o longitud (<-2DE) de acuerdo a la Resolución 2465 del 2016, con respecto al total de niños y niñas menores de 5 años.",ICBF - Encuesta Nacional de Situación Nutricional en Colombia (ENSIN),Sin nota,"TIME,OBS,COUNTRY",2.3,2015,2,2020,0.9,,ICBF,,
2,2.2,2.2.3.C,2.2.3.C,Tasa de mortalidad por desnutrición en menores de 5 años,Low,NATIONAL,1,RATEX100THCHILDREN,por 100.000,"Mide el número de muertes de menores de 5 años, por deficiencias nutricionales y anemias nutricionales, por cada 100.000 niños y niñas menores de 5 años.",DANE - Estadísticas Vitales (EEVV),Sin nota,"TIME,OBS,COUNTRY,DES_GEO_DEPTOS,DES_GEO_REGIONES,SEXO",6.8,2015,6.5,2018,5,,MinSalud,0,SI
2,2.4,2.4.1.C,2.4.1.C,Participación de la Producción Agrícola que cumple con criterios de Crecimiento Verde,Low,NATIONAL,1,PERCENTAGE,%,Mide la producción agrícola en toneladas que cumple con criterios de crecimiento verde sobre la producción total.,DANE - Encuesta Nacional Agropecuaria (ENA),Sin nota,"TIME,OBS,COUNTRY",,,,,,,DANE - Encuesta Nacional Agropecuaria (ENA),0,NO
3,3.1,3.1.1.G,3.1.1.G,Tasa de mortalidad materna,Low,GLOBAL,,RATEX100THALIVE,por 100.000 nacidos vivos,"Mide el número de mujeres que mueren durante el embarazo o en los 42 días siguientes a su terminación, independiente de la duración del embarazo, del sitio del parto y debido a cualquier causa relacionada con o agravada por el embarazo mismo o su atención (no por causas accidentales o incidentales), por cada 100.000 nacidos vivos.",DANE - Estadísticas Vitales (EEVV),Sin nota,"TIME,OBS,COUNTRY,DES_GEO_DEPTOS,DES_GEO_REGIONES",53.7,2015,51,2018,32,,MinSalud,1,SI
3,3.1,3.1.2.P,3.1.2.P,Porcentaje de partos atendidos por personal calificado,Low,GLOBAL,1,PERCENTAGE,%,"Mide el porcentaje de partos (con resultado nacido vivo) atendidos por personal calificado (médicos y enfermeras), respecto al total de partos.",DANE - Estadísticas Vitales (EEVV),Sin nota,"TIME,OBS,COUNTRY,DES_GEO_DEPTOS,DES_GEO_REGIONES",99,2015,99,2018,99,,MinSalud,1,NO
3,3.1,3.1.3.C,3.1.3.C,Porcentaje de nacidos vivos con 4 o más controles prenatales,High,NATIONAL,1,PERCENTAGE,%,"Mide el porcentaje de nacidos vivos cuyas madres asistieron a 4 o más controles prenatales durante su gestación, respecto al total de nacidos vivos.",DANE - Estadísticas Vitales (EEVV),Sin nota,"TIME,OBS,COUNTRY,DES_GEO_DEPTOS,DES_GEO_REGIONES",88.4,2015,89,2018,93,,MinSalud,0,NO
3,3.2,3.2.1.G,3.2.1.G,Tasa de mortalidad neonatal,Low,GLOBAL,1,RATEX1000ALIVE,por 1.000 nacidos vivos,"Mide la relación de muertes de nacidos vivos que ocurren antes de alcanzar los 28 días de edad, por cada 1.000 nacidos vivos.",DANE - Estadísticas Vitales (EEVV),Sin nota,"TIME,OBS,COUNTRY",7,2015,6.9,2018,6,,MinSalud,1,NO
3,3.2,3.2.2.G,3.2.2.G,Tasa de mortalidad en menores de 5 años (ajustada),Low,GLOBAL,1,RATEX1000ALIVE,por 1.000 nacidos vivos,"Mide la relación de las muertes en población menor de 5 años respecto a los nacimientos ocurridos en el mismo período, por cada 1.000 nacidos vivos.",DANE - Estadísticas Vitales (EEVV),Sin nota,"TIME,OBS,COUNTRY,DES_GEO_DEPTOS,DES_GEO_REGIONES",18.7,2015,18,2018,15,,MinSalud,1,NO
3,3.2,3.2.3.C,3.2.3.C,Tasa de mortalidad infantil en menores de 1 año (ajustada),Low,NATIONAL,1,RATEX1000ALIVE,por 1.000 nacidos vivos,"Mide la relación de las muertes en población menor de un año respecto a los nacimientos ocurridos en el mismo período, por cada 1.000 nacidos vivos.",DANE - Estadísticas Vitales (EEVV),Sin nota,"TIME,OBS,COUNTRY,DES_GEO_DEPTOS,DES_GEO_REGIONES",17.1,2015,17,2018,14,,MinSalud,0,NO
3,3.3,3.3.1.G,3.3.1.G,Incidencia de tuberculosis,Low,GLOBAL,1,RATEX100THHAB,por 100.000 habitantes,"Mide el número de casos de tuberculosis nuevos y de recaída (todas las formas de tuberculosis, incluidos los casos en personas que viven con el VIH) que surgen en un año determinado, por cada 100.000 habitantes. ",MinSalud - Sistema de Información para la Vigilancia en Salud Pública (SIVIGILA),Sin nota,"TIME,OBS,COUNTRY,DES_GEO_DEPTOS,DES_GEO_REGIONES,SEXO",26.4,2015,25,2018,10,,MinSalud,1,NO
3,3.3,3.3.2.G,3.3.2.G,Incidencia de malaria,Low,GLOBAL,1,RATEX1000HAB,por 1.000 habitantes,"Mide el número de casos de malaria nuevos que surgen en un año determinado, expresado como una tasa por cada 1.000 habitantes.",MinSalud - Sistema de Información para la Vigilancia en Salud Pública (SIVIGILA),Sin nota,"TIME,OBS,COUNTRY,DES_GEO_DEPTOS,DES_GEO_REGIONES",5.3,2015,5,2018,2,,MinSalud,1,NO
3,3.3,3.3.3.C,3.3.3.C,Tasa de mortalidad por malaria,Low,NATIONAL,1,RATEX100THHAB,por 100.000 habitantes,"Mide el número de muertes causadas por paludismo (malaria) respecto al total de población en riesgo, por cada 100.000 habitantes.",DANE - Estadísticas Vitales (EEVV),Sin nota,"TIME,OBS,COUNTRY",4,2015,3.5,2018,2,,MinSalud,0,NO
3,3.3,3.3.4.C,3.3.4.C,Letalidad por dengue,Low,NATIONAL,1,PERCENTAGE,%,"Mide el porcentaje de muertes causadas por dengue y dengue grave, respecto al total de casos de dengue notificados en un determinado periodo.",DANE - Estadísticas Vitales (EEVV),Sin nota,"TIME,OBS,COUNTRY",0.16,2015,0.12,2018,0.10,,MinSalud,0,NO
3,3.3,3.3.5.C,3.3.5.C,Porcentaje de transmisión materno-infantil de la hepatitis B,Low,NATIONAL,1,PERCENTAGE,%,"Mide el porcentaje de niños con diagnóstico de infección por hepatitis B, respecto al total de niños nacidos de madres con hepatitis B.",MinSalud - Sistema de Información para la Vigilancia en Salud Pública (SIVIGILA),,"TIME,OBS,COUNTRY",,,10,2018,5,,MinSalud,,
3,3.3,3.3.6.C,3.3.6.C,Porcentaje de personas con criterio de tratamiento y diagnóstico de hepatitis C crónica a quienes se les inicia el tratamiento,Low,NATIONAL,0,PERCENTAGE,%,"Mide el porcentaje de personas con diagnóstico de infección por hepatitis C crónica que iniciaron tratamiento, respecto al total de pacientes con diagnóstico de hepatitis C crónica.",MinSalud - Cuenta de alto costo - Sistema de Información para la Vigilancia en Salud Pública (SIVIGILA) - Sistema Integral de Información de la Protección Social (SISPRO) - Mi Prescripción (MIPRES),,"TIME,OBS,COUNTRY",,,50,2018,80,,MinSalud,,
3,3.3,3.3.7.C,3.3.7.C,Porcentaje de transmisión materno-infantil del VIH/SIDA,Low,NATIONAL,1,PERCENTAGE,%,"Mide el porcentaje de niños con diagnóstico de infección por VIH/SIDA de madres positivas, respecto al total de niños nacidos de madres con VIH/SIDA.",MinSalud - Sistema de Información para la Vigilancia en Salud Pública (SIVIGILA),Sin nota,"TIME,OBS,COUNTRY",2.7,2015,2.7,2018,2,,MinSalud,0,NO
3,3.3,3.3.8.C,3.3.8.C,Tasa de mortalidad por VIH/SIDA,Low,NATIONAL,1,RATEX100THHAB,por 100.000 habitantes,"Mide el número de muertes por VIH/SIDA, por cada 100.000 habitantes.",DANE - Estadísticas Vitales (EEVV),Sin nota,"TIME,OBS,COUNTRY,DES_GEO_DEPTOS,DES_GEO_REGIONES,DES_GEO_MUNICIPIOS,SEXO",5.1,2015,4.9,2018,2.4,,MinSalud,0,NO
3,3.4,3.4.1.G,3.4.1.G,Tasa de mortalidad por lesiones auto infligidas intencionalmente,Low,NATIONAL,,RATEX100THHAB,por 100.000 habitantes,"Mide el número de muertes por lesiones auto infligidas intencionalmente, por cada 100.000 habitantes.",DANE - Estadísticas Vitales (EEVV),,"TIME,OBS,COUNTRY",4.47,2014,4.39,2018,4.12,,MinSalud,,
3,3.4,3.4.2.P,3.4.2.P,Tasa de mortalidad prematura por enfermedades cardiovasculares,Low,NATIONAL,1,RATEX100TH3070,por 100.000 personas de 30 a 70 años,"Mide el número de muerte de personas entre 30 a 70 años por enfermedades cardiovasculares, por 100.000 habitantes en este grupo de edad.",DANE - Estadísticas Vitales (EEVV),Sin nota,"TIME,OBS,COUNTRY",83.7,2015,81.3,2018,75,,MinSalud,0,NO
3,3.4,3.4.3.P,3.4.3.P,"Tasa de mortalidad prematura por cáncer de mama, cuello uterino, colon y recto, pulmón, próstata, estómago, linfoma no Hodgkin y Leucemia en adultos",Low,NATIONAL,1,RATEX100TH3070,por 100.000 personas de 30 a 70 años,"Mide el número de muertes por cáncer de mama, cuello uterino, colon y recto, pulmón, próstata, estómago, linfoma no Hodgkin y Leucemia, en personas de 30 a 70 años, por cada 100.000 habitantes en este grupo de edad.",DANE - Estadísticas Vitales (EEVV),Sin nota,"TIME,OBS,COUNTRY",57.6,2015,57,2018,55.2,,MinSalud,0,NO
3,3.4,3.4.4.P,3.4.4.P,Tasa de mortalidad prematura por diabetes,Low,NATIONAL,1,RATEX100TH3070,por 100.000 personas de 30 a 70 años,"Mide el número de muertes por diabetes mellitus, en personas de 30 a 70 años, por cada 100.000 habitantes en este grupo de edad.",DANE - Estadísticas Vitales (EEVV),Sin nota,"TIME,OBS,COUNTRY,DES_GEO_DEPTOS,DES_GEO_REGIONES,EDAD6",14.2,2015,14,2018,11.5,,MinSalud,0,NO
3,3.4,3.4.5.P,3.4.5.P,Tasa de mortalidad prematura de las enfermedades crónicas de las vías respiratorias inferiores,Low,NATIONAL,1,RATEX100TH3070,por 100.000 personas de 30 a 70 años,"Mide el número de muertes por enfermedades crónicas de las vías respiratorias inferiores, en personas de 30 a 70 años, por cada 100.000 habitantes en este grupo de edad. ",DANE - Estadísticas Vitales (EEVV),Sin nota,"TIME,OBS,COUNTRY,DES_GEO_DEPTOS,DES_GEO_REGIONES,EDAD17",10.3,2015,9.8,2018,8.1,,MinSalud,0,NO
3,3.4,3.4.6.C,3.4.6.C,Tasa de mortalidad por tumores malignos en menores de 18 años,Low,NATIONAL,1,RATEX100TH018,por 100.000 menores de 18 años,"Mide el número de muertes por tumores malignos en menores de 18 años, por cada 100.000 menores de 18 años.",DANE - Estadísticas Vitales (EEVV),Sin nota,"TIME,OBS,COUNTRY,DES_GEO_DEPTOS,DES_GEO_REGIONES,SEXO,EDAD4",4.5,2015,4.4,2018,3.9,,MinSalud,0,NO
3,3.4,3.4.7.C,3.4.7.C,Porcentaje de personas atendidas en servicios en salud mental,High,NATIONAL,,PERCENTAGE,%,"Mide el número de personas atendidas por diagnósticos en salud mental (al menos una atención), entre la población total atendida.",Bodega de datos SISPRO: Registros Individuales de Prestación de Servicios y Registro Especial de Prestadores,Sin nota,"TIME,OBS,COUNTRY",6.7,2015,8.4,2018,14.4,,MinSalud,,
3,3.5,3.5.1.C,3.5.1.C,Porcentaje de personas con abuso o dependencia de cualquier sustancia ilícita,Low,NATIONAL,1,PERCENTAGE,%,"Mide el porcentaje de personas con abuso o dependencia de cualquier sustancia ilícita, respecto al total de personas encuestadas.",MinJusticia MinSalud DPS bservatorio de Drogas de Colombia (ODC) - Estudio Nacional de Consumo de Sustancias Psicoactivas en Colombia.,Sin nota,"TIME,OBS,COUNTRY,DES_GEO_DEPTOS,DES_GEO_REGIONES,SEXO,EDAD8",2.1,2013,2,2018,1,,MinSalud,0,NO
3,3.5,3.5.2.C,3.5.2.C,Porcentaje de personas con consumo de riesgo y perjudicial de alcohol,Low,NATIONAL,1,PERCENTAGE,%,"Mide el porcentaje de personas con consumo de riesgo y perjudicial de alcohol, del total de personas encuestadas.",MinJusticia MinSalud DPS Observatorio de Drogas de Colombia (ODC) - Estudio Nacional de Consumo de Sustancias Psicoactivas en Colombia.,Sin nota,"TIME,OBS,COUNTRY,DES_GEO_DEPTOS,DES_GEO_REGIONES,SEXO,EDAD8",11,2013,9,2018,5,,MinSalud,0,NO
3,3.6,3.6.1.G,3.6.1.G,Tasa General de Mortalidad por Accidentes de Tránsito terrestre (TGMA),Low,GLOBAL,,RATEX100THHAB,por 100.000 habitantes,"Mide el número de defunciones por accidentes de transporte terrestre durante un año, respecto a la población total para el mismo año, por cada 100.000 habitantes.",DANE - Estadísticas Vitales (EEVV),Sin nota,"TIME,OBS,COUNTRY",14.87,2015,12.23,2018,8.35,,Angencia Nacional de Seguridad Vial,1,NO
3,3.7,3.7.1.G,3.7.1.G,Tasa de fecundidad específica en mujeres adolescentes de 15 a 19 años,Low,NATIONAL,,RATEX1000WOMEN1519,por cada 1.000 mujeres de 15 a 19 año,"Mide el número anual de nacimientos para mujeres de 15 a 19 años, por cada 1.000 mujeres de ese rango de edad. ",DANE - Estadísticas Vitales (EEVV),Sin nota,"TIME,OBS,COUNTRY,DES_GEO_DEPTOS,DES_GEO_REGIONES",63.9,2015,62.0,2018,46.0,,MinSalud,0,NO
3,3.7,3.7.2.P,3.7.2.P,Porcentaje de mujeres de 15 a 19 años (unidas y no unidas) con actividad sexual reciente que usan métodos anticonceptivos modernos,High,NATIONAL,,PERCENTAGE,%,"Mide el porcentaje de uso actual de métodos anticonceptivos modernos en mujeres de 15 a 19 años sexualmente activas (unidas + no unidas con actividad sexual reciente), respecto al total de mujeres sexualmente activas no unidas del mismo grupos de edad encuestadas a nivel nacional.",Profamilia - Encuesta Nacional de Demografía y Salud (ENDS),Sin nota,"TIME,OBS,COUNTRY",28.5,2015,35.7,2020,48.6,,MinSalud,,
3,3.7,3.7.3.P,3.7.3.P,Porcentaje de mujeres de 15 a 49 años (unidas y no unidas) con actividad sexual reciente que usan métodos anticonceptivos modernos,High,GLOBAL,,PERCENTAGE,%,"Mide el porcentaje de mujeres de 15 a 49 años unidas y no unidas con actividad sexual reciente que usan cualquier método anticonceptivo moderno, respecto al total de mujeres de 15 a 49 años sexualmente activas  que se encuestan a nivel nacional.",Profamilia - Encuesta Nacional de Demografía y Salud (ENDS),Sin nota,"TIME,OBS,COUNTRY",61.4,2015,68.1,2020,81.4,,MinSalud,,
3,3.7,3.7.4.C,3.7.4.C,Porcentaje de mujeres de 15 a 19 años que son madres o están embarazadas de su primer hijo,Low,NATIONAL,1,PERCENTAGE,%,Mide el porcentaje de mujeres entre 15 a 19 años que han sido madres o están embarazadas al momento de realizar la encuesta.,Profamilia - Encuesta Nacional de Demografía y Salud (ENDS),Sin nota,"TIME,OBS,COUNTRY",17.4,2015,16.5,2020,12,,MinSalud,0,NO
3,3.7,3.7.5.C,3.7.5.C,Porcentaje de mujeres de 15 a 19 años con embarazo subsiguiente,Low,NATIONAL,1,PERCENTAGE,%,"Mide el porcentaje de mujeres entre 15 y 19 años con 2 o más embarazos (incluyendo el presente), respecto al total de mujeres de 15 a 19 años que reportan embarazos para el año correspondiente.",DANE - Estadísticas Vitales (EEVV),Sin nota,"TIME,OBS,COUNTRY",20.1,2015,19.0,2018,14.0,,MinSalud,0,NO
3,3.8,3.8.1.P,3.8.1.P,Porcentaje de menores de 1 año con tercera dosis de pentavalente,High,NATIONAL,,PERCENTAGE,%,"Mide el porcentaje de niños menores de 1 año con tres dosis de pentavalente, respecto a la población menor de 1 año.",MinSalud - Programa Ampliado de Inmunización (PAI),Sin nota,"TIME,OBS,COUNTRY,DES_GEO_DEPTOS,DES_GEO_REGIONES",91.4,2015,93,2018,95,,MinSalud,0,NO
3,3.8,3.8.2.P,3.8.2.P,Porcentaje niños y niñas de 1 año con vacunación de triple viral,High,NATIONAL,1,PERCENTAGE,%,"Mide el porcentaje de niños de 1 año con vacuna triple viral del total de la población de niños de un año, respecto a la población menor de 1 año.",MinSalud - Programa Ampliado de Inmunización (PAI),Sin nota,"TIME,OBS,COUNTRY,DES_GEO_DEPTOS,DES_GEO_REGIONES,DES_GEO_MUNICIPIOS",94,2015,94.5,2018,95,,MinSalud,0,NO
3,3.8,3.8.3.P,3.8.3.P,Porcentaje de población afiliada al sistema de seguridad social en salud,High,NATIONAL,,PERCENTAGE,%,"Mide el porcentaje de la población afiliada al Sistema General de Seguridad Social en Salud, en cualquiera de sus regímenes, respecto al total de la población.",ADRRES - Base de Datos Única de Afiliados (BDUA),Sin nota,"TIME,OBS,COUNTRY,DES_GEO_DEPTOS,DES_GEO_REGIONES,EDAD",95.7,2016,97,2018,99,,MinSalud,0,NO
3,3.9,3.9.1.P,3.9.1.P,Porcentaje de estaciones que cumplen con el objetivo intermedio III de las guías de calidad del aire de la Organización Mundial de la Salud (OMS) en material particulado inferior a 2.5 micras (PM2.5),High,NATIONAL,1,PERCENTAGE,%,"Mide el porcentaje de estaciones de los sistemas de vigilancia de calidad del aire operados por las autoridades ambientales regionales y urbanas del país que cumplen con: 1. El criterio de representatividad temporal de los datos, 2. El objetivo intermedio III de las guías de calidad del aire de la Organización Mundial de la Salud (OMS) en material particulado inferior a 2.5 micras (PM2.5).",IDEAM - Sistema de información sobre calidad de aire (SISAIRE),,"TIME,OBS,COUNTRY",25,2015,35,2018,70,,IDEAM,,
3,3.9,3.9.2.P,3.9.2.P,Porcentaje de estaciones que cumplen con el objetivo intermedio III de las guías de calidad del aire de la Organización Mundial de la Salud (OMS) en material particulado inferior a 10 micras (PM10),High,NATIONAL,1,PERCENTAGE,%,"Mide el porcentaje de estaciones de los sistemas de vigilancia de calidad del aire operados por las autoridades ambientales regionales y urbanas del país que cumplen con: 1. El criterio de representatividad temporal de los datos, 2. El objetivo intermedio III de las guías de calidad del aire de la Organización Mundial de la Salud (OMS) en material particulado inferior a 10 micras (PM10).",IDEAM - Sistema de información sobre calidad de aire (SISAIRE),,"TIME,OBS,COUNTRY",14.9,2015,25,2018,70,,IDEAM,,
3,3.9,3.9.3.C,3.9.3.C,Incidencia de intoxicaciones por sustancias químicas,Low,NATIONAL,1,RATEX100THHAB,por 100.000 habitantes,"Mide la frecuencia relativa de casos nuevos de intoxicación por sustancias químicas que se presentaron en la población durante un periodo epidemiológico, por cada 100.000 habitantes.",Instituto Nacional de Salud (INS)-Sistema de Información para la Vigilancia en Salud Pública (SIVIGILA) - DANE,Sin nota,"TIME,OBS,COUNTRY,DES_GEO_DEPTOS,DES_GEO_REGIONES,SEXO",70.1,2015,60,2018,47,,MinSalud,0,NO
3,3.9,3.9.4.C,3.9.4.C,Índice de Riesgo Calidad del Agua para consumo humano (IRCA) Urbano,Low,NATIONAL,1,PERCENTAGE,%,"Mide el grado de riesgo de ocurrencia de enfermedades relacionadas con el no cumplimiento de las características físicas, químicas y microbiológicas del agua para consumo humano (urbano).",INS - Sistema de la Vigilancia de la Calidad del Agua Potable para Consumo humano (SIVICAP),,"TIME,OBS,COUNTRY",9.6,2015,8,2018,5,,MinVivienda,,
3,3.9,3.9.5.C,3.9.5.C,Índice de Riesgo Calidad del Agua para consumo humano (IRCA) Rural,Low,NATIONAL,1,PERCENTAGE,%,"Mide el grado de riesgo de ocurrencia de enfermedades relacionadas con el no cumplimiento de las características físicas, químicas y microbiológicas del agua para consumo humano (rural).",INS - Sistema de la Vigilancia de la Calidad del Agua Potable para Consumo humano (SIVICAP),,"TIME,OBS,COUNTRY",45,2015,,,,,MinVivienda,,
3,3.a,3.a.1.P,3.a.1.P,Prevalencia actual de consumo de tabaco,Low,NATIONAL,,PERCENTAGE,%,"Mide el porcentaje de personas mayores de 10 años que actualmente fuma (cigarrillo, tabaco), respecto a la población total.",DANE - Encuesta Nacional de Calidad de Vida (ECV),,"TIME,OBS,COUNTRY",8.3,2016,,2018,7.5,,MinSalud,,
4,4.1,4.1.1.P,4.1.1.P,Porcentaje de estudiantes que se encuentran en nivel de desempeño satisfactorio y avanzado en las pruebas SABER 5 - Lenguaje,High,NATIONAL,1,PERCENTAGE,%,"Mide el porcentaje de estudiantes que se encuentran en nivel de desempeño satisfactorio y avanzado en las pruebas SABER 5 (lenguaje) grado quinto, respecto a los estudiantes evaluados en este nivel.",ICFES - Pruebas Saber,,"TIME,OBS,COUNTRY",33.5,2015,41.1,2018,44.5,,MinEducación,,
4,4.1,4.1.2.P,4.1.2.P,Porcentaje de estudiantes que se encuentran en nivel de desempeño satisfactorio y avanzado en las pruebas SABER 5 -Matemáticas,High,NATIONAL,1,PERCENTAGE,%,"Mide el porcentaje de estudiantes que se encuentran en nivel de desempeño satisfactorio y avanzado en las pruebas SABER 5  (matemáticas) grado quinto, respecto a los estudiantes evaluados en este nivel.",ICFES - Pruebas Saber,,"TIME,OBS,COUNTRY",28.3,2015,30.3,2018,38.1,,MinEducación,,
4,4.1,4.1.3.P,4.1.3.P,Porcentaje de estudiantes que se encuentran en nivel de desempeño satisfactorio y avanzado en las pruebas SABER 9 - Lenguaje,High,NATIONAL,1,PERCENTAGE,%,"Mide el porcentaje de estudiantes que se encuentran en nivel de desempeño satisfactorio y avanzado en las pruebas SABER 9 (lenguaje) grado noveno, respecto a los estudiantes evaluados en este nivel.",ICFES - Pruebas Saber,,"TIME,OBS,COUNTRY",34.0,2015,41.0,2018,44.5,,MinEducación,,
4,4.1,4.1.4.P,4.1.4.P,Porcentaje de estudiantes que se encuentran en nivel de desempeño satisfactorio y avanzado en las pruebas SABER 9 - Matemáticas,High,NATIONAL,1,PERCENTAGE,%,"Mide el porcentaje de estudiantes que se encuentran en nivel de desempeño satisfactorio y avanzado en las pruebas SABER 9 (matemáticas) grado noveno, respecto a los estudiantes evaluados en este nivel.",ICFES - Pruebas Saber,,"TIME,OBS,COUNTRY",18.8,2015,26.3,2018,29.7,,MinEducación,,
4,4.1,4.1.5.C,4.1.5.C,Tasa de cobertura bruta en educación media,High,NATIONAL,1,PERCENTAGE,%,"Mide el porcentaje de estudiantes matriculados en educación media (independientemente de la edad que tengan), respecto al total de la población en edad teórica (de 15 a 16 años) para cursar este nivel.",MinEducación - Sistema Integrado de Matrícula (SIMAT),Sin nota,"TIME,OBS,COUNTRY,SEXO,DES_GEO_DEPTOS,DES_GEO_REGIONES",77.8,2015,83,2018,95,,MinEducación,0,NO
4,4.2,4.2.1.C,4.2.1.C,Porcentaje de niñas y niños en primera infancia que cuentan con las atenciones priorizadas en el marco de la atención integral,High,NATIONAL,1,PERCENTAGE,%,"Mide el porcentaje de niños y niñas activos en el Sistema de Seguimiento Niño a Niño (SSNN) que reciben 6 o más atenciones de las priorizadas por la Comisión Intersectorial para la Atención Integral a la Primera Infancia (CIPI) (registro civil, seguimiento nutricional, vacunación, afiliación a salud, controles de crecimiento y desarrollo, formación a familias, acceso a material cultural con contenidos especializados, talento humano cualificado y acceso a educación inicial).",Comisión Intersectorial para la Primera Infancia (CIPI),Sin nota,"TIME,OBS,COUNTRY",34.2,2015,85.0,2018,95.0,,Comisión Intersectorial para la primera Infancia CIPI,0,NO
4,4.2,4.2.2.C,4.2.2.C,Tasa de cobertura bruta en transición,High,GLOBAL,1,PERCENTAGE,%,"Mide la relación porcentual entre el total de los alumnos matriculados en el nivel de transición, independiente de la edad que estos tengan, respecto al total de la población con 5 años de edad.",MinEducación - Sistema Integrado de Matrícula (SIMAT),Sin nota,"TIME,OBS,COUNTRY,DES_GEO_DEPTOS,DES_GEO_REGIONES,DES_GEO_MUNICIPIOS",85.9,2015,88.7,2018,100,,MinEducación,1,NO
4,4.2,4.2.3.C,4.2.3.C,"Porcentaje de niños y  niñas menores de 5 años que asisten a un hogar comunitario, jardín, centro de desarrollo infantil o colegio.",High,NATIONAL,,PERCENTAGE,%,"Mide el porcentaje de niños y niñas menores de 5 años que asisten a un hogar comunitario, jardín, centro de desarrollo infantil o colegio, respecto a total de niños y niñas menores de 5 años",DANE - Encuesta Nacional de Calidad de Vida (ECV),Sin nota,"TIME,OBS,COUNTRY",36.7,2015,37,2018,50,,En revisión,,
4,4.3,4.3.1.C,4.3.1.C,Cobertura en educación superior,High,NATIONAL,1,PERCENTAGE,%,"Mide la relación porcentual entre el total de estudiantes matriculados en programas de pregrado (técnicos, tecnológicos y universitarios), independientemente de la edad que estos tengan, respecto al total de la población entre 17 y 21 años (rango de edad teórico).",MinEducación - Sistema Nacional de Información de Educación Superior (SNIES),Sin nota,"TIME,OBS,COUNTRY,DES_GEO_DEPTOS,DES_GEO_REGIONES,SEXO",49.4,2015,57,2018,80,,MinEducación,0,SI
4,4.5,4.5.1.C,4.5.1.C,"Brecha entre cobertura neta urbano-rural en educación preescolar, básica y media",Low,NATIONAL,1,PORPOINTS,Puntos porcentuales,"Diferencia en puntos porcentuales entre la cobertura neta para zona urbana y la cobertura neta para zona rural en los niveles de preescolar, básica y media. A medida que la diferencia disminuye refleja condiciones equitativas de acceso al sistema escolar.",MinEducación - Sistema Integrado de Matrícula (SIMAT),Sin nota,"TIME,OBS,COUNTRY",8.2,2015,7.7,2018,5.5,,MinEducación,0,NO
4,4.6,4.6.1.C,4.6.1.C,Tasa de analfabetismo para la población de 15 años y más,Low,NATIONAL,1,PERCENTAGE,%,"Mide el porcentaje de la población de 15 años y más que no sabe leer ni escribir, respecto al total de la población de 15 años y más.",DANE - Gran Encuesta Integrada de Hogares (GEIH),Sin nota,"TIME,OBS,COUNTRY,DES_GEO_CCPRURALDISP,SEXO,DES_GEO_DEPTOS,DES_GEO_REGIONES,DES_GEO_MUNICIPIOS",5.8,2015,5.2,2018,3,,DANE - Gran Encuesta Integrada de Hogares (GEIH),0,NO
4,4.a,4.a.1.C,4.a.1.C,Porcentaje de matrícula oficial con conexión a internet,High,NATIONAL,1,PERCENTAGE,%,"Mide el porcentaje de estudiantes de sedes educativas oficiales con conexión a internet, respecto al total de estudiantes en sedes educativas oficiales.",MinEducación - Sistema Integrado de Matrícula (SIMAT) MinTIC MinEducación - Reporte de Conectividad por Sede Educativa,Sin nota,"TIME,OBS,COUNTRY,DES_GEO_DEPTOS,DES_GEO_REGIONES,DES_GEO_MUNICIPIOS",74.1,2015,90,2018,100,,MinEducación,0,NO
5,5.1,5.1.1.C,5.1.1.C,Porcentaje de municipios que cuentan con mecanismo intersectorial para el abordaje de las violencias de género,High,NATIONAL,1,PERCENTAGE,%,Mide el porcentaje de municipios que cuentan con mecanismo de articulación intersectorial para el abordaje integral de las violencias de género creada por acto administrativo (decreto o acuerdo).,MinSalud  Línea de Violencias de género.,Sin nota,"TIME,OBS,COUNTRY",10.7,2015,50,2018,80,,MinSalud,0,NO
5,5.2,5.2.1.P,5.2.1.P,Porcentaje de mujeres que han sido forzadas físicamente por el esposo o compañero a tener relaciones o actos sexuales,Low,GLOBAL,1,PERCENTAGE,%,"Mide el porcentaje de mujeres de 13 a 49 años que alguna vez han experimentado violencia sexual física por la pareja o el compañero para tener relaciones o llevar a cabo actos sexuales, respecto al total de encuestadas.",Profamilia - Encuesta Nacional de Demografía y Salud (ENDS),Sin nota,"TIME,OBS,COUNTRY",7.6,2015,6.1,2020,5,,MinSalud,1,NO
5,5.2,5.2.2.P,5.2.2.P,Porcentaje de mujeres que han sido forzadas físicamente por otra persona diferente a su esposo o compañero a tener relaciones o actos sexuales,Low,GLOBAL,1,PERCENTAGE,%,"Mide el porcentaje de mujeres de 13 a 49 años que alguna vez han experimentado violencia sexual física por otra persona diferente a la pareja o al compañero para tener relaciones o llevar a cabo actos sexuales, respecto al total de encuestadas.",Profamilia - Encuesta Nacional de Demografía y Salud (ENDS),Sin nota,"TIME,OBS,COUNTRY",4.5,2015,4.0,2020,2.5,,MinSalud,1,NO
5,5.2,5.2.3.P,5.2.3.P,"Porcentaje de mujeres, alguna vez unidas, que han experimentado alguna violencia física por parte del esposo o compañero",Low,NATIONAL,1,PERCENTAGE,%,"Mide el porcentaje de mujeres de 13 a 49 años, alguna vez unidas, que han experimentado alguna violencia física por parte del esposo o compañero, respecto al total de encuestadas.",Profamilia - Encuesta Nacional de Demografía y Salud (ENDS),Sin nota,"TIME,OBS,COUNTRY",31.9,2015,31.9,2020,27.0,,MinSalud,0,NO
5,5.2,5.2.4.P,5.2.4.P,Porcentaje de mujeres que han experimentado alguna violencia física por una persona diferente al esposo o compañero,Low,NATIONAL,,PERCENTAGE,%,"Mide el porcentaje de mujeres de 13 a 49 años que alguna vez han experimentado violencia sexual física por otra persona diferente a la pareja o al compañero para tener relaciones o llevar a cabo actos sexuales, respecto al total de encuestadas.",Profamilia - Encuesta Nacional de Demografía y Salud (ENDS),Sin nota,"TIME,OBS,COUNTRY",13.0,2015,12.0,2020,10.0,,MinSalud,0,NO
5,5.2,5.2.5.P,5.2.5.P,"Porcentaje de mujeres, alguna vez unidas, que reportaron violencia psicológica por parte de su pareja",Low,NATIONAL,1,PERCENTAGE,%,"Mide el porcentaje de mujeres de 13 a 49 años que han experimentado violencia psicológica por parte de su esposo o compañero, respecto al total de encuestadas.",Profamilia - Encuesta Nacional de Demografía y Salud (ENDS),,"TIME,OBS,COUNTRY",64.1,2015,63.2,2020,50,,MinSalud,,
5,5.2,5.2.6.C,5.2.6.C,Tasa de homicidio de mujeres,Low,NATIONAL,1,RATEX100THHABW,por 100.000 mujeres,"Mide el número de homicidios de mujeres ocurridos en Colombia al año, por cada 100.000 habitantes de sexo femenino.","MinDefensa - Sistema de Información Estadística, Delicuencial, Contravencional y Operativa (SIEDCO)",Sin nota,"TIME,OBS,COUNTRY",4.4,2015,3.2,2018,1.9,,Policía Nacional - MinDefensa,0,NO
5,5.3,5.3.1.P,5.3.1.P,Porcentaje de mujeres entre 20 y 24 años que estaban casadas o mantenían una unión estable antes de cumplir los 18 años,Low,NATIONAL,,PERCENTAGE,%,"Mide el porcentaje de mujeres entre los 20 y 24 años que estaban casadas o mantenían una unión estable antes de cumplir los 18 años, respecto al total de encuestadas.",Profamilia - Encuesta Nacional de Demografía y Salud (ENDS),Sin nota,"TIME,OBS,COUNTRY",20.6,2015,19.1,2020,17.7,,MinSalud,0,NO
5,5.3,5.3.2.C,5.3.2.C,Porcentaje de mujeres entre 20 y 24 años que estaban casadas o mantenían una unión estable antes de cumplir los 15 años,Low,NATIONAL,,PERCENTAGE,%,"Mide el porcentaje de mujeres entre los 20 y 24 años que estaban casadas o mantenían una unión estable antes de cumplir los 15 años, respecto al total de encuestadas.",Profamilia - Encuesta Nacional de Demografía y Salud (ENDS),Sin nota,"TIME,OBS,COUNTRY",4,2015,3.6,2020,3.1,,MinSalud,0,NO
5,5.4,5.4.1.P,5.4.1.P,Brecha del tiempo dedicado a quehaceres domésticos y cuidados no remunerados por hombres y mujeres,Low,NATIONAL,,PERCENTAGE,%,"Mide la diferencia porcentual entre el tiempo anual dedicado a Trabajo Doméstico y De Cuidado No Remunerado (TDCNR) por las mujeres y el dedicado por los hombres, respecto del tiempo de TDCNR dedicado por las mujeres.",DANE - Encuesta Nacional de Uso del Tiempo (ENUT),Sin nota,"TIME,OBS,COUNTRY",74.1,2012,,2018,,,DANE - Encuesta Nacional de Uso del Tiempo (ENUT),0,NO
5,5.4,5.4.2.C,5.4.2.C,Brecha de la valoración económica del trabajo doméstico y de cuidado no remunerado como porcentaje del Producto Interno Bruto (PIB),Low,NATIONAL,,PERCENTAGE,%,"Mide la brecha de la valoración económica del Trabajo Doméstico y De Cuidado No Remunerado (TDCNR) como proporción del Producto Interno Bruto (PIB), para mujeres. La valoración económica se obtiene del producto entre las horas dedicadas al trabajo doméstico y de cuidado no remunerado, y el costo de reemplazar dichas horas a los ingresos promedio por hora en el mercado laboral.",DANE - Encuesta Nacional de Uso del Tiempo (ENUT),Sin nota,"TIME,OBS,COUNTRY",11.9,2012,,2018,,,DANE - Encuesta Nacional de Uso del Tiempo (ENUT),0,NO
5,5.5,5.5.1.C,5.5.1.C,Porcentaje de mujeres en cargos directivos del Estado Colombiano,High,NATIONAL,1,PERCENTAGE,%,"Mide el porcentaje de mujeres asalariadas empleadas en roles de toma de decisiones y de gestión en el gobierno, respecto al total de asalariadas, que hacen parte del nivel directivo en el Estado Colombiano.",Departamento Administrativo de la Función Pública,,"TIME,OBS,COUNTRY",43.5,2015,44.5,2018,50,,Departamento Administrativo de la Función Pública,,SI
5,5.5,5.5.1.P,5.5.1.P,Porcentaje de mujeres candidatas del total de personas candidatizadas,High,NATIONAL,1,PERCENTAGE,%,"Mide el porcentaje de mujeres que se presentan como candidatas a cargos de elección popular (alcaldías, gobernaciones, asambleas departamentales, consejos municipales/distritales), respecto al total de personas que se candidatizan en cada elección.",Registraduría Nacional del Estado Civil,Sin nota,"TIME,OBS,COUNTRY,NIVEL_DECISORIO",36.6,2015,36.6,2018,50,,Registraduría Nacional del Estado Civil,0,NO
5,5.6,5.6.1.P,5.6.1.P,Tasa de fecundidad específica en mujeres adolescentes de 15 a 19 años,Low,NATIONAL,,RATEX1000WOMEN1519,por cada 1.000 mujeres de 15 a 19 año,"Mide el número anual de nacimientos para mujeres de 15 a 19 años, por cada 1.000 mujeres de ese grupo de edad.",DANE - Estadísticas Vitales (EEVV),,"TIME,OBS,COUNTRY,DES_GEO_DEPTOS,DES_GEO_REGIONES",63.9,2015,62.0,2018,46.0,,MinSalud,,
5,5.6,5.6.2.C,5.6.2.C,Porcentaje de mujeres de 15 a 19 años con embarazo subsiguiente,Low,NATIONAL,1,PERCENTAGE,%,"Mide el porcentaje de mujeres entre 15 y 19 años con 2 o más embarazos (incluyendo el presente), respecto al total de mujeres de 15 a 19 años que reportan embarazos para el año correspondiente.",DANE - Estadísticas Vitales (EEVV),,"TIME,OBS,COUNTRY",20.1,2015,19.0,2018,14.0,,MinSalud,,
5,5.6,5.6.3.P,5.6.3.P,Porcentaje de mujeres de 15 a 19 años (unidas y no unidas) con actividad sexual reciente que usan métodos anticonceptivos modernos,High,NATIONAL,1,PERCENTAGE,%,"Mide el porcentaje de uso actual de métodos anticonceptivos modernos en mujeres de 15 a 19 años sexualmente activas (unidas + no unidas con actividad sexual reciente), respecto al total de mujeres sexualmente activas no unidas del mismo grupos de edad encuestadas a nivel nacional.",Encuesta Nacional de Demografia y Salud (ENDS),,"TIME,OBS,COUNTRY",28.5,2015,35.7,2020,48.6,,MinSalud,,
5,5.6,5.6.4.P,5.6.4.P,Porcentaje de mujeres de 15 a 49 años (unidas y no unidas) con actividad sexual reciente que usan métodos anticonceptivos modernos,High,NATIONAL,,PERCENTAGE,%,"Mide el porcentaje de mujeres de 15 a 49 años unidas y no unidas con actividad sexual reciente que usan cualquier método anticonceptivo moderno, respecto al total de mujeres de 15 a 49 años sexualmente activas  que se encuestan a nivel nacional.",Profamilia - Encuesta Nacional de Demografía y Salud (ENDS),Sin nota,"TIME,OBS,COUNTRY",61.4,2015,68.1,2020,81.4,,MinSalud,,
5,5.6,5.6.5.C,5.6.5.C,Porcentaje de mujeres de 15 a 19 años que son madres o están embarazadas de su primer hijo,Low,NATIONAL,1,PERCENTAGE,%,Mide el porcentaje de mujeres entre 15 a 19 años que han sido madres o están embarazadas al momento de realizar la encuesta.,Profamilia - Encuesta Nacional de Demografía y Salud (ENDS),,"TIME,OBS,COUNTRY",17.4,2015,16.5,2020,12,,MinSalud,,
5,5.a,5.a.1.C,5.a.1.C,Brecha de ingreso mensual promedio entre hombres y mujeres,Low,NATIONAL,1,PERCENTAGE,%,"Mide la diferencia porcentual entre el ingreso laboral mensual de hombres y mujeres. El ingreso laboral es la suma de los ingresos de la primera actividad, los ingresos por segunda actividad y los ingresos en especie.",DANE - Gran Encuesta Integrada de Hogares (GEIH),Sin nota,"TIME,OBS,COUNTRY,DES_GEO_CCPRURALDISP,DES_GEO_DEPTOS,DES_GEO_REGIONES,DES_GEO_MUNICIPIOS",20.4,2015,19.3,2018,15,,DANE - Gran Encuesta Integrada de Hogares (GEIH),0,NO
5,5.b,5.b.1.P,5.b.1.P,Porcentaje de mujeres que usan teléfono celular,High,NATIONAL,,PERCENTAGE,%,"Mide el porcentaje de mujeres mayores de 5 años que usan un teléfono celular, respecto al total de mujeres mayores de 5 años.",DANE - Encuesta Nacional de Calidad de Vida (ECV),Sin nota,"TIME,OBS,COUNTRY,DES_GEO_REGIONES,DES_GEO_RURALDISPERSO,EDAD19",86.7,2015,90.0,2018,93.0,,DANE - Encuesta Nacional de Calidad de Vida (ECV),0,NO
5,5.b,5.b.2.P,5.b.2.P,Porcentaje de mujeres que usan internet,High,NATIONAL,,PERCENTAGE,%,"Mide el porcentaje de mujeres mayores de 5 años que usan internet, respecto al total de mujeres mayores de 5 años.",DANE - Encuesta Nacional de Calidad de Vida (ECV),Sin nota,"TIME,OBS,COUNTRY,DES_GEO_REGIONES,DES_GEO_RURALDISPERSO,EDAD19",55.2,2015,60.6,2018,94.0,,DANE - Encuesta Nacional de Calidad de Vida (ECV),0,NO
5,5.b,5.b.3.C,5.b.3.C,Porcentaje de mujeres que usan terminales,High,NATIONAL,,PERCENTAGE,%,"Mide el porcentaje de mujeres mayores de 5 años que usan terminales (computador portátil o de escritorio, tableta o Smartphone), respecto al total de mujeres mayores de 5 años.(Nota: la medición de Smartphone inicia en 2017).",DANE - Encuesta Nacional de Calidad de Vida (ECV),Sin nota,"TIME,OBS,COUNTRY,DES_GEO_REGIONES,DES_GEO_RURALDISPERSO,EDAD19",51.6,2015,51.6,2018,99.0,,DANE - Encuesta Nacional de Calidad de Vida (ECV),0,NO
6,6.1,6.1.1.P,6.1.1.P,Acceso a agua potable,High,NATIONAL,1,PERCENTAGE,%,"Mide el porcentaje de la población que accede a métodos de abastecimiento de agua adecuados, respecto al total de población.",DANE - Gran Encuesta Integrada de Hogares (GEIH),Sin nota,"TIME,OBS,COUNTRY,DES_GEO_CCPRURALDISP,DES_GEO_DEPTOS,DES_GEO_REGIONES,DES_GEO_MUNICIPIOS",91.8,2015,92.9,2018,100,,DANE - Gran Encuesta Integrada de Hogares (GEIH),0,SI
6,6.1,6.1.2.P,6.1.2.P,Acceso a agua potable (suelo urbano),High,NATIONAL,,PERCENTAGE,%,"Mide el porcentaje de la población que accede a métodos de abastecimiento de agua adecuados, respecto a la población total. Los métodos de abastecimiento de agua adecuados en suelo urbano son los prevenientes del servicio público domiciliario de acueducto",DANE - Gran Encuesta Integrada de Hogares (GEIH),Sin nota,"TIME,OBS,COUNTRY",97.3,2015,98,2018,100,,DANE - Gran Encuesta Integrada de Hogares (GEIH),,
6,6.1,6.1.3.P,6.1.3.P,Acceso a agua potable (suelo rural),High,NATIONAL,,PERCENTAGE,%,"Mide el porcentaje de la población que accede a métodos de abastecimiento de agua adecuados, respecto a la población total. Los métodos de abastecimiento de agua adecuados en suelo rural son los provenientes del servicio público domiciliario de acueducto y las soluciones alternativas para el aprovisionamiento de agua para consumo humano y doméstico (decreto 1898 de 02016).",DANE - Gran Encuesta Integrada de Hogares (GEIH),Sin nota,"TIME,OBS,COUNTRY",74.3,2015,76.6,2018,100,,DANE - Gran Encuesta Integrada de Hogares (GEIH),,
6,6.2,6.2.1.P,6.2.1.P,Porcentaje de la población con acceso a métodos de saneamiento adecuados,High,NATIONAL,,PERCENTAGE,%,"Mide el porcentaje de la población que accede a métodos de saneamiento gestionados de forma segura, respecto al total de población.",DANE - Gran Encuesta Integrada de Hogares (GEIH),Sin nota,"TIME,OBS,COUNTRY,DES_GEO_CCPRURALDISP,DES_GEO_DEPTOS,DES_GEO_REGIONES,DES_GEO_MUNICIPIOS",87.4,2015,89.0,2018,92.6,,DANE - Gran Encuesta Integrada de Hogares (GEIH),0,NO
6,6.3,6.3.1.P,6.3.1.P,Porcentaje de aguas residuales urbanas domésticas tratadas de manera segura,High,NATIONAL,1,PERCENTAGE,%,Mide el porcentaje de aguas residuales urbanas domésticas tratadas de acuerdo con el caudal de aguas residuales generadas,"Superintendencia de Servicios Públicos Domiciliarios  Sistema Único de Información (SUI), Requerimientos al prestador y visitas de inspección",Sin nota,"TIME,OBS,COUNTRY",37.3,2015,41.0,2018,68.6,,Superintendencia de Servicios Públicos Domiciliarios,0,NO
6,6.3,6.3.2.P,6.3.2.P,Porcentaje de aguas residuales industriales tratadas,High,NATIONAL,,PERCENTAGE,%,"Mide el porcentaje del volumen de agua residual que es sometido a tratamiento primario o superior, respecto al volumen total de aguas residuales generadas por las industrias.",DANE - Encuesta Ambiental Industrial,,"TIME,OBS,COUNTRY",85,2015,85,2018,92,,DANE - Encuesta Ambiental Industrial,,
6,6.3,6.3.3.C,6.3.3.C,Porcentaje de puntos de monitoreo con categoría buena o aceptable del Índice de Calidad de Agua (ICA),High,NATIONAL,1,PERCENTAGE,%,"Mide el porcentaje de puntos de monitoreo de la red básica nacional de calidad de agua del IDEAM con categoría buena o aceptable del Índice de Calidad de Agua, calculado con 6 variables.",IDEAM,Sin nota,"TIME,OBS,COUNTRY",36,2015,36,2018,43,,IDEAM,0,NO
6,6.4,6.4.1.C,6.4.1.C,Porcentaje de subzonas hidrográficas con Índice de Uso del Agua (IUA) muy alto o crítico,Low,NATIONAL,1,PERCENTAGE,%,"Mide el porcentaje de subzonas hidrográficas que tienen condiciones muy altas o críticas de presión por demanda del recurso hídrico, Índice de Uso de Agua (IUA).",IDEAM  Estudio Nacional del Agua,,"TIME,OBS,COUNTRY",8.2,2012,10.6,2018,17.8,,IDEAM,,
6,6.4,6.4.2.C,6.4.2.C,Productividad hídrica,High,NATIONAL,,PESOS_MTR3,CO$/m3,Mide una aproximación de la presión que ejerce la economía sobre los recursos hídricos.,DANE - Cuenta Ambiental y económica de flujo del agua,Sin nota,"TIME,OBS,COUNTRY",3334,2015,3400,2018,4400,,DANE - Cuenta Ambiental y económica de flujo del agua,0,NO
6,6.5,6.5.1.C,6.5.1.C,Planes de Ordenación y Manejo de Cuencas Hidrográficas (POMCA) formulados en el territorio nacional,High,NATIONAL,1,PLANS,Planes,"Mide el número de Planes de Ordenación y Manejo de Cuencas Hidrográficas (POMCA) formulados a partir de la nueva estructura de planificación y ordenamiento del recurso hídrico, acorde con el Decreto 1640 de 2012.",MinAmbiente,,"TIME,OBS,COUNTRY",3,2015,60,2018,135,,Ministerio de Ambiente,,
6,6.5,6.5.2.C,6.5.2.C,Planes de Ordenación y Manejo de Cuencas Hidrográficas (POMCA) en implementación en el territorio nacional,High,NATIONAL,1,PLANS,Planes,Mide el número de Planes de Ordenación y Manejo de Cuencas Hidrográficas (POMCA) en proceso de implementación que tienen como mínimo un proyecto en fase de ejecución en el respectivo año.,MinAmbiente,,"TIME,OBS,COUNTRY",0,2015,20,2018,60,,Ministerio de Ambiente,,
7,7.1,7.1.1.C,7.1.1.C,Cobertura de energía eléctrica,High,NATIONAL,1,PERCENTAGE,%,"Mide la relación porcentual entre las viviendas con servicio y las viviendas totales.(Nota 1: una vez se determine el número de viviendas, a partir del próximo censo, se ajustarán la línea base y metas 2018.)",Unidad de Planeación Minero Energética (UPME) - Plan indicativo de expansión de Cobertura (PIEC),Sin nota,"TIME,OBS,COUNTRY",96.9,2015,97.2,2018,100,,UPME,0,SI
7,7.2,7.2.1.C,7.2.1.C,Porcentaje de la capacidad instalada de generación de energía eléctrica que corresponde a fuentes renovables,High,NATIONAL,1,PERCENTAGE,%,"Mide el porcentaje de la capacidad instalada cuyas fuentes de energía son renovables (agua, viento, sol, biomasa) entre la capacidad instalada del parque generador.",Unidad de Planeación Minero Energética (UPME) - Balance Energético Colombiano,Sin nota,"TIME,OBS,COUNTRY",69.8,2015,70.3,2018,73.3,,UPME,0,NO
7,7.3,7.3.1.G,7.3.1.G,Intensidad energética,Low,NATIONAL,1,TERAJOULESMILLION,TJ / CO$,"Mide la relación entre el consumo final de energía, respecto al Producto Interno Bruto (PIB) en mil millones de pesos de 2005.","Unidad de Planeación Minero Energética (UPME) - Balance energético Nacional DANE - Cuenta Ambiental y Económica de Flujos de Energía, en Unidades Físicas.",Sin nota,"TIME,OBS,COUNTRY",3.7,2015,3.7,2018,2.9,,UPME,0,NO
7,7.b,7.b.1.C,7.b.1.C,Capacidad instalada de generación de energía eléctrica,High,NATIONAL,,MW,MW,"Mide la Capacidad Efectiva Neta (CEN) instalada en el Sistema Interconectado Nacional (SIN) mediante recursos hidráulicos, térmicos, plantas menores y de cogeneradores.",MinMinas  Sistema de Información eléctrico colombiano,Sin nota,"TIME,OBS,COUNTRY",16420,2015,16609,2018,23487,,MinMinas,,
8,8.1,8.1.1.G,8.1.1.G,Crecimiento anual del Producto Interno Bruto (PIB) real per cápita,High,GLOBAL,1,PERCENTAGE,%,Mide la variación porcentual del Producto Interno Bruto (PIB) real anual por persona.,DANE - Cuentas Nacionales,Sin nota,"TIME,OBS,COUNTRY",1.9,2015,2.4,2018,3.3,,DANE - Cuentas Nacionales,1,NO
8,8.2,8.2.1.G,8.2.1.G,Crecimiento anual del Producto Interno Bruto (PIB) real por persona empleada,High,GLOBAL,1,PERCENTAGE,%,Mide la variación porcentual del Productor Interno Bruto (PIB) real anual por persona empleada.,DANE - Cuentas Nacionales,Sin nota,"TIME,OBS,COUNTRY",0.6,2015,1.5,2018,3,,DANE - Cuentas Nacionales,1,NO
8,8.3,8.3.1.C,8.3.1.C,Tasa de formalidad laboral,Low,GLOBAL,1,PERCENTAGE,%,"Mide el porcentaje de la población ocupada formal, respecto a la población ocupada en 23 ciudades y 13 áreas metropolitanas.",DANE - Gran Encuesta Integrada de Hogares (GEIH),Sin nota,"TIME,OBS,COUNTRY,EDAD5",50.8,2015,52,2018,60,,DANE - Gran Encuesta Integrada de Hogares (GEIH),1,SI
8,8.4,8.4.1.C,8.4.1.C,Generación de residuos sólidos y productos residuales frente al Producto Interno Bruto (PIB),Low,NATIONAL,,TONSXBILLIONS,Toneladas por billón de pesos,"Mide el número de toneladas de residuos sólidos generados, respecto al Producto Interno Bruto (PIB).","DANE - Cuenta Ambiental y Económica de Flujo de Materiales - Cuenta de Residuos Sólidos, en unidades físicas.",Sin nota,"TIME,OBS,COUNTRY",24932,2015,22755,2018,15788,,"DANE - Cuenta Ambiental y Económica de Flujo de Materiales - Cuenta de Residuos Sólidos, en unidades físicas.",,
8,8.4,8.4.2.C,8.4.2.C,Porcentaje de residuos sólidos efectivamente aprovechados,High,NATIONAL,1,PERCENTAGE,%,"Mide el porcentaje de residuos sólidos efectivamente aprovechados, con respecto al total de los residuos sólidos generados, en el ámbito nacional.",MinAmbiente,,"TIME,OBS,COUNTRY",17,2015,20,2018,35,,Ministerio de Ambiente,,
8,8.4,8.4.3.C,8.4.3.C,Participación de la economía forestal en el PIB,High,NATIONAL,1,PERCENTAGE,%,"Mide el valor agregado de la economía forestal, que se compone por las actividades: silvicultura, industria de la transformación de la madera y fabricación de papel, cartón y productos de papel y de cartón, frente al  PIB total.",DANE - Cuentas Nacionales,Sin nota,"TIME,OBS,COUNTRY",0.79,2017,,,1.5,,DANE - Cuentas Nacionales,0,NO
8,8.4,8.4.4.C,8.4.4.C,Bioproductos registrados por el Programa Colombia Bio,High,NATIONAL,1,NUM,Número,"Mide el avance en generación de productos biobasados que han alcanzado las fases de desarrollo TRL 5-9, de acuerdo con la metodología de Nivel de Madurez Tecnológica o TRL por sus siglas en inglés (Technology Readiness Level).Los productos biobasados son aquellos productos sostenibles que contienen, de manera parcial o completa, algún material biológico o renovable. El “bio” en “bioproductos” se refiere a insumos derivados de recursos biológicos, tales como animales, bosques maderables y no maderables, incluyendo la agricultura, en contraposición a productos derivados de sustancias de origen industrial de difícil degradación, como petróleo y sus derivados.","Departamento Administrativo de Ciencia, Tecnología e Innovación (Colciencias)",Sin nota,"TIME,OBS,COUNTRY",84,2017,,,500,,"Departamento Administrativo de Ciencia, Tecnología e Innovación (Colciencias)",0,NO
8,8.5,8.5.1.G,8.5.1.G,Tasa de desempleo,Low,GLOBAL,1,PERCENTAGE,%,"Mide el porcentaje de personas que están buscando trabajo, respecto al número de personas que integran la fuerza laboral. ",DANE - Gran Encuesta Integrada de Hogares (GEIH),Sin nota,"TIME,OBS,COUNTRY,DES_GEO_CCPRURALDISP,DES_GEO_DEPTOS,DES_GEO_REGIONES,DES_GEO_MUNICIPIOS,SEXO,EDAD5",8.9,2015,8.9,2018,6.8,,DANE - Gran Encuesta Integrada de Hogares (GEIH),1,NO
8,8.6,8.6.1.P,8.6.1.P,Porcentaje de jóvenes que no estudian y no tienen empleo,Low,GLOBAL,1,PERCENTAGE,%,"Mide el porcentaje de jóvenes que no estudian y no tienen empleo, respecto a la población entre 15 y 24 años de edad.",DANE - Gran Encuesta Integrada de Hogares (GEIH),Sin nota,"TIME,OBS,COUNTRY,DES_GEO_CCPRURALDISP,DES_GEO_DEPTOS,DES_GEO_REGIONES,DES_GEO_MUNICIPIOS",21.3,2015,20,2018,15,,DANE - Gran Encuesta Integrada de Hogares (GEIH),1,NO
8,8.7,8.7.1.G,8.7.1.G,Tasa de trabajo infantil,Low,GLOBAL,1,PERCENTAGE,%,"Mide la relación porcentual entre menores en el rango de edad de 5 y 17 años trabajando, respecto a la población total entre 5 y 17 años.",DANE - Gran Encuesta Integrada de Hogares (GEIH),Sin nota,"TIME,OBS,COUNTRY,DES_GEO_CCPRURALDISP,DES_GEO_MUNICIPIOS,SEXO",9.1,2015,7.9,2018,6,,DANE - Gran Encuesta Integrada de Hogares (GEIH),1,NO
8,8.8,8.8.1.C,8.8.1.C,Porcentaje de población ocupada afiliada a Administradora de Riesgos Laborales,High,NATIONAL,1,PERCENTAGE,%,"Mide el porcentaje de la población ocupada afiliada a una administradora de riesgos laborales, respecto al total de población ocupada.",DANE - Gran Encuesta Integrada de Hogares (GEIH),Sin nota,"TIME,OBS,COUNTRY,DES_GEO_CCPRURALDISP,DES_GEO_DEPTOS,DES_GEO_REGIONES,DES_GEO_MUNICIPIOS,SEXO,EDAD9",34.3,2015,37.1,2018,48,,DANE - Gran Encuesta Integrada de Hogares (GEIH),0,NO
8,8.9,8.9.1.P,8.9.1.P,Participación del valor agregado turístico,High,NATIONAL,,PERCENTAGE,%,"Mide el porcentaje de la participación del valor agregado turístico, respecto al valor agregado de la economía.",DANE - Cuenta Satélite de Turismo,,"TIME,OBS,COUNTRY",1.39,2014,1.45,2018,1.56,,DANE - Cuenta Satélite de Turismo,,
8,8.9,8.9.2.P,8.9.2.P,Porcentaje de población ocupada en la industria turística,High,NATIONAL,,PERCENTAGE,%,"Mide el porcentaje de la población ocupada en actividades relacionadas con el turismo, respecto a la población total.",DANE - Gran Encuesta Integrada de Hogares (GEIH),Sin nota,"TIME,OBS,COUNTRY,SEXO",8.3,2015,8.6,2018,10.8,,DANE - Gran Encuesta Integrada de Hogares (GEIH),0,NO
8,8.10,8.10.1.P,8.10.1.P,Porcentaje de población adulta que cuenta con algún tipo de producto financiero,High,NATIONAL,1,PERCENTAGE,%,"Mide el porcentaje de la población adulta que cuenta con al menos un producto financiero (por ejemplo, cuentas de ahorros, cuentas corrientes, crédito, etc.).",Banca de las Oportunidades  Informe trimestral de la inclusión financiera,Sin nota,"TIME,OBS,COUNTRY",76.3,2015,84,2018,84,,Banca de las Oportunidades,0,NO
8,8.10,8.10.2.P,8.10.2.P,Porcentaje de adultos que tienen un producto financiero activo o vigente,High,NATIONAL,,PERCENTAGE,%,Mide el porcentaje de adultos que tienen un producto financiero activo o vigente en los últimos seis meses.,Banca de las Oportunidades  Informe trimestral de la inclusión financiera,,"TIME,OBS,COUNTRY",63.5,2015,67,2018,70,,Banca de las Oportunidades,,
9,9.1,9.1.1.C,9.1.1.C,Viajes realizados diariamente en sistemas de transporte público organizados,High,NATIONAL,1,TRAVELS,Viajes,Mide el número de viajes diarios realizados en sistemas de transporte público organizados (SITP  SITM  SETP  SITR).,MinTransporte,Sin nota,"TIME,OBS,COUNTRY",3935396,2015,4000000,2018,6900000,,MinTransporte,0,NO
9,9.2,9.2.1.G,9.2.1.G,Valor agregado de la industria manufacturera,High,NATIONAL,,MILLIONS_COP,Millones de pesos,"Mide el valor agregado de la rama de actvidad economica de las cuentas nacionales catalogada como ""industrias manufactureras""  en millones de pesos constantes de 2005.",DANE - Cuentas Nacionales,Sin nota,"TIME,OBS,COUNTRY",58783000,2015,63630515,2018,103597983,,DANE - Cuentas Nacionales,,
9,9.2,9.2.2.P,9.2.2.P,Ocupados en la industria manufacturera,High,NATIONAL,,NUM,Número,"Mide el número de personas ocupadas  en el sector industrial. El sector industrial comprende la minería y canteras, la manufactura, la construcción y los servicios públicos (electricidad, gas y agua). Para el cálculo se utiliza el promedio de todos los trimestres móviles del año.",DANE  Gran Encuesta Integrada de Hogares (GEIH),Sin nota,"TIME,OBS,COUNTRY",2608391,2015,2684485,2018,4062666,,DANE  Gran Encuesta Integrada de Hogares (GEIH),,
9,9.4,9.4.1.P,9.4.1.P,Intensidad de emisiones de CO2 de las industrias manufactureras respecto a valor agregado de la industria manufacturera,High,NATIONAL,,GIGA_CO2,Giga_CO2 por $ miles de millones,Mide la Intensidad de emisiones de CO2 equivalente de las industrias manufactureras como proporción de la industria manufacturera,DANE - Cuenta Ambiental y Económica de Flujos de materiales - cuenta de emisiones al aire - en unidades físicas DANE - Cuenta Nacionales de Colombia,,"TIME,OBS,COUNTRY",0.67,2015,0.71,2018,0.86,,DANE - Cuenta Ambiental y Económica de Flujos de materiales - cuenta de emisiones al aire - en unidades físicas DANE - Cuenta Nacionales de Colombia,,
9,9.5,9.5.1.G,9.5.1.G,Inversión en investigación y desarrollo como porcentaje del Producto Interno Bruto (PIB),High,GLOBAL,1,PERCENTAGE,%,Mide el porcentaje de la inversión en Investigación y Desarrollo respecto al Producto Interno Bruto (PIB).,Observatorio Colombiano de Ciencia y Tecnología (OCyT),Sin nota,"TIME,OBS,COUNTRY",0.29,2015,0.29,2018,0.84,,Colciencias,0,NO
9,9.5,9.5.2.C,9.5.2.C,Tasa de solicitudes de patentes presentadas por vía nacional,High,NATIONAL,,RATEX1MILLIONHAB,por 1.000.000 de habitantes,"Mide el número de solicitudes de patentes presentadas por vía nacional, por cada 1.000.000 de habitantes.",Observatorio Colombiano de Ciencia y Tecnología (OCyT),Sin nota,"TIME,OBS,COUNTRY",5,2015,9,2018,30,,Observatorio Colombiano de Ciencia y Tecnología (OCIT),0,NO
9,9.5,9.5.3.P,9.5.3.P,Inversión pública en I & D de importancia para el crecimiento verde,High,NATIONAL,,PERCENTAGE,%,"Mide la proporción de los esfuerzos gubernamentales en Investigación y Desarrollo (I+D) que se orientan hacia el Crecimiento Verde. Se mide la proporción de la inversión de I+D según las categorías de medio ambiente, energía y agricultura disponibles en el OCyT. 

Se considera como inversión en I & D de importancia para el crecimiento verde la financiación gubernamental de I+D relacionada para los objetivos socioeconómicos de medio ambiente más energía (OSE) reportado por el OCyT. ",Observatorio Colombiano de Ciencia y Tecnología (OCyT),Sin nota,"TIME,OBS,COUNTRY",24,2016,,,0.84,,Observatorio Colombiano de Ciencia y Tecnología (OCIT),0,NO
9,9.b,9.b.1.C,9.b.1.C,Porcentaje de cooperación Internacional en investigación y desarrollo (I+D),High,NATIONAL,,PERCENTAGE,%,"Mide el porcentaje de los recursos provenientes de cooperación internacional en investigación y desarrollo (I+D), respecto al total de inversión en I+D.",Observatorio Colombiano de Ciencia y Tecnología (OCyT),Sin nota,"TIME,OBS,COUNTRY",2.4,2015,,,,,Observatorio Colombiano de Ciencia y Tecnología (OCIT),0,NO
9,9.c,9.c.1.C,9.c.1.C,Hogares con acceso a Internet,Low,NATIONAL,1,PERCENTAGE,%,"Mide el porcentaje de hogares que tiene conexión a Internet, ya sea fijo o móvil, respecto al total de los hogares colombianos.",DANE - Encuesta Nacional de Calidad de Vida (ECV),Sin nota,"TIME,OBS,COUNTRY,DES_GEO_REGIONES,DES_GEO_CCPRURALDISP",41.8,2015,49.9,2018,100,,DANE - Encuesta Nacional de Calidad de Vida (ECV),0,SI
9,9.c,9.c.1.P,9.c.1.P,Porcentaje de personas que usan Internet,High,NATIONAL,,PERCENTAGE,%,"Mide el porcentaje de personas mayores de 5 años que hacen uso de Internet, respecto al total de la población de 5 años y más.",DANE - Encuesta Nacional de Calidad de Vida (ECV),Sin nota,"TIME,OBS,COUNTRY,DES_GEO_REGIONES,DES_GEO_CCPRURALDISP",56,2015,60,2018,93,,DANE - Encuesta Nacional de Calidad de Vida (ECV),0,NO
10,10.1,10.1.1.G,10.1.1.G,Tasa de crecimiento de los ingresos per cápita en el 40% de los hogares más pobres de la población,High,GLOBAL,1,PERCENTAGE,%,"Mide la tasa de crecimiento anualizada del ingreso per cápita de los hogares del 40% de la población más pobre, respecto al ingreso per cápita de los hogares de la población total.",DANE - Gran Encuesta Integrada de Hogares (GEIH),Sin nota,"TIME,OBS,COUNTRY,DES_GEO_CCPRURALDISP,DES_GEO_DEPTOS,DES_GEO_REGIONES,DES_GEO_MUNICIPIOS",2.7,2015,2.7,2018,3.5,,DANE - Gran Encuesta Integrada de Hogares (GEIH),0,NO
10,10.1,10.1.2.C,10.1.2.C,Coeficiente de GINI,Low,NATIONAL,,POINTS,Puntos,"Mide la distribución del ingreso entre hogares dentro de una economía, en un rango entre 0 a 1, donde 0 es perfecta igualdad de ingresos y 1 total desigualdad.",DANE - Gran Encuesta Integrada de Hogares (GEIH),Sin nota,"TIME,OBS,COUNTRY,DES_GEO_CCPRURALDISP,DES_GEO_MUNICIPIOS",522,2015,0.52,2018,0.48,,DANE - Gran Encuesta Integrada de Hogares (GEIH),0,SI
10,10.2,10.2.1.C,10.2.1.C,Brecha de pobreza extrema urbano-rural,Low,NATIONAL,,UNITS,Unidades,Mide la razón entre la proporción de población en situación de pobreza extrema en el ámbito rural y urbano.,DANE - Gran Encuesta Integrada de Hogares (GEIH),Sin nota,"TIME,OBS,COUNTRY",3.67,2015,3.13,2018,2.58,,DANE - Gran Encuesta Integrada de Hogares (GEIH),0,NO
10,10.4,10.4.1.P,10.4.1.P,Valor de ingresos laborales como porcentaje del Producto Interno Bruto (PIB),High,GLOBAL,1,PERCENTAGE,%,"Mide los ingresos laborales (salarios y transferencias de protección social) como porcentaje del Producto Interno Bruto (PIB). Se entiende por ingresos laborales las remuneraciones asalariadas y seguridad social, más la proporción de los ingresos mixtos dirigidos a alguna remuneración laboral.",DANE - Cuentas Nacionales,Sin nota,"TIME,OBS,COUNTRY",33.5,2015,34,2018,35,,DANE - Cuentas Nacionales,1,NO
11,11.1,11.1.1.P,11.1.1.P,Hogares urbanos con déficit cuantitativo de vivienda,Low,NATIONAL,1,PERCENTAGE,%,"Mide el porcentaje de hogares que requieren de una vivienda urbana para que exista una relación uno a uno entre las viviendas adecuadas y los hogares que necesitan alojamiento. Cuando existe esta relación uno a uno, no existe déficit cuantitativo y por lo tanto el indicador es 0%.",DNP DANE - Gran Encuesta Integrada de Hogares (GEIH),Sin nota,"TIME,OBS,COUNTRY",6.7,2015,5.5,2018,2.7,,DNP DANE - Gran Encuesta Integrada de Hogares (GEIH),0,SI
11,11.1,11.1.2.P,11.1.2.P,Hogares urbanos con déficit cualitativo de vivienda,Low,NATIONAL,1,PERCENTAGE,%,"Mide el porcentaje de hogares que habitan en viviendas particulares que presentan carencias habitacionales en los atributos referentes a la estructura, espacio y a la disponibilidad de servicios públicos domiciliarios y, por tanto, requieren mejoramiento o ampliación de la unidad habitacional en la cual viven.",DNP DANE - Gran Encuesta Integrada de Hogares (GEIH),Sin nota,"TIME,OBS,COUNTRY",10.97,2015,10.28,2018,7,,DNP DANE - Gran Encuesta Integrada de Hogares (GEIH),0,NO
11,11.2,11.2.1.C,11.2.1.C,Vehículos Eléctricos,High,NATIONAL,1,NUMBER,Acumulado de vehículos,Mide el acumulado de vehículos eléctricos (vehículos particulares y motos eléctricas) en Colombia registrados en el Registro Único Nacional de Tránsito (RUNT). Permite hacer una identificación del nivel de inserción en el mercado de los vehículos eléctricos.,Ministerio de Transporte - RUNT,Sin nota,"TIME,OBS,COUNTRY",1695,2016,,2018,600000,,Ministerio de Transporte - RUNT,,
11,11.4,11.4.1.C,11.4.1.C,Miles de hectáreas de áreas protegidas,High,NATIONAL,1,HECT,ha,"Mide las hectáreas (miles) de la superficie del territorio del país que han sido declaradas e inscritas en el RUNAP como un  área protegida  del Sistema Nacional de Áreas Protegidas - SINAP, respecto al área continental y marina del país.",Ministerio de Ambiente y Desarrollo Sostenible (PNN),,"TIME,OBS,COUNTRY",23617,2015,25914,2018,30620,,Ministerio de Ambiente,,
11,11.5,11.5.1.P,11.5.1.P,Mortalidad nacional causada por eventos recurrentes,Low,NATIONAL,1,DEATHS,Muertes,"Se refiere al número muertes confirmadas en un desastre o tras el impacto de un desastre ocasionado por un evento recurrente. Por evento recurrente se consideran todos aquellos asociados a inundaciones, avenidas torrenciales y remoción en masa (se excluyen los eventos atípicos)",Unidad Nacional de Gestión del Riesgo de Desastre (UNGRD) - Consolidado Atención de Emergencias,,"TIME,OBS,COUNTRY",89,2015,87,2018,80,,UNGRD,,
11,11.5,11.5.2.P,11.5.2.P,Tasa de personas afectadas a causa de eventos recurrentes,Low,NATIONAL,1,RATEX100THHAB,por 100.000 habitantes,"Se refiere al número de personas afectadas en sus bienes, infraestructura y/o medios de subsistencia tras el impacto de un evento recurrente, por cada 100.000 habitantes. Por evento recurrente se consideran todos aquellos asociados a inundaciones, avenidas torrenciales y remoción en masa (se excluyen los eventos atípicos)",Unidad Nacional de Gestión del Riesgo de Desastre (UNGRD) - Consolidado Atención de Emergencias,Sin nota,"TIME,OBS,COUNTRY",989.79,2015,971.98,2018,890.82,,UNGRD,0,NO
11,11.6,11.6.1.P,11.6.1.P,Porcentaje de estaciones que cumplen con el objetivo intermedio III de las guías de calidad del aire de la Organización Mundial de la Salud (OMS) en material particulado inferior a 2.5 micras (PM2.5),High,NATIONAL,1,PERCENTAGE,%,"Mide el porcentaje de estaciones de los sistemas de vigilancia de calidad del aire operados por las autoridades ambientales regionales y urbanas del país que cumplen con: 1. El criterio de representatividad temporal de los datos, 2. El objetivo intermedio III de las guías de calidad del aire de la Organización Mundial de la Salud (OMS) en material particulado inferior a 2.5 micras (PM2.5).",IDEAM - Sistema de información sobre calidad de aire (SISAIRE),,"TIME,OBS,COUNTRY",25,2015,35,2018,70,,IDEAM,,
11,11.6,11.6.2.P,11.6.2.P,Porcentaje de estaciones que cumplen con el objetivo intermedio III de las guías de calidad del aire de la Organización Mundial de la Salud (OMS) en material particulado inferior a 10 micras (PM10),High,NATIONAL,1,PERCENTAGE,%,"Mide el porcentaje de estaciones de los sistemas de vigilancia de calidad del aire operados por las autoridades ambientales regionales y urbanas del país que cumplen con: 1. El criterio de representatividad temporal de los datos, 2. El objetivo intermedio III de las guías de calidad del aire de la Organización Mundial de la Salud (OMS) en material particulado inferior a 10 micras (PM10).",IDEAM - Sistema de información sobre calidad de aire (SISAIRE),,"TIME,OBS,COUNTRY",14.9,2015,25,2018,70,,IDEAM,,
11,11.6,11.6.3.P,11.6.3.P,Porcentaje de residuos sólidos urbanos dispuestos adecuadamente,High,NATIONAL,1,PERCENTAGE,%,"Mide el porcentaje de residuos sólidos urbanos que se dispone en un sitio adecuado de disposición final con un instrumento de manejo y control autorizado por la Autoridad Ambiental Competente. Se consideran como sitios de disposición final adecuada los rellenos sanitarios, plantas integrales y celdas de contingencia.",Superintendencia de Servicios Públicos Domiciliarios  Sistema Único de Información (SUI),Sin nota,"TIME,OBS,COUNTRY",97.2,2015,98.9,2018,100,,Superintendencia de Servicios Públicos Domiciliarios,0,NO
11,11.7,11.7.1.P,11.7.1.P,Porcentaje de hombres de 13 a 49 años que han sido tocados o manoseados sin su consentimiento,Low,NATIONAL,1,PERCENTAGE,%,"Mide el porcentaje de hombres entre 13 y 49 años que han sido tocados o manoseados sin su consentimiento, respecto al total de hombres encuestados en este rango de edad.",MinSalud - Encuesta Nacional de Demografía y Salud (ENDS),Sin nota,"TIME,OBS,COUNTRY",9.4,2015,9.4,2020,5,,MinSalud,0,NO
11,11.7,11.7.2.P,11.7.2.P,Porcentaje de mujeres de 13 a 49 años que han sido tocadas o manoseadas sin su consentimiento,Low,NATIONAL,1,PERCENTAGE,%,"Mide el porcentaje de mujeres entre 13 y 49 años que han sido tocadas o manoseadas sin su consentimiento, respecto al total de mujeres encuestadas en este rango de edad.",MinSalud - Encuesta Nacional de Demografía y Salud (ENDS),Sin nota,"TIME,OBS,COUNTRY",17.9,2015,17.9,2020,8,,MinSalud,0,NO
11,11.b,11.b.1.C,11.b.1.C,Porcentaje de municipios y Departamentos con Planes de Ordenamiento Territorial (POD y POT) que incorporan el componente de cambio climático,High,NATIONAL,1,PERCENTAGE,%,"Mide el porcentaje de territorios que han formulado Planes de Ordenamiento Territorial (POT) o Planes de Ordenamiento Departamental (POD) en los cuales se incluye el componente de cambio climático, respecto al total de entidades territoriales (municipios y departamentos).",DNP - Sistema POT Modernos,,"TIME,OBS,COUNTRY",0,2015,8.9,2018,100,,DNP,,
11,11.b,11.b.2.C,11.b.2.C,Departamentos con planes integrales (adaptación y mitigación) frente al cambio climático,High,NATIONAL,1,NUMDEPART,Departamentos,"Mide el número de las entidades territoriales departamentales que incorporan acciones de adaptación (reducción de vulnerabilidad, incremento de la capacidad adaptativa, reducción de la exposición y sensibilidad) y/o mitigación (reducción de emisiones de gases de efecto invernadero) de cambio climático en sus instrumentos formales de planificación del desarrollo y de ordenamiento territorial.",MinAmbiente,,"TIME,OBS,COUNTRY",2,2015,11,2018,32,,Ministerio de Ambiente,,
11,11.b,11.b.3.C,11.b.3.C,Porcentaje de departamentos y ciudades capitales que incorporan criterios de cambio climático en las líneas instrumentales de sus planes de desarrollo,High,NATIONAL,1,PERCENTAGE,%,"Mide el porcentaje de departamentos y ciudades capitales que incorporan criterios de cambio climático en las líneas instrumentales de sus planes de desarrollo, respecto al total de departamentos y ciudades capitales.",MinAmbiente,,"TIME,OBS,COUNTRY",0,2015,50,2018,80,,En revisión,,
12,12.3,12.3.1.C,12.3.1.C,Desperdicio de alimentos per cápita en consumo en hogares,Low,NATIONAL,1,KG,kg,"Mide la diferencia entre el consumo nacional aparente y el consumo real ponderado, por la participación de cada alimento en la canasta básica (alimentos que se pierden en la etapa de consumo).",DNP DANE - Encuesta de Ingresos y Gastos,Sin nota,"TIME,OBS,COUNTRY",32.4,2013,27.6,2018,16.2,,DNP,0,NO
12,12.4,12.4.1.P,12.4.1.P,Residuos peligrosos aprovechados y tratados,High,NATIONAL,1,TONS,Ton,Mide la cantidad de residuos o desechos peligrosos aprovechados y tratados acumulados.,IDEAM,,"TIME,OBS,COUNTRY",210132,2015,738461,2018,2806130,,Ministerio de Ambiente,,
12,12.4,12.4.2.C,12.4.2.C,Porcentaje de equipos y desechos de policlorobifenilos (PCB) eliminados,High,NATIONAL,1,PERCENTAGE,%,"Mide el porcentaje de equipos y desechos de PCB eliminados correspondientes a los grupos 1, 2 y 3 de la Resolución 0222 de 2011 y la Resolución 1741 de 2016 con relación a las toneladas de PCB reportadas en el inventario Nacional de PCB.",IDEAM - Inventario Nacional de PCB,,"TIME,OBS,COUNTRY",10.1,2015,30,2018,100,,Ministerio de Ambiente,,
12,12.4,12.4.3.C,12.4.3.C,Residuos de bombillas con mercurio aprovechadas o gestionadas,High,NATIONAL,1,TONS,Ton,Mide la cantidad recolectada y aprovechada de residuos de bombillas con contenido de mercurio y que son validadas por la Autoridad Nacional de Licencias Ambientales (ANLA) según la información reportada por los programas posconsumo.,Autoridad Nacional de Licencias Ambientales (ANLA),,"TIME,OBS,COUNTRY",1918,2015,4036,2018,20551,,Ministerio de Ambiente,,
12,12.5,12.5.1.P,12.5.1.P,Tasa de reciclaje y nueva utilización de residuos sólidos,High,NATIONAL,1,PERCENTAGE,%,"Mide el porcentaje entre los residuos que son tratados y/o manejados para ser reintroducidos a los procesos de producción, respecto al total de la oferta de residuos sólidos.",DANE - Cuentas Ambientales,Sin nota,"TIME,OBS,COUNTRY",8.6,2015,10,2018,17.9,,DANE - Cuentas Ambientales,0,SI
12,12.6,12.6.1.C,12.6.1.C,Promedio móvil de la tasa de reporte de la sostenibilidad empresarial para los últimos 5 años,High,NATIONAL,1,RATE,Tasa,"Mide el promedio móvil de empresas y organizaciones que presentan o reportan indicadores sociales y ambientales en sistemas e índices verificables y reconocidos internacionalmente, con el fin de evaluar el impacto y crecimiento asociado a la autorregulación y autogestión de los sectores productivos.",Global Reporting Initiative - Sustainability Disclosure database,,"TIME,OBS,COUNTRY",25,2015,35,2018,35,,Global Reporting Initiative - Sustainability Disclosure database,,
12,12.b,12.b.1.C,12.b.1.C,Negocios verdes verificados,High,NATIONAL,1,BUSINESS,Negocios,"Mide el acumulado de negocios verdes generados, los cuales han sido verificados a través de la herramienta de criterios de negocios verdes, establecidos por el MinAmbiente.",MinAmbiente,,"TIME,OBS,COUNTRY",90,2015,653,2018,12630,,Ministerio de Ambiente,,
13,13.1,13.1.1.P,13.1.1.P,Mortalidad nacional causada por eventos recurrentes,Low,NATIONAL,1,DEATHS,Muertes,"Se refiere al número muertes confirmadas en un desastre o tras el impacto de un desastre ocasionado por un evento recurrente. Por evento recurrente se consideran todos aquellos asociados a inundaciones, avenidas torrenciales y remoción en masa (se excluyen los eventos atípicos)",Unidad Nacional de Gestión del Riesgo de Desastre (UNGRD) - Consolidado Atención de Emergencias,,"TIME,OBS,COUNTRY",89,2015,87,2018,80,,UNGRD,,
13,13.1,13.1.2.P,13.1.2.P,Tasa de personas afectadas a causa de eventos recurrentes,Low,NATIONAL,1,RATEX100THHAB,por 100.000 habitantes,"Se refiere al número de personas afectadas en sus bienes, infraestructura y/o medios de subsistencia tras el impacto de un evento recurrente, por cada 100.000 habitantes. Por evento recurrente se consideran todos aquellos asociados a inundaciones, avenidas torrenciales y remoción en masa (se excluyen los eventos atípicos)",Unidad Nacional de Gestión del Riesgo de Desastre (UNGRD) - Consolidado Atención de Emergencias,,"TIME,OBS,COUNTRY",989.79,2015,971.98,2018,890.82,,UNGRD,,
13,13.1,13.1.3.C,13.1.3.C,Departamentos con planes integrales (adaptación y mitigación) frente al cambio climático,High,NATIONAL,1,NUMDEPART,Departamentos,"Mide el número de entidades territoriales departamentales que incorporan acciones de adaptación (reducción de vulnerabilidad, incremento de la capacidad adaptativa, reducción de la exposición y sensibilidad) y/o mitigación (reducción de emisiones de gases de efecto Invernadero) de cambio climático en sus instrumentos formales de planificación del desarrollo y de ordenamiento territorial.",MinAmbiente,Sin nota,"TIME,OBS,COUNTRY",2,2015,11,2018,32,,Ministerio de Ambiente,0,NO
13,13.2,13.2.1.C,13.2.1.C,Reducción de emisiones totales de gases efecto invernadero,High,NATIONAL,1,PERCENTAGE,%,"Mide la reducción porcentual de emisiones totales de gases de efecto invernadero (CO2 eq) del país, respecto a las emisiones totales proyectadas para el año 2030.",IDEAM,Sin nota,"TIME,OBS,COUNTRY",0,2010,,2018,20,,IDEAM,0,SI
13,13.2,13.2.2.C,13.2.2.C,Porcentaje de municipios y Departamentos con Planes de Ordenamiento Territorial (POD y POT) que incorporan el componente de cambio climático,High,NATIONAL,1,PERCENTAGE,%,"Mide el porcentaje de territorios que han formulado Planes de Ordenamiento Territorial (POT) o Planes de Ordenamiento Departamental (POD) en los cuales se incluye el componente de cambio climático, respecto al total de entidades territoriales (municipios y departamentos).",DNP - Sistema POT Modernos,Sin nota,"TIME,OBS,COUNTRY",0,2015,8.9,2018,100,,DNP,0,NO
13,13.2,13.2.3.C,13.2.3.C,Porcentaje de departamentos y ciudades capitales que incorporan criterios de cambio climático en las líneas instrumentales de sus planes de desarrollo,High,NATIONAL,1,PERCENTAGE,%,"Mide el porcentaje de departamentos y ciudades capitales que incorporan criterios de cambio climático en las líneas instrumentales de sus planes de desarrollo, respecto al total de departamentos y ciudades capitales.",MinAmbiente,,"TIME,OBS,COUNTRY",0,2015,50,2018,80,,En revisión,,
13,13.2,13.2.4.C,13.2.4.C,Planes sectoriales integrales de cambio climático formulados,High,NATIONAL,1,PLANS,Planes,Mide el número de planes integrales de cambio climático formulados por los sectores.,MinAmbiente,,"TIME,OBS,COUNTRY",0,2015,3,2018,8,,En revisión,,
14,14.1,14.1.1.C,14.1.1.C,Porcentaje de estaciones de monitoreo de aguas marinas con categoría entre aceptable a óptima del Índice de calidad de Aguas Marinas (ICAM),High,NATIONAL,,PERCENTAGE,%,"Mide el porcentaje de estaciones de la ""Red de Vigilancia para la conservación y protección de la calidad de las aguas marinas y costeras de Colombia"" (REDCAM) que registran categorías del ICAM entre aceptable y óptima.",INVEMAR,Sin nota,"TIME,OBS,COUNTRY",20,2015,25,2018,30,,En revisión,,
14,14.5,14.5.1.P,14.5.1.P,Miles de hectáreas de áreas marinas protegidas,High,NATIONAL,1,HECT,ha,"Mide las hectáreas (miles) marinas del país que ha sido declaradas e inscritas en el RUNAP como un área protegida del Sistema Nacional de Áreas Protegidas - SINAP, respecto al área marina del país.",PNN - Registro Único Nacional de Áreas Protegidas (RUNAP),,"TIME,OBS,COUNTRY",7892,2015,12850,2018,13250,,PNN,,SI
15,15.1,15.1.1.P,15.1.1.P,Miles de hectáreas de áreas protegidas,High,NATIONAL,1,HECT,ha,"Mide las hectáreas (miles) de la superficie del territorio del país que ha sido declaradas e inscritas en el RUNAP como un  área protegida  del Sistema Nacional de Áreas Protegidas - SINAP, respecto al área continental y marina del país.",PNN - Registro Único Nacional de Áreas Protegidas (RUNAP),Sin nota,"TIME,OBS,COUNTRY",23617,2015,25914,2018,30620,,Ministerio de Ambiente,0,SI
15,15.1,15.1.2.P,15.1.2.P,Porcentaje de la superficie cubierta por bosque natural,High,GLOBAL,1,PERCENTAGE,%,Mide el porcentaje de la superficie cubierta por bosque natural en el área continental e insular de San Andrés y Providencia.,IDEAM,Sin nota,"TIME,OBS,COUNTRY",51.9,2015,51.3,2018,51.1,,Ministerio de Ambiente,1,NO
15,15.1,15.1.3.C,15.1.3.C,Pérdida anualizada de bosque natural,Low,NATIONAL,1,HECT,ha,Mide las pérdidas anuales de bosque natural en la superficie continental e insular de San Andrés y Providencia.,IDEAM,,"TIME,OBS,COUNTRY",124035,2015,90000,2018,0,,Ministerio de Ambiente,,
15,15.1,15.1.4.C,15.1.4.C,Áreas en proceso de restauración,High,NATIONAL,1,HECT,ha,Mide la superficie intervenida durante la fase de ejecución de los proyectos de restauración de ecosistemas definidas en el Plan Nacional de Restauración del Ministerio de Ambiente y Desarrollo Sostenible.,MinAmbiente,Sin nota,"TIME,OBS,COUNTRY",420021,2015,610000,2018,1000000,,Ministerio de Ambiente,0,NO
15,15.2,15.2.1.P,15.2.1.P,Participación de la economía forestal en el PIB,High,NATIONAL,1,PERCENTAGE,%,"Mide el valor agregado de la economía forestal, que se compone por las actividades: silvicultura, industria de la transformación de la madera y fabricación de papel, cartón y productos de papel y de cartón, frente al  PIB total.",DANE - Cuentas Nacionales,Sin nota,"TIME,OBS,COUNTRY",0.79,2017,,2018,1.5,,DANE - Cuentas Nacionales,,
15,15.5,15.5.1.P,15.5.1.P,Proporción de especies críticamente amenazadas,Low,NATIONAL,1,PROPORTION,Proporción,Mide la proporción de especies amenazadas en la categoría de críticamente amenazada (CR).,Instituto de Investigación de Recursos Biológicos Alexander von Humboldt,,"TIME,OBS,COUNTRY",0.14,2014,0.14,2018,0.12,,Ministerio de Ambiente,,
15,15.5,15.5.2.P,15.5.2.P,Proporción de especies amenazadas,Low,NATIONAL,1,PROPORTION,Proporción,Mide la proporción de especies amenazadas en la categoría de amenazada (EN).,Instituto de Investigación de Recursos Biológicos Alexander von Humboldt,,"TIME,OBS,COUNTRY",0.32,2014,0.32,2018,0.32,,En revisión,,
15,15.5,15.5.3.P,15.5.3.P,Proporción de especies vulnerables,Low,NATIONAL,1,PROPORTION,Proporción,Mide la proporción de especies amenazadas en la categoría de vulnerable (VU).,Instituto de Investigación de Recursos Biológicos Alexander von Humboldt,,"TIME,OBS,COUNTRY",0.53,2014,0.53,2018,0.56,,En revisión,,
16,16.1,16.1.1.G,16.1.1.G,Tasa de homicidio,Low,GLOBAL,1,RATEX100THHAB,por 100.000 habitantes,Mide el número de homicidios ocurridos en Colombia al año por cada 100.000 habitantes.,"MinDefensa  Sistema de Información Estadística, Delicuencial, Contravencional y Operativa (SIEDCO)",Sin nota,"TIME,OBS,COUNTRY,SERVICIOS_ESENCIALES",26.5,2015,23,2018,16.4,,MinDefensa,1,SI
16,16.1,16.1.2.P,16.1.2.P,Tasa de víctimas directas de homicidio y de desaparición forzada registradas en el Registro Único de Víctimas (RUV),Low,NATIONAL,1,RATEX100THHAB,por 100.000 habitantes,"Mide el número de víctimas directas de homicidios y desapariciones forzadas ocurridas en el marco del conflicto armado interno, incluidas en el Registro Único de Víctimas (RUV) mediante actos administrativos o fallos, en un año dado, con respecto al tamaño de la población, por cada 100.000 habitantes.",Unidad para la Atención y Reparación Integral a la Victimas (UARIV) - Registro Único de Víctimas (RUV),Sin nota,"TIME,OBS,COUNTRY",0.85,2015,0.3,2018,0,,Unidad para la Atención y Reparación Integral a la Victimas (UARIV),0,NO
16,16.1,16.1.3.C,16.1.3.C,Tasa de victimización de hurto a personas,Low,NATIONAL,1,RATEX100THHAB,por 100.000 habitantes,"Mide el número de personas que ha sufrido hurtos, respecto al total de la población de 15 años y más, por cada 100.000 habitantes.",DANE - Encuesta de convivencia y seguridad ciudadana (ECSC),Sin nota,"TIME,OBS,COUNTRY",11.6,2015,,2018,10.4,,MinDefensa,0,NO
16,16.1,16.1.4.C,16.1.4.C,Tasa de violencia interpersonal,Low,NATIONAL,1,RATEX100THHAB,por 100.000 habitantes,"Mide el número de lesionados por violencia interpersonal e intrafamiliar, respecto al tamaño de la población, por cada 100.000 habitantes.",Instituto Nacional de Medicina Legal y Ciencias Forenses (INMLCF),,"TIME,OBS,COUNTRY",263.1,2015,,2018,209.6,,MinDefensa,,
16,16.3,16.3.1.C,16.3.1.C,Indemnizaciones otorgadas a víctimas del conflicto armado interno,High,NATIONAL,1,NUMCOMPENSATION,Indemnizaciones,"Mide el número de indemnizaciones otorgadas a víctimas del conflicto armado interno. Tiene en cuenta el universo de víctimas a reparar según el decreto 1290/2008, bajo los lineamentos de la ley 1448 de 2011.",Unidad para la Atención y Reparación Integral a la Victimas (UARIV) - INDEMNIZA,Sin nota,"TIME,OBS,COUNTRY",588400,2015,952399,2018,1984635,,Unidad para la Atención y Reparación Integral a la Victimas (UARIV),0,NO
16,16.3,16.3.2.C,16.3.2.C,"Víctimas con atención o acompañamiento psicosocial en modalidad individual, familiar, comunitaria y/o grupal",High,NATIONAL,1,VICTIMS,Víctimas,"Mide el número de víctimas que reciben atención psicosocial a nivel individual, familiar, comunitario y/o grupal como medida de rehabilitación en el marco de la reparación integral definida en la Ley 1448 de 2011, Decreto 4800 de 2011 y el CONPES 3726 de 2011.","Unidad para la Atención y Reparación Integral a la Victimas (UARIV)  Modelo de Atención, Asistencia y Reparación Integral a la Víctimas (MAARIV)",Sin nota,"TIME,OBS,COUNTRY",84913,2015,490000,2018,1462500,,MinSalud,0,NO
16,16.10,16.10.1.C,16.10.1.C,Porcentaje de sujetos obligados incluidos en el Formulario Único Reporte de Avances de la Gestión (FURAG) que avanzan en la implementación de la Ley de Transparencia y Acceso a la Información Pública,High,NATIONAL,1,PERCENTAGE,%,"Mide el porcentaje de sujetos obligados, medidos por el Formulario Único Reporte de Avances de la Gestión (FURAG) o instrumento de medición que haga sus veces, que han alcanzado un cumplimiento mayor o igual al 60% de los requerimientos establecidos en la Ley 1712 de 2014, Ley de Transparencia y Acceso a la Información Pública.",Departamento Administrativo de la Función Pública (DAFP) - Formulario Único Reporte de Avances de la Gestión (FURAG),,"TIME,OBS,COUNTRY",0,2015,7,2018,70,,Secretaria de Transparencia,,
16,16.a,16.a.1.C,16.a.1.C,"Entidades territoriales asistidas técnicamente en procesos de diseño, implementación y seguimiento de planes, programas y proyectos en materia de Derechos Humanos",High,NATIONAL,1,TERRITORIALENTITIES,entidades territoriales,"Mide el número de entidades territoriales (administraciones departamentales y municipales) que cuentan con herramientas teóricas y metodológicas para el diseño, implementación y seguimiento a planes, programas y proyectos que, cumpliendo las obligaciones legales del Estado, generen condiciones para el ejercicio de los derechos (abarcando los componentes de prevención, protección, garantía, difusión y promoción de derechos).",MinInterior,Sin nota,"TIME,OBS,COUNTRY",132,2015,182,2018,1134,,MinInterior,0,NO
17,17.8,17.8.1.G,17.8.1.G,Porcentaje de personas que usan internet,High,GLOBAL,,PERCENTAGE,%,Mide el porcentaje de personas mayores de 5 años que hacen uso de Internet respecto al total de la población de 5 años y más.,DANE - Encuesta Nacional de Calidad de Vida (ECV),,"TIME,OBS,COUNTRY,DES_GEO_REGIONES,DES_GEO_CCPRURALDISP",56,2015,60,2018,93,,DANE - Encuesta Nacional de Calidad de Vida (ECV),,
17,17.11,17.11.1.P,17.11.1.P,Exportaciones totales como porcentaje del Producto Interno Bruto (PIB),High,NATIONAL,1,PERCENTAGE,%,Mide el valor total de las exportaciones de bienes y servicios anuales como porcentaje del Producto Interno Bruto (PIB). Donde el valor de las exportaciones totales proviene de la estimación del Producto Interno Bruto (PIB) por demanda de las cuentas nacional DANE.,DANE - Cuentas Nacionales,Sin nota,"TIME,OBS,COUNTRY",15.3,2015,14.6,2018,16.1,,DANE - Cuentas Nacionales,0,NO
