DES_GEO_DEPTOS,REGION_PND,REGION_DANE,ENT_DESA,TIPOLOGIA_DEPARTAMENTAL,CATEGORIA_DEPARTAMENTAL,AREA_DPTO_KM,PART_DPTO_AREA_TOT,DENS_POB_KM,TOT_POB,CABECERA,RESTO,HOMBRES,MUJERES,POB_POT_ACT,POB_INAC,TOT_INDG,MULT_AFRO,TOT_ROM,TOT_RAIZAL,TOT_PALQ,RES_INDG_DPTO,POB_RESG,H0_4,H5_9,H10_14,H15_19,H20_24,H25_29,H30_34,H35_39,H40_44,H45_49,H50_54,H55_59,H60_64,H65_69,H70_74,H75_79,H80_MÁS,M0_4,M5_9,M10_14,M15_19,M20_24,M25_29,M30_34,M35_39,M40_44,M45_49,M50_54,M55_59,M60_64,M65_69,M70_74,M75_79,M80_MÁS,PIB_DPTO,MMSector1,MMSector2,MMSector3,MMSector4,MMOtros,Sector1,Sector2,Sector3,Sector4,PIB_PERCAPIT
5,EJE CAFETERO,ANTIOQUIA,R,B,ESP,63612,5.60,103,6534857,5121358,1413499,3193573,3341284,4162649,2372208,28914,593174,75,552,0,48,21363,273884,268759,269189,277517,292949,281975,244454,215810,186871,191201,187865,157014,121386,87893,59301,39640,37865,261215,256254,256479,267450,282576,278166,255002,232148,206153,213060,210908,181530,142122,107304,76075,55314,59528,71176,15562,9510,9431,9306,27367,6,5,2,3,15937268
8,CARIBE,ATLÁNTICA,I,C,1,3388,0.30,735,2489514,2382751,106763,1230271,1259243,1574194,915320,27972,224109,1975,697,2445,0,0,110022,109927,111363,110722,109347,106568,98256,85887,72788,70163,68770,56140,42518,30782,20015,13791,13212,104973,104836,106418,105953,103959,101593,100960,90523,77798,77620,75217,61930,47294,35247,24567,19207,21148,21029,4238,3181,2961,2706,7943,6,2,3,5,12282057
11,CENTRO ORIENTE,"BOGOTÁ, D.C.",R,A,,1776,0.20,4493,7980001,7963379,16622,3861624,4118377,5223670,2756331,15032,96523,523,1355,7,0,0,310869,307674,308866,323548,340350,323269,315224,299101,260774,243485,230252,192023,145480,106623,72563,43069,38454,294580,292404,294470,314052,332872,317363,341566,329084,287184,274867,267627,231029,180036,135264,95365,64737,65877,133260,44692,22183,20097,12277,34011,6,2,5,3,24163912
13,CARIBE,ATLÁNTICA,I,C,2,25978,2.30,82,2121956,1648507,473449,1061230,1060726,1288292,833664,2066,491364,911,1325,4978,0,0,105728,103882,103154,103761,99848,88205,75094,64682,58081,57333,53599,44374,34379,25868,17599,12719,12924,101143,99209,99209,100061,93649,83578,75678,67166,60379,59727,55920,47157,36150,28219,20206,15740,17535,19588,3480,2779,2322,2136,8871,3,2,6,7,15013478
15,CENTRO ORIENTE,ORIENTAL,I,C,1,23189,2.00,55,1278107,729998,548109,640710,637397,758850,519257,5859,16602,14,42,2,2,4878,55031,58051,61353,60012,53458,47363,41206,39302,38716,38759,34949,30156,24664,19741,14437,11456,12056,52208,55096,57836,55326,47292,40944,39931,39353,40729,41206,37555,32593,27203,22141,17299,14478,16207,13974,2055,1924,1761,1575,6659,2,1,3,5,17437422
17,EJE CAFETERO,CENTRAL,I,D,2,7888,0.70,125,989934,712316,277618,484228,505706,604815,385119,38271,22631,0,28,0,8,50849,40298,41054,41247,41056,42123,44346,33050,28040,25953,28039,28282,25950,21629,15960,11047,7827,8327,38416,39004,39450,38803,39651,41790,33787,30306,28937,32542,32429,29731,25238,18943,13874,10757,12048,7609,1354,1259,950,909,3137,2,6,3,1,11135428
18,CENTRO SUR,CENTRAL,T,E,4,88965,7.80,5,483846,289408,194438,242466,241380,284689,199157,5026,11661,3,9,0,48,8826,27780,26568,26333,25275,23330,20581,16514,13934,11851,11467,10284,8277,6561,5021,3643,2551,2496,26718,25684,25479,24377,22293,20382,16439,14332,12983,12743,10988,8639,6782,5029,3454,2559,2499,2363,839,328,312,249,635,2,1,7,5,7443679
19,PACÍFICO,PACÍFICA,I,D,3,29308,2.60,47,1391836,554644,837192,704920,686916,849001,542835,248532,255839,1,183,0,102,247556,68279,64297,65738,69188,67395,58769,53639,47977,39213,35837,32862,28153,23063,18330,13501,9751,8928,65698,61775,62794,65135,62558,54619,49258,45264,38800,36627,34197,29510,23895,19110,14571,11390,11715,8288,1804,1342,1236,835,3071,2,3,6,1,8883791
20,CARIBE,ATLÁNTICA,I,D,3,22905,2.00,45,1041204,780482,260722,519935,521269,622627,418577,44835,105273,15,127,12,12,45599,56572,55553,55552,53717,49983,44542,33229,29639,27478,26350,23597,19185,14786,11552,7860,5435,4905,54025,53185,52906,51261,47863,42337,36554,32986,30015,28797,25022,20072,15545,11702,7950,5601,5448,9949,4066,1425,912,788,2758,8,2,1,5,13223378
23,CARIBE,ATLÁNTICA,I,D,2,25020,2.20,69,1736170,918981,817189,869955,866215,1039046,697124,151064,191797,29,251,3,4,56415,93431,89856,86644,84362,84780,74353,59049,50803,45337,45007,41260,33824,26180,19777,14108,10737,10447,89477,85954,83175,80399,80181,70976,61168,54199,48392,47668,42292,34996,27174,20944,14961,11259,13000,9220,2121,1387,1370,1080,3262,2,1,6,5,7765257
25,CENTRO ORIENTE,ORIENTAL,R,A,ESP,24210,2.10,112,2721368,1838260,883108,1356640,1364728,1687535,1033833,7401,73517,30,134,0,1,908,124948,122716,122800,122656,123775,120770,99617,84826,77158,77709,73908,61594,47882,35730,25196,17971,17384,119214,117700,118322,117772,119113,117977,97688,86554,81137,82643,78077,64561,49915,38160,28955,22697,24243,27283,5301,3611,3584,3271,11516,3,2,1,5,14534726
27,PACÍFICO,PACÍFICA,T,E,4,46530,4.10,11,505016,248370,256646,252911,252105,280315,224701,43991,277783,1,41,0,124,59759,33210,32030,30238,27923,26472,24872,16090,11754,9458,8803,7900,7489,5557,4018,2601,2513,1983,32332,31375,29485,26948,25150,23184,15823,12047,9867,9461,8744,8330,6160,4454,2882,3128,2735,1757,674,317,249,181,336,2,1,8,5,5832564
41,CENTRO SUR,CENTRAL,I,C,3,19890,1.70,59,1168869,699045,469824,586427,582442,711130,457739,10335,11516,2,27,1,16,7091,58508,57437,57172,56993,56658,49577,41899,36137,31673,30474,28742,24181,18785,14228,9989,7056,6918,56097,54715,54759,54798,54488,47656,40876,36481,33136,32097,30094,25170,19704,14951,10723,7940,8757,8749,1563,1471,1272,996,3447,7,2,1,4,12383619
44,CARIBE,ATLÁNTICA,T,E,4,20848,1.80,47,985452,540417,445035,487882,497570,558641,426811,278212,91674,1,99,0,27,281054,66226,60402,54156,48745,43154,42613,34479,28431,23238,20255,17384,14560,10728,8454,6087,4680,4290,63449,58030,52316,47776,42948,42925,36782,31751,25886,22809,19076,15829,11246,8958,6679,5505,5605,5688,2994,899,322,288,1185,8,2,5,4,8154660
47,CARIBE,ATLÁNTICA,I,D,3,23188,2.00,55,1272442,940498,331944,643189,629253,734944,537498,9045,110186,1,160,3,5,9550,70892,70536,70240,67938,58601,48529,39716,35482,32873,32696,30265,25120,19879,15216,10233,7272,7701,67618,67301,66896,64302,54320,45865,39857,36290,33484,33314,30654,25638,20287,15513,10838,8557,8519,6506,1668,1023,996,717,2102,2,5,1,6,7672860
50,LLANOS,ORIENTAL,I,C,2,85635,7.50,11,979710,744546,235164,489436,490274,608750,370960,8988,17911,3,72,0,20,11880,48477,47559,46541,44485,43925,42234,36812,32949,28944,27365,24995,20108,15150,11265,7853,5619,5155,46315,45452,44700,43134,43591,42538,37632,34075,30314,29046,25808,20795,15563,11563,8117,5927,5704,22636,12781,1747,1614,1548,4946,8,1,2,7,39011868
52,PACÍFICO,PACÍFICA,I,D,1,33268,2.90,53,1765906,876576,889330,886341,879565,1082907,682999,155199,270433,89,96,1,72,135399,84259,82867,83986,84313,79909,73522,69299,62495,51134,48777,41661,33698,27143,22389,16670,12002,12217,80835,79545,81390,81108,73935,69395,67383,62374,53384,50972,43635,35913,29075,23507,18044,13751,15319,7807,2052,1452,1089,844,2370,2,5,1,6,6776188
54,CENTRO ORIENTE,ORIENTAL,I,D,2,21658,1.90,63,1367708,1076380,291328,677714,689994,841857,525851,7247,22022,187,98,3,9,5258,64793,63325,65507,69021,64466,56374,48406,41704,36873,36281,34499,28918,22690,16963,11698,8216,7980,61753,61446,62895,66274,60471,54812,50318,43986,39884,40137,37611,31822,25003,18959,13693,10331,10599,8309,1945,1303,1039,844,3178,2,6,5,4,9321909
63,EJE CAFETERO,CENTRAL,R,B,3,1845,0.20,308,568506,499436,69070,279112,289394,350749,217757,2145,12718,37,26,0,1,232,23554,23168,23060,23758,25040,22538,18743,17132,16050,16981,17119,15062,12367,9322,6466,4544,4208,22429,22077,22085,22686,24276,21898,19567,18190,16908,18754,19112,16935,14134,10804,7805,5740,5994,3786,799,602,557,512,1316,2,5,1,6,10076248
66,EJE CAFETERO,CENTRAL,R,B,2,4140,0.40,231,957254,750754,206500,465960,491294,596391,360863,24810,43503,1,58,1,6,10980,38832,38582,38676,40139,42343,37857,32818,30341,26980,27976,27829,24605,20218,14953,10279,6968,6564,37040,36880,37169,38686,39798,37369,35253,33048,29511,31388,32052,28398,23653,17924,13313,9850,9962,7557,1430,1341,1042,894,2850,6,2,3,5,11407812
68,CENTRO ORIENTE,ORIENTAL,I,C,2,30537,2.70,68,2071016,1566062,504954,1023783,1047233,1313798,757218,2389,59707,139,301,0,2,998,84743,84861,85779,91178,93008,86296,77929,70702,63280,62750,59566,48740,37541,28753,20485,14194,13978,80488,80851,81423,86400,87536,81759,76462,71871,66868,68758,65951,54744,42921,34078,25749,19620,21754,35890,6701,5245,4404,3199,16341,3,7,6,2,29756872
70,CARIBE,ATLÁNTICA,I,D,3,10917,1.00,79,859913,579309,280604,435752,424161,516854,343059,82934,121624,59,114,0,3,18710,43266,42244,42446,42618,42489,37207,29385,24958,22478,23208,21569,17972,14180,11651,8211,6066,5804,41319,40172,40693,40618,39768,34597,28315,25280,22996,23988,21337,18071,14187,11497,8032,6350,6941,4139,1288,616,521,346,1368,2,5,1,6,7233142
73,CENTRO SUR,CENTRAL,I,D,3,23562,2.10,60,1412220,969777,442443,706467,705753,838362,573858,55987,15766,25,65,0,80,28504,65017,64814,66287,66213,64967,58616,41179,36999,36600,38631,40184,34960,29236,22787,16437,11749,11791,61830,61718,62298,61430,59233,54285,42667,39564,39449,42601,43349,37435,30032,23524,17939,13615,14784,10739,2228,1624,1299,1247,4341,2,1,6,5,11645975
76,PACIFICO,VALLE DEL CAUCA,I,C,1,22140,1.90,211,4660741,4078726,582015,2257558,2403183,2985782,1674959,22313,1090943,717,1225,1,27,11002,186716,183814,185017,196306,205249,195490,175343,157579,141357,137289,131157,108835,84737,62941,44234,31292,30202,178056,175651,178230,188669,198556,192989,184332,171681,156731,157958,154619,131642,104644,79279,57362,45465,47319,50746,13403,7973,7028,5968,16374,6,3,2,5,15466813
81,LLANOS,NA,T,E,4,23818,2.10,11,265190,167907,97283,133241,131949,148017,117173,3279,5905,0,20,0,26,4699,16946,16296,15977,14125,12018,9738,8461,6959,6479,5901,5452,4731,3455,2467,1788,1353,1095,16357,15764,15517,13756,12065,9406,7971,6807,6817,6626,5918,4787,3238,2435,1851,1410,1224,2843,1322,653,391,168,309,8,1,2,5,18905595
85,LLANOS,NA,I,D,3,44640,3.90,8,362721,270144,92577,183874,178847,225054,137667,4102,3971,18,33,0,11,7205,18683,18821,18882,18335,17822,16049,13109,12132,11045,10153,8587,6680,4954,3578,2424,1491,1129,17980,17856,17947,17666,17390,15970,12580,11812,10988,9994,8341,6401,4803,3557,2508,1631,1423,9166,5662,948,565,463,1528,8,1,2,7,43310425
86,CENTRO SUR,NA,I,D,4,24885,2.20,14,349537,172016,177521,176731,172806,207108,142429,44515,11620,0,10,0,73,29896,20283,19416,19360,19159,17751,14303,12116,10959,9245,8391,6897,5618,4223,3305,2375,1764,1566,19467,18735,18738,18464,17156,14241,12182,11039,9168,8315,6738,5366,4092,3199,2318,1798,1790,2601,1326,516,165,122,472,8,2,5,4,12353607
88,CARIBE,SAN ANDRÉS,R,B,3,44,0.00,1752,77101,55498,21603,38366,38735,49602,27499,62,10452,0,23396,13,0,0,3281,3207,3225,3326,3434,3162,2801,2496,2111,2468,2741,2276,1518,990,598,410,322,3127,3068,3089,3197,3262,3037,2617,2453,2171,2627,2940,2483,1813,1141,701,536,473,754,283,172,111,80,108,5,2,4,6,14854685
91,CENTRO SUR,NA,I,D,4,109665,9.60,0,49918,28607,21311,24925,24993,29704,20214,13028,826,0,0,0,30,30878,3186,3017,2787,2781,2568,2444,1609,1183,1151,1127,1004,765,522,335,201,152,93,3040,2881,2705,2735,2572,2593,1724,1202,1232,1187,1043,784,483,314,223,172,103,347,145,71,41,35,55,2,5,4,1,6910914
94,LLANOS,NA,I,D,4,72238,6.30,0,19983,12829,7154,10262,9721,12046,7937,9178,180,0,1,0,25,17858,1204,1201,1105,1250,1155,928,548,509,490,460,440,366,194,177,114,75,46,1125,1117,1049,1165,1100,943,557,491,479,454,401,310,158,145,105,74,48,158,80,17,14,12,35,2,5,7,4,6121599
95,LLANOS,NA,T,E,4,53460,4.70,2,112621,66660,45961,58742,53879,63366,49255,2117,2883,0,0,0,27,11086,7430,7004,6561,6071,5689,4633,2958,2736,2985,3097,2906,2268,1653,1141,753,537,320,7115,6770,6437,5931,5616,4660,2750,2267,2388,2377,2268,1766,1261,874,615,489,295,387,189,75,54,42,27,2,5,7,4,6037081
97,LLANOS,NA,I,D,4,54135,4.70,1,36160,17132,19028,18182,17978,19539,16621,10413,270,1,0,0,6,20470,2520,2318,2196,1984,1776,1583,1007,737,723,739,689,589,478,325,234,169,115,2401,2187,2065,1911,1693,1564,988,725,745,756,690,640,512,372,304,244,181,144,68,22,17,14,23,2,5,4,6,4740981
99,LLANOS,NA,T,E,4,100242,8.80,1,73702,32182,41520,37337,36365,39849,33853,17663,1114,0,12,0,32,32826,5215,4912,4610,4184,3679,3296,1915,1431,1508,1545,1387,1160,868,636,417,359,215,4994,4675,4357,4047,3538,3256,1854,1380,1533,1585,1386,1165,856,625,442,413,259,279,136,44,22,22,55,2,5,7,4,5863934
