TIME,OBS,COUNTRY,DES_GEO_CCPRURALDISP,DES_GEO_DEPTOS,DES_GEO_REGIONES,DES_GEO_MUNICIPIOS,SEXO,EDAD5,SITUACION_LABORAL
2011,40.8,,,18,,,,,
2012,42.1,,,18,,,,,
2013,42.4,,,18,,,,,
2014,39,,,18,,,,,
2015,41.3,,,18,,,,,
2016,35.8,,,18,,,,,
2017,35.1,,,18,,,,,
2018,40.1,,,18,,,,,
2002,57.8,,,19,,,,,
2003,62.0,,,19,,,,,
2004,60.0,,,19,,,,,
2005,56.1,,,19,,,,,
2008,66.4,,,19,,,,,
2009,66.1,,,19,,,,,
2010,64.7,,,19,,,,,
2011,62,,,19,,,,,
2012,62.1,,,19,,,,,
2013,58.4,,,19,,,,,
2014,54.2,,,19,,,,,
2015,51.6,,,19,,,,,
2016,50.7,,,19,,,,,
2017,48.7,,,19,,,,,
2018,50.5,,,19,,,,,
2002,61.9,,,20,,,,,
2003,60.1,,,20,,,,,
2004,59.2,,,20,,,,,
2005,56.2,,,20,,,,,
2008,63.2,,,20,,,,,
2009,58.6,,,20,,,,,
2010,53.6,,,20,,,,,
2011,47.2,,,20,,,,,
2012,46.8,,,20,,,,,
2013,44.8,,,20,,,,,
2014,40.9,,,20,,,,,
2015,42.3,,,20,,,,,
2016,41.9,,,20,,,,,
2017,40.7,,,20,,,,,
2018,42.9,,,20,,,,,
2002,65.6,,,23,,,,,
2003,64.0,,,23,,,,,
2004,67.6,,,23,,,,,
2005,63.7,,,23,,,,,
2008,62.0,,,23,,,,,
2009,61.8,,,23,,,,,
2010,63.6,,,23,,,,,
2011,61.5,,,23,,,,,
2012,60.2,,,23,,,,,
2013,51.8,,,23,,,,,
2014,46.3,,,23,,,,,
2015,46.6,,,23,,,,,
2016,44.8,,,23,,,,,
2017,45.8,,,23,,,,,
2018,44.2,,,23,,,,,
2002,51.4,,,25,,,,,
2003,50.7,,,25,,,,,
2004,50.2,,,25,,,,,
2005,44.6,,,25,,,,,
2008,30.8,,,25,,,,,
2009,26.2,,,25,,,,,
2010,25.4,,,25,,,,,
2011,21.3,,,25,,,,,
2012,23.3,,,25,,,,,
2013,18.9,,,25,,,,,
2014,16.9,,,25,,,,,
2015,17,,,25,,,,,
2016,17.3,,,25,,,,,
2017,14.7,,,25,,,,,
2018,16.4,,,25,,,,,
2002,67.6,,,27,,,,,
2003,69.2,,,27,,,,,
2004,72.7,,,27,,,,,
2005,74.7,,,27,,,,,
2008,73.1,,,27,,,,,
2009,68.3,,,27,,,,,
2010,64.9,,,27,,,,,
2011,64,,,27,,,,,
2012,68,,,27,,,,,
2013,63.1,,,27,,,,,
2014,65.9,,,27,,,,,
2015,62.8,,,27,,,,,
2016,59.8,,,27,,,,,
2017,58.7,,,27,,,,,
2018,61.1,,,27,,,,,
2002,69.6,,,41,,,,,
2003,66.8,,,41,,,,,
2004,64.6,,,41,,,,,
2005,56.1,,,41,,,,,
2008,58.5,,,41,,,,,
2009,57.5,,,41,,,,,
2010,53.3,,,41,,,,,
2011,48.2,,,41,,,,,
2012,45.4,,,41,,,,,
2013,47.3,,,41,,,,,
2014,43.9,,,41,,,,,
2015,44.3,,,41,,,,,
2016,45.9,,,41,,,,,
2017,35.7,,,41,,,,,
2018,37.0,,,41,,,,,
2002,67.2,,,44,,,,,
2003,58.3,,,44,,,,,
2004,57.7,,,44,,,,,
2005,57.8,,,44,,,,,
2008,69.9,,,44,,,,,
2009,66.7,,,44,,,,,
2010,64.6,,,44,,,,,
2011,57.4,,,44,,,,,
2012,58.4,,,44,,,,,
2013,55.8,,,44,,,,,
2014,53,,,44,,,,,
2015,53.3,,,44,,,,,
2016,52.5,,,44,,,,,
2017,52.6,,,44,,,,,
2018,53.7,,,44,,,,,
2002,65.5,,,47,,,,,
2003,59.5,,,47,,,,,
2004,54.8,,,47,,,,,
2005,57.5,,,47,,,,,
2008,64.5,,,47,,,,,
2009,58.3,,,47,,,,,
2010,58,,,47,,,,,
2011,57.5,,,47,,,,,
2012,52.3,,,47,,,,,
2013,50.5,,,47,,,,,
2014,48.1,,,47,,,,,
2015,44.8,,,47,,,,,
2016,50,,,47,,,,,
2017,48.5,,,47,,,,,
2018,46.6,,,47,,,,,
2002,39.8,,,50,,,,,
2003,41.1,,,50,,,,,
2004,36.7,,,50,,,,,
2005,38.3,,,50,,,,,
2008,32.2,,,50,,,,,
2009,36,,,50,,,,,
2010,32.4,,,50,,,,,
2011,30,,,50,,,,,
2012,29.5,,,50,,,,,
2013,27.1,,,50,,,,,
2014,23.3,,,50,,,,,
2015,21.8,,,50,,,,,
2016,24.5,,,50,,,,,
2017,25.1,,,50,,,,,
2018,25.4,,,50,,,,,
2002,65.7,,,52,,,,,
2003,70.0,,,52,,,,,
2004,65.2,,,52,,,,,
2005,58.7,,,52,,,,,
2008,56.1,,,52,,,,,
2009,55.1,,,52,,,,,
2010,56.4,,,52,,,,,
2011,50.6,,,52,,,,,
2012,50.8,,,52,,,,,
2013,47.6,,,52,,,,,
2014,42.9,,,52,,,,,
2015,40,,,52,,,,,
2016,45.7,,,52,,,,,
2017,40.2,,,52,,,,,
2018,41.4,,,52,,,,,
2002,56.6,,,54,,,,,
2003,58.9,,,54,,,,,
2004,61.0,,,54,,,,,
2005,59.4,,,54,,,,,
2008,50.7,,,54,,,,,
2009,47.5,,,54,,,,,
2010,43.1,,,54,,,,,
2011,40.6,,,54,,,,,
2012,40.4,,,54,,,,,
2013,39.4,,,54,,,,,
2014,39.9,,,54,,,,,
2015,40,,,54,,,,,
2016,40.4,,,54,,,,,
2017,40.0,,,54,,,,,
2018,41.7,,,54,,,,,
2002,47.1,,,63,,,,,
2003,38.8,,,63,,,,,
2004,46.8,,,63,,,,,
2005,45.6,,,63,,,,,
2008,43.3,,,63,,,,,
2009,49.9,,,63,,,,,
2010,43.4,,,63,,,,,
2011,40.2,,,63,,,,,
2012,38.9,,,63,,,,,
2013,35.6,,,63,,,,,
2014,31.7,,,63,,,,,
2015,31.7,,,63,,,,,
2016,30.3,,,63,,,,,
2017,26.4,,,63,,,,,
2018,24.1,,,63,,,,,
2002,37.6,,,66,,,,,
2003,34.6,,,66,,,,,
2004,36.0,,,66,,,,,
2005,35.5,,,66,,,,,
2008,35.1,,,66,,,,,
2009,32.3,,,66,,,,,
2010,33.3,,,66,,,,,
2011,27,,,66,,,,,
2012,28.4,,,66,,,,,
2013,28.8,,,66,,,,,
2014,23.7,,,66,,,,,
2015,22.3,,,66,,,,,
2016,19.6,,,66,,,,,
2017,16.3,,,66,,,,,
2018,17.7,,,66,,,,,
2002,45.0,,,68,,,,,
2003,44.4,,,68,,,,,
2004,42.3,,,68,,,,,
2005,41.4,,,68,,,,,
2008,30.6,,,68,,,,,
2009,27.2,,,68,,,,,
2010,21.6,,,68,,,,,
2011,21.8,,,68,,,,,
2012,20.8,,,68,,,,,
2013,19.5,,,68,,,,,
2014,19.6,,,68,,,,,
2015,17.9,,,68,,,,,
2016,18,,,68,,,,,
2017,18.9,,,68,,,,,
2018,20.1,,,68,,,,,
2002,69.2,,,70,,,,,
2003,58.2,,,70,,,,,
2004,64.0,,,70,,,,,
2005,63.8,,,70,,,,,
2008,66.6,,,70,,,,,
2009,66.2,,,70,,,,,
2010,63.7,,,70,,,,,
2011,53,,,70,,,,,
2012,51.5,,,70,,,,,
2013,47.3,,,70,,,,,
2014,43.9,,,70,,,,,
2015,44.7,,,70,,,,,
2016,46.7,,,70,,,,,
2017,41.6,,,70,,,,,
2018,41.0,,,70,,,,,
2002,54.3,,,73,,,,,
2003,51.9,,,73,,,,,
2004,55.8,,,73,,,,,
2005,50.7,,,73,,,,,
2008,46.4,,,73,,,,,
2009,48.4,,,73,,,,,
2010,45.1,,,73,,,,,
2011,43.1,,,73,,,,,
2012,42.3,,,73,,,,,
2013,34.8,,,73,,,,,
2014,32.5,,,73,,,,,
2015,32.9,,,73,,,,,
2016,31.4,,,73,,,,,
2017,29.1,,,73,,,,,
2018,31.0,,,73,,,,,
2002,38.9,,,76,,,,,
2003,41.0,,,76,,,,,
2004,38.0,,,76,,,,,
2005,36.6,,,76,,,,,
2008,33.4,,,76,,,,,
2009,33.3,,,76,,,,,
2010,30.7,,,76,,,,,
2011,30,,,76,,,,,
2012,26.9,,,76,,,,,
2013,27.2,,,76,,,,,
2014,22.7,,,76,,,,,
2015,21.5,,,76,,,,,
2016,22.6,,,76,,,,,
2017,21.1,,,76,,,,,
2018,20.4,,,76,,,,,
2002,44.2,,,,,52001,,,
2003,46.5,,,,,52001,,,
2004,46,,,,,52001,,,
2005,45.6,,,,,52001,,,
2008,39.7,,,,,52001,,,
2009,42.8,,,,,52001,,,
2010,43.2,,,,,52001,,,
2011,40.6,,,,,52001,,,
2012,36.8,,,,,52001,,,
2013,30.5,,,,,52001,,,
2014,26.9,,,,,52001,,,
2015,25.3,,,,,52001,,,
2016,23,,,,,52001,,,
2017,20.2,,,,,52001,,,
2018,25.4,,,,,52001,,,
2002,52.9,,,,,54001,,,
2003,57.2,,,,,54001,,,
2004,55.4,,,,,54001,,,
2005,55.2,,,,,54001,,,
2008,42.2,,,,,54001,,,
2009,38.2,,,,,54001,,,
2010,39.3,,,,,54001,,,
2011,33.9,,,,,54001,,,
2012,32.4,,,,,54001,,,
2013,31.3,,,,,54001,,,
2014,33.1,,,,,54001,,,
2015,32.9,,,,,54001,,,
2016,33.4,,,,,54001,,,
2017,33.5,,,,,54001,,,
2018,36.2,,,,,54001,,,
2010,34.6,,,,,63001,,,
2011,33.9,,,,,63001,,,
2012,32.1,,,,,63001,,,
2013,28.4,,,,,63001,,,
2014,24.2,,,,,63001,,,
2015,26.2,,,,,63001,,,
2016,25.1,,,,,63001,,,
2017,22.7,,,,,63001,,,
2018,22.5,,,,,63001,,,
2002,32.7,,,,,66001,,,
2003,30,,,,,66001,,,
2004,29.8,,,,,66001,,,
2005,28.7,,,,,66001,,,
2008,27.6,,,,,66001,,,
2009,28.5,,,,,66001,,,
2010,26.8,,,,,66001,,,
2011,21.6,,,,,66001,,,
2012,21.9,,,,,66001,,,
2013,24,,,,,66001,,,
2014,18.1,,,,,66001,,,
2015,17.7,,,,,66001,,,
2016,16.4,,,,,66001,,,
2017,12.7,,,,,66001,,,
2018,14.6,,,,,66001,,,
2002,33.7,,,,,68001,,,
2003,34.1,,,,,68001,,,
2004,32.3,,,,,68001,,,
2005,31,,,,,68001,,,
2008,19.2,,,,,68001,,,
2009,13.9,,,,,68001,,,
2010,10.9,,,,,68001,,,
2011,10.7,,,,,68001,,,
2012,10.4,,,,,68001,,,
2013,10.3,,,,,68001,,,
2014,8.4,,,,,68001,,,
2015,9.1,,,,,68001,,,
2016,10.6,,,,,68001,,,
2017,12.0,,,,,68001,,,
2018,14.5,,,,,68001,,,
2010,44.2,,,,,70001,,,
2011,36.9,,,,,70001,,,
2012,36.9,,,,,70001,,,
2013,37.2,,,,,70001,,,
2014,32.7,,,,,70001,,,
2015,30.7,,,,,70001,,,
2016,32.4,,,,,70001,,,
2017,29.2,,,,,70001,,,
2018,28.6,,,,,70001,,,
2002,37.7,,,,,73001,,,
2003,39.8,,,,,73001,,,
2004,42.7,,,,,73001,,,
2005,39.4,,,,,73001,,,
2008,32.6,,,,,73001,,,
2010,26.6,,,,,73001,,,
2011,22,,,,,73001,,,
2012,21.3,,,,,73001,,,
2013,18.6,,,,,73001,,,
2014,16.4,,,,,73001,,,
2015,17.5,,,,,73001,,,
2016,17.3,,,,,73001,,,
2017,18.4,,,,,73001,,,
2018,18.1,,,,,73001,,,
2002,33.5,,,,,76001,,,
2003,33.7,,,,,76001,,,
2004,31.8,,,,,76001,,,
2005,30.1,,,,,76001,,,
2008,28.5,,,,,76001,,,
2009,28.4,,,,,76001,,,
2010,26.1,,,,,76001,,,
2011,25.1,,,,,76001,,,
2012,23.1,,,,,76001,,,
2013,21.9,,,,,76001,,,
2014,19.1,,,,,76001,,,
2015,16.5,,,,,76001,,,
2016,15.4,,,,,76001,,,
2017,15.5,,,,,76001,,,
2018,15.7,,,,,76001,,,
2012,16.5,,,,,88001,,,
2013,13.2,,,,,88001,,,
2014,9.5,,,,,88001,,,
2015,7.3,,,,,88001,,,
2016,8.6,,,,,88001,,,
2002,36.5,,,,,5001,,,
2003,34.7,,,,,5001,,,
2004,31.7,,,,,5001,,,
2005,29.3,,,,,5001,,,
2008,25,,,,,5001,,,
2009,23.9,,,,,5001,,,
2010,22,,,,,5001,,,
2011,19.2,,,,,5001,,,
2012,17.7,,,,,5001,,,
2013,16.1,,,,,5001,,,
2014,14.7,,,,,5001,,,
2015,14.3,,,,,5001,,,
2016,14.1,,,,,5001,,,
2017,13.4,,,,,5001,,,
2018,13.9,,,,,5001,,,
2002,43.9,,,,,8001,,,
2003,49.5,,,,,8001,,,
2004,46.2,,,,,8001,,,
2005,44.1,,,,,8001,,,
2008,43.3,,,,,8001,,,
2009,42.4,,,,,8001,,,
2010,39.5,,,,,8001,,,
2011,34.7,,,,,8001,,,
2012,30.4,,,,,8001,,,
2013,29.1,,,,,8001,,,
2014,25.5,,,,,8001,,,
2015,22,,,,,8001,,,
2016,21.7,,,,,8001,,,
2017,20.0,,,,,8001,,,
2018,21.1,,,,,8001,,,
2002,31.7,,,,,11001,,,
2003,32,,,,,11001,,,
2004,28.8,,,,,11001,,,
2005,26.6,,,,,11001,,,
2008,19.6,,,,,11001,,,
2009,18.3,,,,,11001,,,
2010,15.5,,,,,11001,,,
2011,13.1,,,,,11001,,,
2012,11.6,,,,,11001,,,
2013,10.2,,,,,11001,,,
2014,10.1,,,,,11001,,,
2015,10.4,,,,,11001,,,
2016,11.6,,,,,11001,,,
2017,12.4,,,,,11001,,,
2018,12.4,,,,,11001,,,
2002,47.5,,,,,13001,,,
2003,43.5,,,,,13001,,,
2004,44.9,,,,,13001,,,
2005,37.6,,,,,13001,,,
2008,40.2,,,,,13001,,,
2009,38.5,,,,,13001,,,
2010,34.2,,,,,13001,,,
2011,33.4,,,,,13001,,,
2012,32.7,,,,,13001,,,
2013,29.2,,,,,13001,,,
2014,26.6,,,,,13001,,,
2015,26.2,,,,,13001,,,
2016,29.1,,,,,13001,,,
2017,27.0,,,,,13001,,,
2018,25.9,,,,,13001,,,
2010,22.1,,,,,15001,,,
2011,18.3,,,,,15001,,,
2012,18.4,,,,,15001,,,
2013,19.5,,,,,15001,,,
2014,19.2,,,,,15001,,,
2015,18.8,,,,,15001,,,
2016,17.8,,,,,15001,,,
2017,16.6,,,,,15001,,,
2018,16.8,,,,,15001,,,
2002,36.6,,,,,17001,,,
2003,39.2,,,,,17001,,,
2004,40.3,,,,,17001,,,
2005,36.4,,,,,17001,,,
2008,31.2,,,,,17001,,,
2009,27.2,,,,,17001,,,
2010,23.8,,,,,17001,,,
2011,19.2,,,,,17001,,,
2012,17.6,,,,,17001,,,
2013,16.2,,,,,17001,,,
2014,15.7,,,,,17001,,,
2015,13.9,,,,,17001,,,
2016,14.6,,,,,17001,,,
2017,13.8,,,,,17001,,,
2018,11.9,,,,,17001,,,
2010,43.6,,,,,18001,,,
2011,41.5,,,,,18001,,,
2012,38.5,,,,,18001,,,
2013,37.2,,,,,18001,,,
2014,34.1,,,,,18001,,,
2015,32.6,,,,,18001,,,
2016,34,,,,,18001,,,
2009,28.7,,,,,73001,,,
2017,33.7,,,,,18001,,,
2018,32.8,,,,,18001,,,
2010,39.2,,,,,19001,,,
2011,36.9,,,,,19001,,,
2012,36.1,,,,,19001,,,
2013,34.2,,,,,19001,,,
2014,32.5,,,,,19001,,,
2015,30.7,,,,,19001,,,
2016,31.4,,,,,19001,,,
2017,29.1,,,,,19001,,,
2018,27.8,,,,,19001,,,
2010,42.7,,,,,20001,,,
2011,36,,,,,20001,,,
2012,32.8,,,,,20001,,,
2013,31.4,,,,,20001,,,
2014,27,,,,,20001,,,
2015,30,,,,,20001,,,
2016,35.5,,,,,20001,,,
2017,33.4,,,,,20001,,,
2018,34.4,,,,,20001,,,
2002,47.9,,,,,23001,,,
2003,50.2,,,,,23001,,,
2004,50.2,,,,,23001,,,
2005,46.7,,,,,23001,,,
2008,40.6,,,,,23001,,,
2009,38.6,,,,,23001,,,
2010,39.7,,,,,23001,,,
2011,37.5,,,,,23001,,,
2012,36.9,,,,,23001,,,
2013,34.8,,,,,23001,,,
2014,20.9,,,,,23001,,,
2015,25.2,,,,,23001,,,
2016,31,,,,,23001,,,
2017,27.7,,,,,23001,,,
2018,25.5,,,,,23001,,,
2010,53,,,,,27001,,,
2011,46.7,,,,,27001,,,
2012,51.2,,,,,27001,,,
2013,49.9,,,,,27001,,,
2014,46.2,,,,,27001,,,
2015,50.2,,,,,27001,,,
2016,49.2,,,,,27001,,,
2017,47.9,,,,,27001,,,
2018,48.3,,,,,27001,,,
2010,27,,,,,41001,,,
2011,24.9,,,,,41001,,,
2012,22.8,,,,,41001,,,
2013,22.9,,,,,41001,,,
2014,19.9,,,,,41001,,,
2015,21.5,,,,,41001,,,
2016,23.3,,,,,41001,,,
2017,22.2,,,,,41001,,,
2018,20.9,,,,,41001,,,
2010,46.9,,,,,44001,,,
2011,42.7,,,,,44001,,,
2012,45.5,,,,,44001,,,
2013,43.3,,,,,44001,,,
2014,42.4,,,,,44001,,,
2015,41,,,,,44001,,,
2016,45.5,,,,,44001,,,
2017,46.9,,,,,44001,,,
2018,47.5,,,,,44001,,,
2010,40.2,,,,,47001,,,
2011,38.3,,,,,47001,,,
2012,36.3,,,,,47001,,,
2013,33.8,,,,,47001,,,
2014,34.1,,,,,47001,,,
2015,30.7,,,,,47001,,,
2016,35.1,,,,,47001,,,
2017,32.9,,,,,47001,,,
2018,33.7,,,,,47001,,,
2002,34.4,,,,,50001,,,
2003,36,,,,,50001,,,
2004,32.4,,,,,50001,,,
2005,34.8,,,,,50001,,,
2008,26.8,,,,,50001,,,
2009,27.7,,,,,50001,,,
2010,25.4,,,,,50001,,,
2011,23,,,,,50001,,,
2012,21.6,,,,,50001,,,
2013,19.5,,,,,50001,,,
2014,17.1,,,,,50001,,,
2015,16.6,,,,,50001,,,
2016,19.8,,,,,50001,,,
2017,19.5,,,,,50001,,,
2018,18.1,,,,,50001,,,
2002,49.9,,,,,,F,,
2003,48.2,,,,,,F,,
2004,47.8,,,,,,F,,
2005,45.3,,,,,,F,,
2008,41.5,,,,,,F,,
2009,39.8,,,,,,F,,
2010,36.6,,,,,,F,,
2011,33.5,,,,,,F,,
2012,32,,,,,,F,,
2013,29.8,,,,,,F,,
2014,27.9,,,,,,F,,
2015,27.2,,,,,,F,,
2016,27.2,,,,,,F,,
2017,26.2,,,,,,F,,
2018,26.4,,,,,,F,,
2002,49.5,,,,,,M,,
2003,47.7,,,,,,M,,
2004,46.9,,,,,,M,,
2005,44.6,,,,,,M,,
2008,42.6,,,,,,M,,
2009,40.8,,,,,,M,,
2010,37.9,,,,,,M,,
2011,34.7,,,,,,M,,
2012,33.5,,,,,,M,,
2013,31.3,,,,,,M,,
2014,29.2,,,,,,M,,
2015,28.5,,,,,,M,,
2016,28.8,,,,,,M,,
2017,27.6,,,,,,M,,
2018,27.6,,,,,,M,,
2002,39.1,,,,,,,,1
2005,47.1,,,,,,,,3
2008,45.9,,,,,,,,3
2009,44,,,,,,,,3
2010,40.7,,,,,,,,3
2011,38.3,,,,,,,,3
2012,37.2,,,,,,,,3
2013,35.2,,,,,,,,3
2014,33.6,,,,,,,,3
2015,32.7,,,,,,,,3
2016,32.4,,,,,,,,3
2017,31.2,,,,,,,,3
2018,31.1,,,,,,,,3
2003,38,,,,,,,,1
2004,37.1,,,,,,,,1
2005,34.4,,,,,,,,1
2008,30.3,,,,,,,,1
2009,29.3,,,,,,,,1
2010,27,,,,,,,,1
2011,24.2,,,,,,,,1
2012,23.3,,,,,,,,1
2013,21.2,,,,,,,,1
2014,19.3,,,,,,,,1
2015,19,,,,,,,,1
2016,19.3,,,,,,,,1
2017,18.2,,,,,,,,1
2018,18.2,,,,,,,,1
2002,56.8,,,,,,,,2
2003,55.6,,,,,,,,2
2004,54.2,,,,,,,,2
2005,51.5,,,,,,,,2
2008,50.4,,,,,,,,2
2009,48.5,,,,,,,,2
2010,45,,,,,,,,2
2011,41.5,,,,,,,,2
2012,39.5,,,,,,,,2
2013,37.6,,,,,,,,2
2014,34.2,,,,,,,,2
2015,34.6,,,,,,,,2
2016,35.1,,,,,,,,2
2017,35.2,,,,,,,,2
2018,35.7,,,,,,,,2
2002,51.1,,,,,,,,3
2003,49.1,,,,,,,,3
2004,48.5,,,,,,,,3
2002,49.7,CO,,,,,,,
2003,48.0,CO,,,,,,,
2004,47.4,CO,,,,,,,
2005,45.0,CO,,,,,,,
2008,42.0,CO,,,,,,,
2009,40.3,CO,,,,,,,
2010,37.2,CO,,,,,,,
2011,34.1,CO,,,,,,,
2012,32.7,CO,,,,,,,
2013,30.6,CO,,,,,,,
2014,28.5,CO,,,,,,,
2015,27.8,CO,,,,,,,
2016,28.0,CO,,,,,,,
2017,26.9,CO,,,,,,,
2018,27.0,CO,,,,,,,
2002,45.5,,1,,,,,,
2003,44.9,,1,,,,,,
2004,43.7,,1,,,,,,
2005,41.1,,1,,,,,,
2008,37.4,,1,,,,,,
2009,36.0,,1,,,,,,
2010,33.3,,1,,,,,,
2011,30.3,,1,,,,,,
2012,28.4,,1,,,,,,
2013,26.9,,1,,,,,,
2014,24.6,,1,,,,,,
2015,24.1,,1,,,,,,
2016,24.9,,1,,,,,,
2017,24.2,,1,,,,,,
2018,24.4,,1,,,,,,
2002,61.7,,2,,,,,,
2003,56.8,,2,,,,,,
2004,58.3,,2,,,,,,
2005,56.4,,2,,,,,,
2008,56.6,,2,,,,,,
2009,53.7,,2,,,,,,
2010,49.7,,2,,,,,,
2011,46.1,,2,,,,,,
2012,46.8,,2,,,,,,
2013,42.8,,2,,,,,,
2014,41.4,,2,,,,,,
2015,40.3,,2,,,,,,
2016,38.6,,2,,,,,,
2017,36.0,,2,,,,,,
2018,36.1,,2,,,,,,
2002,47.9,,,05,,,,,
2003,46.2,,,05,,,,,
2004,44.4,,,05,,,,,
2005,41.8,,,05,,,,,
2008,38.3,,,05,,,,,
2009,35.1,,,05,,,,,
2010,31.3,,,05,,,,,
2011,29.3,,,05,,,,,
2012,26.8,,,05,,,,,
2013,24.2,,,05,,,,,
2014,24.3,,,05,,,,,
2015,23.7,,,05,,,,,
2016,21.9,,,05,,,,,
2017,21.3,,,05,,,,,
2018,21.2,,,05,,,,,
2002,50.1,,,08,,,,,
2003,52.4,,,08,,,,,
2004,49.9,,,08,,,,,
2005,48.8,,,08,,,,,
2008,48.0,,,08,,,,,
2009,47.9,,,08,,,,,
2010,43.9,,,08,,,,,
2011,37.8,,,08,,,,,
2012,33.9,,,08,,,,,
2013,32.4,,,08,,,,,
2014,28.6,,,08,,,,,
2015,25.7,,,08,,,,,
2016,25,,,08,,,,,
2017,24.3,,,08,,,,,
2018,24.2,,,08,,,,,
2002,31.8,,,11,,,,,
2003,32.1,,,11,,,,,
2004,28.8,,,11,,,,,
2005,26.6,,,11,,,,,
2008,19.7,,,11,,,,,
2009,18.3,,,11,,,,,
2010,15.4,,,11,,,,,
2011,13.1,,,11,,,,,
2012,11.6,,,11,,,,,
2013,10.2,,,11,,,,,
2014,10.1,,,11,,,,,
2015,10.4,,,11,,,,,
2016,11.6,,,11,,,,,
2017,12.4,,,11,,,,,
2018,12.4,,,11,,,,,
2002,64.9,,,13,,,,,
2003,53.9,,,13,,,,,
2004,54.8,,,13,,,,,
2005,51.9,,,13,,,,,
2008,58.3,,,13,,,,,
2009,57.1,,,13,,,,,
2010,49.4,,,13,,,,,
2011,43.7,,,13,,,,,
2012,44.2,,,13,,,,,
2013,41.8,,,13,,,,,
2014,39.9,,,13,,,,,
2015,39.3,,,13,,,,,
2016,41,,,13,,,,,
2017,38.2,,,13,,,,,
2018,36.2,,,13,,,,,
2002,67.1,,,15,,,,,
2003,64.6,,,15,,,,,
2004,63.6,,,15,,,,,
2005,58.3,,,15,,,,,
2008,58.0,,,15,,,,,
2009,48.0,,,15,,,,,
2010,47.1,,,15,,,,,
2011,39.9,,,15,,,,,
2012,35.6,,,15,,,,,
2013,39.3,,,15,,,,,
2014,38.2,,,15,,,,,
2015,35.4,,,15,,,,,
2016,32,,,15,,,,,
2017,28.7,,,15,,,,,
2018,26.6,,,15,,,,,
2002,46.1,,,17,,,,,
2003,47.3,,,17,,,,,
2004,47.9,,,17,,,,,
2005,43.8,,,17,,,,,
2008,42.8,,,17,,,,,
2009,41.7,,,17,,,,,
2010,39.6,,,17,,,,,
2011,36.6,,,17,,,,,
2012,35.4,,,17,,,,,
2013,32.2,,,17,,,,,
2014,29.2,,,17,,,,,
2015,27.9,,,17,,,,,
2016,27.6,,,17,,,,,
2017,26.7,,,17,,,,,
2018,22.1,,,17,,,,,
2002,53.0,,,18,,,,,
2003,53.6,,,18,,,,,
2004,55.7,,,18,,,,,
2005,53.7,,,18,,,,,
2008,47.7,,,18,,,,,
2009,51.6,,,18,,,,,
2010,44.3,,,18,,,,,

770 filas seleccionadas. 

