TIME,OBS,COUNTRY,DES_GEO_REGIONES,DES_GEO_CCPRURALDISP,SEXO,EDAD5
2010,30.4,CO,,,,
2011,29.4,CO,,,,
2012,27.0,CO,,,,
2013,24.8,CO,,,,
2014,21.9,CO,,,,
2015,20.2,CO,,,,
2016,17.8,CO,,,,
2018,19.6,CO,,,,
2019,17.5,CO,,,,
2010,45.5,,11,,,
2011,41.8,,11,,,
2012,41.1,,11,,,
2013,37.4,,11,,,
2014,34.6,,11,,,
2015,31.2,,11,,,
2016,26.4,,11,,,
2018,33.5,,11,,,
2019,28.1,,11,,,
2010,28.6,,12,,,
2011,29.2,,12,,,
2010,27.8,,16,,,
2011,25.7,,16,,,
2012,21.7,,16,,,
2013,22.4,,16,,,
2014,19.5,,16,,,
2015,18.7,,16,,,
2016,15.1,,16,,,
2018,17.1,,16,,,
2019,15.7,,16,,,
2010,24.1,,17,,,
2011,24.7,,17,,,
2012,20.5,,17,,,
2013,16.2,,17,,,
2014,15.7,,17,,,
2015,15.7,,17,,,
2016,12.0,,17,,,
2018,13.6,,17,,,
2019,10.8,,17,,,
2003,39.8,,,1,,
2008,26.9,,,1,,
2010,23.5,,,1,,
2011,22.2,,,1,,
2012,20.6,,,1,,
2013,18.5,,,1,,
2014,15.4,,,1,,
2015,14.4,,,1,,
2016,12.1,,,1,,
2017,12.2,,,1,,
2018,13.8,,,1,,
2019,12.3,,,1,,
2003,76.8,,,2,,
2008,59.6,,,2,,
2010,53.1,,,2,,
2011,53.1,,,2,,
2012,48.3,,,2,,
2013,45.9,,,2,,
2014,44.1,,,2,,
2015,40.0,,,2,,
2016,37.6,,,2,,
2018,39.9,,,2,,
2019,34.5,,,2,,
2010,29.7,,,,F,
2011,28.7,,,,F,
2012,26.5,,,,F,
2013,24.2,,,,F,
2014,21.3,,,,F,
2015,19.5,,,,F,
2016,17.3,,,,F,
2018,19.2,,,,F,
2019,17.9,,,,F,
2010,31.2,,,,M,
2011,30.1,,,,M,
2012,27.4,,,,M,
2013,25.3,,,,M,
2014,22.5,,,,M,
2015,20.9,,,,M,
2016,18.2,,,,M,
2018,20.1,,,,M,
2019,17.1,,,,M,
2018,24.2,,,,,F0T9
2019,21.9,,,,,F0T9
2018,23.6,,,,,F10T24
2019,20.6,,,,,F10T24
2018,15.6,,,,,F24T64
2019,14.0,,,,,F24T64
2018,21.0,,,,,F65T
2019,20.4,,,,,F65T
2012,28.5,,12,,,
2013,24.8,,12,,,
2014,18.0,,12,,,
2015,17.5,,12,,,
2016,16.8,,12,,,
2018,16.4,,12,,,
2019,15.2,,12,,,
2010,31.2,,13,,,
2011,30.7,,13,,,
2012,26.7,,13,,,
2013,26.1,,13,,,
2014,28.1,,13,,,
2015,22.1,,13,,,
2016,18.0,,13,,,
2018,19.0,,13,,,
2019,15.2,,13,,,
2010,42.7,,14,,,
2011,41.4,,14,,,
2012,36.3,,14,,,
2013,37.6,,14,,,
2014,34.6,,14,,,
2015,33.8,,14,,,
2016,33.2,,14,,,
2018,33.3,,14,,,
2019,26.3,,14,,,
2010,12.1,,15,,,
2011,11.9,,15,,,
2012,11.1,,15,,,
2013,8.7,,15,,,
2014,5.4,,15,,,
2015,4.7,,15,,,
2016,5.9,,15,,,
2018,4.3,,15,,,
2019,7.1,,15,,,