TIME,OBS,COUNTRY,DES_GEO_CCPRURALDISP,DES_GEO_DEPTOS,DES_GEO_REGIONES,DES_GEO_MUNICIPIOS,SEXO,EDAD9
2007,26.39004964,CO,,,,,,
2008,27.3708615,CO,,,,,,
2009,26.82144534,CO,,,,,,
2010,27.55875845,CO,,,,,,
2011,28.47631993,CO,,,,,,
2012,29.71075478,CO,,,,,,
2013,31.38687012,CO,,,,,,
2014,33.5549812464,CO,,,,,,
2015,34.345733098,CO,,,,,,
2016,35.7868998938,CO,,,,,,
2017,36.4640939516,CO,,,,,,
2018,36.6858819243,CO,,,,,,
2019,37.50,CO,,,,,,
2020,37,CO,,,,,,
2007,31.78410249,,1,,,,,
2008,32.82231477,,1,,,,,
2009,32.48012214,,1,,,,,
2010,33.05967972,,1,,,,,
2011,34.07025104,,1,,,,,
2012,35.52172799,,1,,,,,
2013,37.21635326,,1,,,,,
2014,39.5865551699,,1,,,,,
2015,40.5934076045,,1,,,,,
2016,42.0980563816,,1,,,,,
2017,42.8735812306,,1,,,,,
2018,43.1151452045,,1,,,,,
2019,43.84,,1,,,,,
2020,43.49,,1,,,,,
2007,7.989984089,,2,,,,,
2008,8.256709599,,2,,,,,
2009,7.765062778,,2,,,,,
2010,8.929831186,,2,,,,,
2011,9.224309263,,2,,,,,
2012,9.596507327,,2,,,,,
2013,10.77800211,,2,,,,,
2014,11.5710300125,,2,,,,,
2015,11.6834598055,,2,,,,,
2016,13.1364781259,,2,,,,,
2017,13.6578394085,,2,,,,,
2018,13.6692290765,,2,,,,,
2019,14.17,,2,,,,,
2020,14.08,,2,,,,,
2007,37.76367307,,,05,,,,
2008,39.94220425,,,05,,,,
2009,39.01873645,,,05,,,,
2010,38.17769636,,,05,,,,
2011,39.39944078,,,05,,,,
2012,39.8835753,,,05,,,,
2013,40.88892422,,,05,,,,
2014,43.68723229,,,05,,,,
2015,45.44542361,,,05,,,,
2016,47.21,,,05,,,,
2017,48.4208033433,,,05,,,,
2018,47.9081695681,,,05,,,,
2019,47.28,,,05,,,,
2020,48.2,,,05,,,,
2007,18.24428868,,,08,,,,
2008,20.97537553,,,08,,,,
2009,25.0471696,,,08,,,,
2010,24.58982768,,,08,,,,
2011,25.70301321,,,08,,,,
2012,28.53762934,,,08,,,,
2013,31.54083735,,,08,,,,
2014,32.35514616,,,08,,,,
2015,33.12049856,,,08,,,,
2016,34.68,,,08,,,,
2017,33.1082180217,,,08,,,,
2018,33.057440236,,,08,,,,
2019,33.79,,,08,,,,
2020,31.79,,,08,,,,
2007,44.12974878,,,11,,,,
2008,44.19309209,,,11,,,,
2009,43.30966832,,,11,,,,
2010,44.79752802,,,11,,,,
2011,44.6557057,,,11,,,,
2012,45.63969406,,,11,,,,
2013,47.95029413,,,11,,,,
2014,50.39837554,,,11,,,,
2015,51.82680965,,,11,,,,
2016,54.13,,,11,,,,
2017,56.0352652751,,,11,,,,
2018,56.3772271293,,,11,,,,
2019,57.31,,,11,,,,
2020,57.61,,,11,,,,
2007,16.10551767,,,13,,,,
2008,18.36612642,,,13,,,,
2009,17.76961402,,,13,,,,
2010,17.44506044,,,13,,,,
2011,18.93646018,,,13,,,,
2012,19.4061371,,,13,,,,
2013,21.50380731,,,13,,,,
2014,23.92561041,,,13,,,,
2015,23.67769108,,,13,,,,
2016,24.11,,,13,,,,
2017,24.4691187883,,,13,,,,
2018,24.3392428011,,,13,,,,
2019,24.54,,,13,,,,
2020,22.6,,,13,,,,
2007,13.56572112,,,15,,,,
2008,12.5729312,,,15,,,,
2009,18.56581178,,,15,,,,
2010,18.52459822,,,15,,,,
2011,19.92017544,,,15,,,,
2012,21.90880575,,,15,,,,
2013,23.39498709,,,15,,,,
2014,23.98856318,,,15,,,,
2015,23.6749571,,,15,,,,
2016,27.55,,,15,,,,
2017,27.7502089012,,,15,,,,
2018,27.87225304,,,15,,,,
2019,28.55,,,15,,,,
2020,31.69,,,15,,,,
2007,24.70916205,,,17,,,,
2008,27.9777197,,,17,,,,
2009,25.11417263,,,17,,,,
2010,27.14330883,,,17,,,,
2011,30.94999606,,,17,,,,
2012,32.58121161,,,17,,,,
2013,34.79283858,,,17,,,,
2014,36.27607215,,,17,,,,
2015,36.42939559,,,17,,,,
2016,38.43,,,17,,,,
2017,41.1887279222,,,17,,,,
2018,41.7162418555,,,17,,,,
2019,41.28,,,17,,,,
2020,39.26,,,17,,,,
2007,12.11931524,,,18,,,,
2008,10.55094258,,,18,,,,
2009,12.27907552,,,18,,,,
2010,13.48137971,,,18,,,,
2011,13.62664165,,,18,,,,
2012,14.38998123,,,18,,,,
2013,13.10501722,,,18,,,,
2014,16.48106777,,,18,,,,
2015,17.68807279,,,18,,,,
2016,18.68,,,18,,,,
2017,18.7738198079,,,18,,,,
2018,18.8585858077,,,18,,,,
2019,21.17,,,18,,,,
2020,19.66,,,18,,,,
2007,10.55799027,,,19,,,,
2008,12.46280129,,,19,,,,
2009,12.0522353,,,19,,,,
2010,12.57601774,,,19,,,,
2011,14.12823105,,,19,,,,
2012,15.55103166,,,19,,,,
2013,15.37935078,,,19,,,,
2014,17.793358,,,19,,,,
2015,16.89030718,,,19,,,,
2016,16.97,,,19,,,,
2017,17.363549877,,,19,,,,
2018,16.7676780384,,,19,,,,
2019,18.23,,,19,,,,
2020,17.54,,,19,,,,
2007,10.31959784,,,20,,,,
2008,11.38712062,,,20,,,,
2009,11.29161403,,,20,,,,
2010,13.31678301,,,20,,,,
2011,14.10201714,,,20,,,,
2012,16.91551192,,,20,,,,
2013,17.00696843,,,20,,,,
2014,19.14897491,,,20,,,,
2015,20.59027075,,,20,,,,
2016,24.08,,,20,,,,
2017,22.7357172757,,,20,,,,
2018,22.9016036565,,,20,,,,
2019,22.32,,,20,,,,
2020,22.28,,,20,,,,
2007,10.73800024,,,23,,,,
2008,10.67866345,,,23,,,,
2009,9.137567299,,,23,,,,
2010,9.655053641,,,23,,,,
2011,10.25110472,,,23,,,,
2012,11.54384716,,,23,,,,
2013,11.36500439,,,23,,,,
2014,10.01538628,,,23,,,,
2015,9.618830133,,,23,,,,
2016,14.07,,,23,,,,
2017,14.2805772146,,,23,,,,
2018,15.1532080604,,,23,,,,
2019,16.23,,,23,,,,
2020,12.79,,,23,,,,
2007,26.80501347,,,25,,,,
2008,29.36108571,,,25,,,,
2009,30.38432399,,,25,,,,
2010,29.68516845,,,25,,,,
2011,31.92991413,,,25,,,,
2012,32.73667314,,,25,,,,
2013,33.68951092,,,25,,,,
2014,35.27380918,,,25,,,,
2015,37.09983086,,,25,,,,
2016,38.34,,,25,,,,
2017,41.7256179761,,,25,,,,
2018,41.0800435106,,,25,,,,
2019,45.53,,,25,,,,
2020,34.31,,,25,,,,
2007,5.670534569,,,27,,,,
2008,7.600768046,,,27,,,,
2009,5.676124624,,,27,,,,
2010,6.293112941,,,27,,,,
2011,7.224058842,,,27,,,,
2012,7.424499057,,,27,,,,
2013,10.87222056,,,27,,,,
2014,14.04302048,,,27,,,,
2015,13.30074889,,,27,,,,
2016,16.23,,,27,,,,
2017,16.6521705688,,,27,,,,
2018,17.9889134992,,,27,,,,
2019,20.73,,,27,,,,
2020,20.78,,,27,,,,
2007,13.48262572,,,41,,,,
2008,13.98294493,,,41,,,,
2009,14.33012534,,,41,,,,
2010,15.79512793,,,41,,,,
2011,17.16113777,,,41,,,,
2012,18.03933796,,,41,,,,
2013,18.84860357,,,41,,,,
2014,21.67390138,,,41,,,,
2015,21.21761706,,,41,,,,
2016,22.49,,,41,,,,
2017,20.266441834,,,41,,,,
2018,23.2695614789,,,41,,,,
2019,20.74,,,41,,,,
2020,18.07,,,41,,,,
2007,9.823913196,,,44,,,,
2008,7.778900403,,,44,,,,
2009,8.753445079,,,44,,,,
2010,9.044349473,,,44,,,,
2011,9.703772621,,,44,,,,
2012,10.75023797,,,44,,,,
2013,12.49571312,,,44,,,,
2014,13.83056768,,,44,,,,
2015,15.16926513,,,44,,,,
2016,16.13,,,44,,,,
2017,15.6228218869,,,44,,,,
2018,14.7040398038,,,44,,,,
2019,14.96,,,44,,,,
2020,14.48,,,44,,,,
2007,11.55050803,,,47,,,,
2008,13.98465567,,,47,,,,
2009,16.18883007,,,47,,,,
2010,15.92263636,,,47,,,,
2011,15.6928225,,,47,,,,
2012,16.78882609,,,47,,,,
2013,19.29850997,,,47,,,,
2014,19.63289659,,,47,,,,
2015,20.33386136,,,47,,,,
2016,22.18,,,47,,,,
2017,21.8215604684,,,47,,,,
2018,21.3229413333,,,47,,,,
2019,21.81,,,47,,,,
2020,21.05,,,47,,,,
2007,22.58030425,,,50,,,,
2008,24.83394209,,,50,,,,
2009,21.41097616,,,50,,,,
2010,22.05672156,,,50,,,,
2011,22.96101627,,,50,,,,
2012,25.72982806,,,50,,,,
2013,28.69248099,,,50,,,,
2014,30.88396448,,,50,,,,
2015,30.40072949,,,50,,,,
2016,32.59,,,50,,,,
2017,32.1429055229,,,50,,,,
2018,34.0117698631,,,50,,,,
2019,35.57,,,50,,,,
2020,34.22,,,50,,,,
2007,8.551316433,,,52,,,,
2008,9.250564593,,,52,,,,
2009,6.487918491,,,52,,,,
2010,8.53384284,,,52,,,,
2011,8.838852282,,,52,,,,
2012,10.34673107,,,52,,,,
2013,12.62925336,,,52,,,,
2014,14.08016506,,,52,,,,
2015,14.23747013,,,52,,,,
2016,14.57,,,52,,,,
2017,14.9309261458,,,52,,,,
2018,16.0829392506,,,52,,,,
2019,16.42,,,52,,,,
2020,14.44,,,52,,,,
2007,14.73384164,,,54,,,,
2008,14.46679729,,,54,,,,
2009,15.01311087,,,54,,,,
2010,15.80382259,,,54,,,,
2011,16.18799827,,,54,,,,
2012,17.35869709,,,54,,,,
2013,19.231191,,,54,,,,
2014,21.03146259,,,54,,,,
2015,21.6063494,,,54,,,,
2016,23.18,,,54,,,,
2017,21.7562837267,,,54,,,,
2018,22.5421773322,,,54,,,,
2019,22.63,,,54,,,,
2020,23.5,,,54,,,,
2007,28.49454668,,,63,,,,
2008,27.25922855,,,63,,,,
2009,26.47763419,,,63,,,,
2010,27.92924231,,,63,,,,
2011,27.51937637,,,63,,,,
2012,29.32059684,,,63,,,,
2013,31.22276415,,,63,,,,
2014,32.74668863,,,63,,,,
2015,33.2767879,,,63,,,,
2016,34.33,,,63,,,,
2017,35.9501953313,,,63,,,,
2018,37.1876461613,,,63,,,,
2019,36.98,,,63,,,,
2020,36.12,,,63,,,,
2007,28.88945448,,,66,,,,
2008,28.53322582,,,66,,,,
2009,29.23033846,,,66,,,,
2010,30.9057422,,,66,,,,
2011,32.58397914,,,66,,,,
2012,33.44580052,,,66,,,,
2013,35.74687889,,,66,,,,
2014,36.3933703,,,66,,,,
2015,36.97326188,,,66,,,,
2016,37.77,,,66,,,,
2017,38.9819710497,,,66,,,,
2018,38.072108216,,,66,,,,
2019,40.29,,,66,,,,
2020,39.45,,,66,,,,
2007,22.92530952,,,68,,,,
2008,24.96183926,,,68,,,,
2009,22.24928944,,,68,,,,
2010,23.61767512,,,68,,,,
2011,24.90299441,,,68,,,,
2012,25.96674621,,,68,,,,
2013,27.57254843,,,68,,,,
2014,30.12928502,,,68,,,,
2015,31.2953809,,,68,,,,
2016,31.44,,,68,,,,
2017,31.5892870903,,,68,,,,
2018,30.7544173046,,,68,,,,
2019,32.58,,,68,,,,
2020,34.36,,,68,,,,
2007,8.701374035,,,70,,,,
2008,8.568093271,,,70,,,,
2009,7.285546826,,,70,,,,
2010,8.853531942,,,70,,,,
2011,10.06126221,,,70,,,,
2012,10.31897129,,,70,,,,
2013,12.40561729,,,70,,,,
2014,13.88804484,,,70,,,,
2015,15.53872472,,,70,,,,
2016,14.53,,,70,,,,
2017,15.2292335406,,,70,,,,
2018,15.4232828004,,,70,,,,
2019,15.75,,,70,,,,
2020,17.7,,,70,,,,
2007,15.97137701,,,73,,,,
2008,15.6842314,,,73,,,,
2009,15.87513917,,,73,,,,
2010,17.71083251,,,73,,,,
2011,17.70017248,,,73,,,,
2012,17.70933171,,,73,,,,
2013,20.06631006,,,73,,,,
2014,21.93502949,,,73,,,,
2015,22.85546365,,,73,,,,
2016,23.28,,,73,,,,
2017,24.5486591893,,,73,,,,
2018,26.4354197805,,,73,,,,
2019,27.19,,,73,,,,
2020,30.18,,,73,,,,
2007,31.09880202,,,76,,,,
2008,31.98362924,,,76,,,,
2009,30.76965451,,,76,,,,
2010,30.59162501,,,76,,,,
2011,32.78793021,,,76,,,,
2012,34.58826111,,,76,,,,
2013,34.5040255,,,76,,,,
2014,38.07921533,,,76,,,,
2015,39.23043254,,,76,,,,
2016,40.98,,,76,,,,
2017,42.8534502081,,,76,,,,
2018,42.711431861,,,76,,,,
2019,43.01,,,76,,,,
2020,42.95,,,76,,,,
2019,0,,,85,,,,
2007,24.06831507,,,,,52001,,
2008,26.31975056,,,,,52001,,
2009,23.67462425,,,,,52001,,
2010,23.39561386,,,,,52001,,
2011,23.22455138,,,,,52001,,
2012,24.99611583,,,,,52001,,
2013,28.48110622,,,,,52001,,
2014,30.8579126959,,,,,52001,,
2015,33.6480236755,,,,,52001,,
2016,34.4016683873,,,,,52001,,
2017,35.7441607402,,,,,52001,,
2018,35.3376799377,,,,,52001,,
2007,19.77367186,,,,,54001,,
2008,18.21673369,,,,,54001,,
2009,20.43749705,,,,,54001,,
2010,20.157191,,,,,54001,,
2011,20.91450802,,,,,54001,,
2012,21.66211217,,,,,54001,,
2013,23.87207473,,,,,54001,,
2014,25.1161051295,,,,,54001,,
2015,26.7898772656,,,,,54001,,
2016,28.7021559906,,,,,54001,,
2017,27.6840147418,,,,,54001,,
2018,28.4100827734,,,,,54001,,
2007,37.0963991,,,,,63001,,
2008,34.99169742,,,,,63001,,
2009,34.03691935,,,,,63001,,
2010,33.9854082,,,,,63001,,
2011,33.00526222,,,,,63001,,
2012,35.14795845,,,,,63001,,
2013,38.70577958,,,,,63001,,
2014,41.6801948052,,,,,63001,,
2015,41.1234537126,,,,,63001,,
2016,42.7523378301,,,,,63001,,
2017,42.9991533368,,,,,63001,,
2018,44.5893544185,,,,,63001,,
2007,38.65875432,,,,,66001,,
2008,37.33688449,,,,,66001,,
2009,38.6889084,,,,,66001,,
2010,39.71370308,,,,,66001,,
2011,41.10855274,,,,,66001,,
2012,42.98001341,,,,,66001,,
2013,45.65093259,,,,,66001,,
2014,46.4002008682,,,,,66001,,
2015,45.4730097074,,,,,66001,,
2016,47.1576412198,,,,,66001,,
2017,48.0453133376,,,,,66001,,
2018,46.8794280562,,,,,66001,,
2007,31.10232474,,,,,68001,,
2008,34.0330558,,,,,68001,,
2009,31.58737828,,,,,68001,,
2010,32.46827236,,,,,68001,,
2011,35.05792091,,,,,68001,,
2012,36.76723199,,,,,68001,,
2013,39.13606449,,,,,68001,,
2014,40.554675147,,,,,68001,,
2015,42.8019956245,,,,,68001,,
2016,43.5787381483,,,,,68001,,
2017,42.8038537028,,,,,68001,,
2018,42.3538890231,,,,,68001,,
2007,17.40801942,,,,,70001,,
2008,15.28214178,,,,,70001,,
2009,16.66740395,,,,,70001,,
2010,18.92650339,,,,,70001,,
2011,20.49647116,,,,,70001,,
2012,20.54662637,,,,,70001,,
2013,22.86245845,,,,,70001,,
2014,26.8193305482,,,,,70001,,
2015,25.861216824,,,,,70001,,
2016,26.294804541,,,,,70001,,
2017,27.0261742108,,,,,70001,,
2018,26.411203841,,,,,70001,,
2007,28.26036123,,,,,73001,,
2008,28.01921642,,,,,73001,,
2009,27.98713235,,,,,73001,,
2010,29.8053691,,,,,73001,,
2011,28.49991206,,,,,73001,,
2012,29.53969692,,,,,73001,,
2013,32.17699129,,,,,73001,,
2014,35.3271437793,,,,,73001,,
2015,36.7224340025,,,,,73001,,
2016,39.0303538934,,,,,73001,,
2017,42.3714096754,,,,,73001,,
2018,42.6276038693,,,,,73001,,
2007,39.84370654,,,,,76001,,
2008,37.51913959,,,,,76001,,
2009,37.07111428,,,,,76001,,
2010,37.24537496,,,,,76001,,
2011,40.22403505,,,,,76001,,
2012,41.02207994,,,,,76001,,
2013,43.14685321,,,,,76001,,
2014,45.7555540187,,,,,76001,,
2015,47.5695325823,,,,,76001,,
2016,48.7335638677,,,,,76001,,
2017,50.55657957,,,,,76001,,
2018,50.9194251033,,,,,76001,,
2012,20.97390427,,,,,81001,,
2013,26.42402666,,,,,81001,,
2014,29.38896002,,,,,81001,,
2015,32.56307639,,,,,81001,,
2016,33.34,,,,,81001,,
2017,33.1300017093,,,,,81001,,
2018,36.1642055863,,,,,81001,,
2012,39.08645871,,,,,85001,,
2013,40.61206911,,,,,85001,,
2014,45.05732979,,,,,85001,,
2015,44.74541402,,,,,85001,,
2016,45.43,,,,,85001,,
2017,41.2188327898,,,,,85001,,
2018,41.24977728,,,,,85001,,
2007,39.5306664,,,,,17001,,
2008,44.7224656,,,,,17001,,
2009,42.67103787,,,,,17001,,
2010,44.57472799,,,,,17001,,
2011,46.20625043,,,,,17001,,
2012,49.73771892,,,,,17001,,
2013,50.56280316,,,,,17001,,
2014,51.3276132879,,,,,17001,,
2015,54.9563805416,,,,,17001,,
2016,57.4953336444,,,,,17001,,
2017,59.3593798352,,,,,17001,,
2018,61.3415378087,,,,,17001,,
2007,27.04519072,,,,,18001,,
2008,25.91160798,,,,,18001,,
2009,27.24978456,,,,,18001,,
2010,26.22262987,,,,,18001,,
2011,26.76645142,,,,,18001,,
2012,28.74606806,,,,,18001,,
2013,28.78820034,,,,,18001,,
2014,30.4834771284,,,,,18001,,
2015,32.7958338562,,,,,18001,,
2016,34.237578972,,,,,18001,,
2017,34.8231727328,,,,,18001,,
2018,36.3838004684,,,,,18001,,
2007,26.80973626,,,,,19001,,
2008,27.47918846,,,,,19001,,
2009,29.79430077,,,,,19001,,
2010,29.13785699,,,,,19001,,
2011,30.22293968,,,,,19001,,
2012,30.40272557,,,,,19001,,
2013,35.86995798,,,,,19001,,
2014,33.0050495317,,,,,19001,,
2015,33.7359729279,,,,,19001,,
2016,36.6360098078,,,,,19001,,
2017,38.4833580319,,,,,19001,,
2018,38.8797756376,,,,,19001,,
2007,13.40593814,,,,,20001,,
2008,15.59712405,,,,,20001,,
2009,16.81768055,,,,,20001,,
2010,19.74998229,,,,,20001,,
2011,21.84240938,,,,,20001,,
2012,22.66740733,,,,,20001,,
2013,25.28308394,,,,,20001,,
2014,26.8063319257,,,,,20001,,
2015,28.0294829536,,,,,20001,,
2016,31.20785446,,,,,20001,,
2017,30.4552868591,,,,,20001,,
2018,30.1404519405,,,,,20001,,
2007,22.63995696,,,,,23001,,
2008,22.80881674,,,,,23001,,
2009,21.92805881,,,,,23001,,
2010,23.12644271,,,,,23001,,
2011,22.97077704,,,,,23001,,
2012,24.68213615,,,,,23001,,
2013,25.33951311,,,,,23001,,
2014,27.5795105264,,,,,23001,,
2015,26.9932355634,,,,,23001,,
2016,30.5084960931,,,,,23001,,
2017,33.3366690225,,,,,23001,,
2018,31.6511914494,,,,,23001,,
2007,11.60645061,,,,,27001,,
2008,12.80014575,,,,,27001,,
2009,9.411503301,,,,,27001,,
2010,14.23664678,,,,,27001,,
2011,16.47319717,,,,,27001,,
2012,18.96878212,,,,,27001,,
2013,21.67064958,,,,,27001,,
2014,24.8399211088,,,,,27001,,
2015,27.1494418245,,,,,27001,,
2016,26.8893405359,,,,,27001,,
2017,30.6709265176,,,,,27001,,
2018,32.1123189383,,,,,27001,,
2007,30.34276267,,,,,41001,,
2008,30.48222965,,,,,41001,,
2009,31.99769079,,,,,41001,,
2010,33.07651088,,,,,41001,,
2011,35.35410492,,,,,41001,,
2012,37.54903175,,,,,41001,,
2013,37.83175252,,,,,41001,,
2014,40.2624359134,,,,,41001,,
2015,39.8338590023,,,,,41001,,
2016,39.2040093234,,,,,41001,,
2017,40.8599960539,,,,,41001,,
2018,43.3670307408,,,,,41001,,
2007,18.81558172,,,,,44001,,
2008,16.56759785,,,,,44001,,
2009,17.29159536,,,,,44001,,
2010,18.72424499,,,,,44001,,
2011,18.76668411,,,,,44001,,
2012,21.30008384,,,,,44001,,
2013,23.21996456,,,,,44001,,
2014,23.9615317768,,,,,44001,,
2015,23.8432727028,,,,,44001,,
2016,26.3276773909,,,,,44001,,
2017,27.3880867815,,,,,44001,,
2018,28.279772747,,,,,44001,,
2007,23.29149968,,,,,47001,,
2008,27.36118134,,,,,47001,,
2009,26.25506573,,,,,47001,,
2010,24.32173174,,,,,47001,,
2011,25.85968013,,,,,47001,,
2012,26.5379113,,,,,47001,,
2013,28.7757795,,,,,47001,,
2014,29.0270442777,,,,,47001,,
2015,30.8962605489,,,,,47001,,
2016,33.3386722605,,,,,47001,,
2017,33.0233740583,,,,,47001,,
2018,32.057609995,,,,,47001,,
2007,28.43112857,,,,,50001,,
2008,28.56627634,,,,,50001,,
2009,28.04093863,,,,,50001,,
2010,28.28568311,,,,,50001,,
2011,29.76826533,,,,,50001,,
2012,32.05465134,,,,,50001,,
2013,35.95427528,,,,,50001,,
2014,36.4339781329,,,,,50001,,
2015,37.8309006449,,,,,50001,,
2016,39.7104349583,,,,,50001,,
2017,40.8220977296,,,,,50001,,
2018,41.9689028114,,,,,50001,,
2012,32.2184694,,,,,86001,,
2013,33.01384452,,,,,86001,,
2014,31.68045916,,,,,86001,,
2015,33.23407999,,,,,86001,,
2016,34.05,,,,,86001,,
2017,35.529272784,,,,,86001,,
2018,35.6979166805,,,,,86001,,
2012,47.65743839,,,,,88001,,
2013,51.562034,,,,,88001,,
2014,53.95860472,,,,,88001,,
2015,57.57607518,,,,,88001,,
2016,60.14,,,,,88001,,
2017,60.1518156329,,,,,88001,,
2018,62.1778460488,,,,,88001,,
2012,33.8041611,,,,,91001,,
2013,34.84302172,,,,,91001,,
2014,34.3354971,,,,,91001,,
2015,36.92838654,,,,,91001,,
2016,36.1,,,,,91001,,
2017,35.5499970935,,,,,91001,,
2018,39.0349509129,,,,,91001,,
2012,31.62352941,,,,,94001,,
2013,32.30737018,,,,,94001,,
2014,30.27692308,,,,,94001,,
2015,30.97861309,,,,,94001,,
2016,32.71,,,,,94001,,
2017,32.7102803738,,,,,94001,,
2018,32.4411333677,,,,,94001,,
2012,25.29136762,,,,,95001,,
2013,28.52550991,,,,,95001,,
2014,26.5194578,,,,,95001,,
2015,29.36644703,,,,,95001,,
2016,30.32,,,,,95001,,
2017,28.5379388388,,,,,95001,,
2018,28.0902969881,,,,,95001,,
2012,34.95384615,,,,,97001,,
2013,39.65798046,,,,,97001,,
2014,40.23842095,,,,,97001,,
2015,42.66263238,,,,,97001,,
2016,40.59,,,,,97001,,
2017,47.8468053829,,,,,97001,,
2018,53.5773011677,,,,,97001,,
2012,26.64156272,,,,,99001,,
2013,29.01408451,,,,,99001,,
2014,31.34576334,,,,,99001,,
2015,28.47469708,,,,,99001,,
2016,29.41,,,,,99001,,
2017,34.5024608875,,,,,99001,,
2018,37.2509202403,,,,,99001,,
2007,50.97430901,,,,,5001,,
2008,52.45706309,,,,,5001,,
2009,50.31812004,,,,,5001,,
2010,49.09858693,,,,,5001,,
2011,50.46607895,,,,,5001,,
2012,51.22788468,,,,,5001,,
2013,51.53397064,,,,,5001,,
2014,55.0893939956,,,,,5001,,
2015,58.3327434782,,,,,5001,,
2016,59.2175473944,,,,,5001,,
2017,59.6814508427,,,,,5001,,
2018,59.2837912441,,,,,5001,,
2007,20.69073985,,,,,8001,,
2008,24.35116393,,,,,8001,,
2009,29.15645297,,,,,8001,,
2010,26.74589939,,,,,8001,,
2011,28.59926912,,,,,8001,,
2012,30.91051388,,,,,8001,,
2013,35.00862745,,,,,8001,,
2014,35.8774521324,,,,,8001,,
2015,35.9844480922,,,,,8001,,
2016,37.9858487853,,,,,8001,,
2017,36.6784578674,,,,,8001,,
2018,36.0708563015,,,,,8001,,
2007,44.11215794,,,,,11001,,
2008,44.15094677,,,,,11001,,
2009,43.31033764,,,,,11001,,
2010,44.7684089,,,,,11001,,
2011,44.69404893,,,,,11001,,
2012,45.53492575,,,,,11001,,
2013,48.01958339,,,,,11001,,
2014,50.3983755375,,,,,11001,,
2015,51.8268096538,,,,,11001,,
2016,54.1313836393,,,,,11001,,
2017,56.0352516895,,,,,11001,,
2018,56.3772271293,,,,,11001,,
2007,27.78153738,,,,,13001,,
2008,30.47139704,,,,,13001,,
2009,30.64175356,,,,,13001,,
2010,31.2430604,,,,,13001,,
2011,31.07509065,,,,,13001,,
2012,33.54213613,,,,,13001,,
2013,36.21681016,,,,,13001,,
2014,38.2030944199,,,,,13001,,
2015,37.51544663,,,,,13001,,
2016,38.2701915319,,,,,13001,,
2017,40.7310267857,,,,,13001,,
2018,40.9490528218,,,,,13001,,
2007,34.92988314,,,,,15001,,
2008,36.22973815,,,,,15001,,
2009,39.26721511,,,,,15001,,
2010,41.51567485,,,,,15001,,
2011,41.95841157,,,,,15001,,
2012,43.22288752,,,,,15001,,
2013,44.86436539,,,,,15001,,
2014,43.8921321967,,,,,15001,,
2015,46.9950903683,,,,,15001,,
2016,49.3810080385,,,,,15001,,
2017,50.0700436743,,,,,15001,,
2018,50.9898090664,,,,,15001,,
2007,26.31173462,,,,,,F,
2008,27.96607891,,,,,,F,
2009,26.96785219,,,,,,F,
2010,27.07860776,,,,,,F,
2011,27.54463798,,,,,,F,
2012,28.36876595,,,,,,F,
2013,30.45464008,,,,,,F,
2014,32.7901067,,,,,,F,
2015,33.66751132,,,,,,F,
2016,35.229,,,,,,F,
2017,36.15657988,,,,,,F,
2018,36.9767808939,,,,,,F,
2019,37.42,,,,,,F,
2020,38.43,,,,,,F,
2007,26.43969503,,,,,,M,
2008,26.98988768,,,,,,M,
2009,26.72476478,,,,,,M,
2010,27.88409017,,,,,,M,
2011,29.11525196,,,,,,M,
2012,30.65486244,,,,,,M,
2013,32.04914653,,,,,,M,
2014,34.10155295,,,,,,M,
2015,34.83432979,,,,,,M,
2016,36.189,,,,,,M,
2017,36.55508924,,,,,,M,
2018,36.4792995028,,,,,,M,
2019,37.57,,,,,,M,
2020,36.05,,,,,,M,
2007,27.72131814,,,,,,,F15T29
2008,29.25299478,,,,,,,F15T29
2009,28.48258667,,,,,,,F15T29
2010,29.26037208,,,,,,,F15T29
2011,30.04468652,,,,,,,F15T29
2012,31.52442794,,,,,,,F15T29
2013,33.52020167,,,,,,,F15T29
2014,36.18951752,,,,,,,F15T29
2015,36.8582432,,,,,,,F15T29
2016,38.71291311,,,,,,,F15T29
2017,39.44577475,,,,,,,F15T29
2018,38.3837420967,,,,,,,F15T29
2019,39.00,,,,,,,F15T29
2020,37,,,,,,,F15T29
2007,26.84201457,,,,,,,F30T69
2008,27.58239585,,,,,,,F30T69
2009,27.31832311,,,,,,,F30T69
2010,28.13886903,,,,,,,F30T69
2011,29.27151033,,,,,,,F30T69
2012,30.44943372,,,,,,,F30T69
2013,32.01655573,,,,,,,F30T69
2014,33.87020381,,,,,,,F30T69
2015,34.69721778,,,,,,,F30T69
2016,36.06014819,,,,,,,F30T69
2017,36.74974134,,,,,,,F30T69
2018,37.5632613668,,,,,,,F30T69
2019,38.41,,,,,,,F30T69
2020,38.4,,,,,,,F30T69
2007,3.27402929,,,,,,,F70T
2008,3.34195359,,,,,,,F70T
2009,1.97062384,,,,,,,F70T
2010,2.39204352,,,,,,,F70T
2011,2.45738307,,,,,,,F70T
2012,2.77000194,,,,,,,F70T
2013,2.12503096,,,,,,,F70T
2014,3.10201748,,,,,,,F70T
2015,3.52349266,,,,,,,F70T
2016,3.71648794,,,,,,,F70T
2017,3.85239596,,,,,,,F70T
2018,3.3951665393,,,,,,,F70T
2019,4.15,,,,,,,F70T
2020,4.1,,,,,,,F70T