TIME,OBS,COUNTRY
2007,68.6666666667,CO
2008,66,CO
2009,54,CO
2010,80,CO
2011,106,CO
2012,119.6666666667,CO
2013,87.6666666667,CO
2014,65.6666666667,CO
2015,88.6666666667,CO
2016,115,CO
2017,113,CO
2018,99,CO
2019,101,CO
2020,92,CO