TIME,OBS,COUNTRY
2005,1.00,CO
2006,0.98,CO
2007,0.98,CO
2008,0.92,CO
2009,0.93,CO
2010,0.81,CO
2011,0.72,CO
2012,0.73,CO
2013,0.72,CO
2014,0.70,CO
2015,0.76,CO
2016, 0.72 ,CO
2017, 0.70 ,CO
2018,0.67,CO
2019,0.67,CO