TIME,OBS,COUNTRY,DES_GEO_REGIONES,DES_GEO_URBANORURAL,SEXO
2010,13.8,,19,,
2005,12.8,,,UR,
2010,11.6,,,UR,
2005,22.3,,,RU,
2010,17.0,,,RU,
2005,14.5,,,,F
2010,12.1,,,,F
2005,15.9,CO,,,
2010,13.2,CO,,,
2015,10.8,CO,,,
2010,15.4,,11,,
2005,14.5,,12,,
2010,11.3,,12,,
2005,14.4,,13,,
2010,10.7,,13,,
2005,15.8,,14,,
2010,12.3,,14,,
2005,16.9,,15,,
2010,16.4,,15,,
2005,11.2,,19,,
2005,17.2,,,,M
2010,14.2,,,,M