TIME,OBS,COUNTRY,DES_GEO_DEPTOS,DES_GEO_REGIONES
2005,70.14,CO,,
2006,71.38,CO,,
2007,72.05,CO,,
2008,60.66,CO,,
2009,67.31,CO,,
2010,71.64,CO,,
2011,68.67,CO,,
2012,65.89,CO,,
2013,55.25,CO,,
2014,53.65,CO,,
2015,53.71,CO,,
2016,51.27,CO,,
2017,51.01,CO,,
2018,45.29,CO,,
2019,50.73,CO,,
2005,64.46,,05,
2006,69.05,,05,
2007,40.02,,05,
2008,45.07,,05,
2009,55.84,,05,
2010,51.15,,05,
2011,56.27,,05,
2012,53.15,,05,
2013,42.81,,05,
2014,28.79,,05,
2015,42.14,,05,
2016,51.98,,05,
2017,27.33,,05,
2018,37.51,,05,
2019,34.23,,05,
2005,71.39,,08,
2006,73.94,,08,
2007,64.36,,08,
2008,69.99,,08,
2009,75.21,,08,
2010,76.71,,08,
2011,71.31,,08,
2012,52.67,,08,
2013,51.21,,08,
2014,53.64,,08,
2015,56.62,,08,
2016,44.03,,08,
2017,68.83,,08,
2018,47.14,,08,
2019,57.98,,08,
2005,56.90,,11,
2006,50.04,,11,
2007,46.92,,11,
2008,37.42,,11,
2009,52.68,,11,
2010,36.95,,11,
2011,42.05,,11,
2012,40.78,,11,
2013,24.21,,11,
2014,33.70,,11,
2015,35.02,,11,
2016,26.36,,11,
2017,27.16,,11,
2018,25.23,,11,
2019,24.68,,11,
2005,91.06,,13,
2006,88.70,,13,
2007,86.70,,13,
2008,103.72,,13,
2009,64.34,,13,
2010,71.09,,13,
2011,71.33,,13,
2012,61.66,,13,
2013,36.85,,13,
2014,54.63,,13,
2015,53.25,,13,
2016,49.19,,13,
2017,67.69,,13,
2018,42.01,,13,
2019,53.15,,13,
2005,73.09,,15,
2006,65.08,,15,
2007,107.12,,15,
2008,62.52,,15,
2009,74.90,,15,
2010,73.22,,15,
2011,34.97,,15,
2012,63.85,,15,
2013,73.44,,15,
2014,25.25,,15,
2015,32.55,,15,
2016,32.99,,15,
2017,40.82,,15,
2018,57.97,,15,
2019,22.62,,15,
2005,35.51,,17,
2006,83.18,,17,
2007,45.65,,17,
2008,111.97,,17,
2009,87.09,,17,
2010,73.54,,17,
2011,74.83,,17,
2012,66.32,,17,
2013,19.64,,17,
2014,29.86,,17,
2015,51.38,,17,
2016,10.46,,17,
2017,0.00,,17,
2018,57.88,,17,
2019,12.29,,17,
2005,110.36,,18,
2006,139.02,,18,
2007,150.75,,18,
2008,55.49,,18,
2009,95.58,,18,
2010,194.34,,18,
2011,67.16,,18,
2012,102.18,,18,
2013,116.11,,18,
2014,119.22,,18,
2015,109.14,,18,
2016,43.59,,18,
2017,55.36,,18,
2018,42.72,,18,
2019,43.75,,18,
2005,109.51,,19,
2006,91.69,,19,
2007,122.63,,19,
2008,115.48,,19,
2009,96.98,,19,
2010,134.98,,19,
2011,160.72,,19,
2012,113.14,,19,
2013,60.58,,19,
2014,103.65,,19,
2015,71.40,,19,
2016,71.47,,19,
2017,42.60,,19,
2018,39.03,,19,
2019,47.03,,19,
2005,34.28,,20,
2006,57.44,,20,
2007,58.98,,20,
2008,61.75,,20,
2009,43.25,,20,
2010,117.26,,20,
2011,100.85,,20,
2012,105.17,,20,
2013,62.64,,20,
2014,69.42,,20,
2015,43.34,,20,
2016,53.14,,20,
2017,53.65,,20,
2018,66.14,,20,
2019,51.35,,20,
2005,25.85,,23,
2006,59.23,,23,
2007,161.10,,23,
2008,87.69,,23,
2009,69.78,,23,
2010,146.84,,23,
2011,91.36,,23,
2012,99.47,,23,
2013,96.78,,23,
2014,87.94,,23,
2015,87.47,,23,
2016,65.59,,23,
2017,67.50,,23,
2018,68.6,,23,
2019,47.99,,23,
2005,66.85,,25,
2006,80.10,,25,
2007,56.32,,25,
2008,40.13,,25,
2009,49.88,,25,
2010,40.52,,25,
2011,59.55,,25,
2012,73.02,,25,
2013,43.75,,25,
2014,42.94,,25,
2015,36.16,,25,
2016,33.71,,25,
2017,33.55,,25,
2018,43.02,,25,
2019,45.63,,25,
2005,250.92,,27,
2006,227.36,,27,
2007,194.72,,27,
2008,197.56,,27,
2009,108.75,,27,
2010,178.67,,27,
2011,341.63,,27,
2012,224.61,,27,
2013,149.08,,27,
2014,181.64,,27,
2015,149.23,,27,
2016,273.27,,27,
2017,285.67,,27,
2018,130.67,,27,
2019,128.24,,27,
2005,38.33,,41,
2006,81.06,,41,
2007,66.75,,41,
2008,38.92,,41,
2009,20.19,,41,
2010,48.13,,41,
2011,54.96,,41,
2012,33.42,,41,
2013,33.76,,41,
2014,14.87,,41,
2015,25.58,,41,
2016,30.87,,41,
2017,20.32,,41,
2018,10.77,,41,
2019,23.27,,41,
2007,162.92,,44,
2008,101.40,,44,
2009,212.58,,44,
2010,154.95,,44,
2011,165.67,,44,
2012,135.81,,44,
2013,235.45,,44,
2014,170.21,,44,
2015,144.12,,44,
2016,180.90,,44,
2017,147.08,,44,
2018,92.89,,44,
2019,157.93,,44,
2005,109.59,,47,
2006,82.69,,47,
2007,130.51,,47,
2008,120.85,,47,
2009,96.50,,47,
2010,127.43,,47,
2011,79.23,,47,
2012,93.57,,47,
2013,82.65,,47,
2014,56.93,,47,
2005,131.04,,44,
2015,62.94,,47,
2016,64.72,,47,
2017,93.75,,47,
2018,59.15,,47,
2019,73.08,,47,
2005,69.09,,50,
2006,75.43,,50,
2007,96.89,,50,
2008,38.05,,50,
2009,51.48,,50,
2010,46.31,,50,
2011,78.90,,50,
2012,51.18,,50,
2013,39.03,,50,
2014,25.48,,50,
2015,50.44,,50,
2016,27.02,,50,
2017,39.22,,50,
2018,26.78,,50,
2019,27.31,,50,
2005,76.63,,52,
2006,75.90,,52,
2007,89.96,,52,
2008,81.46,,52,
2009,108.08,,52,
2010,69.37,,52,
2011,120.33,,52,
2012,51.05,,52,
2013,90.92,,52,
2014,81.28,,52,
2015,61.01,,52,
2006,155.10,,44,
2016,140.42,,52,
2017,82.38,,52,
2018,50.43,,52,
2019,66.95,,52,
2005,81.20,,54,
2006,58.89,,54,
2007,50.53,,54,
2008,27.76,,54,
2009,50.49,,54,
2010,93.52,,54,
2011,51.70,,54,
2012,67.13,,54,
2013,54.70,,54,
2014,48.96,,54,
2015,39.11,,54,
2016,43.97,,54,
2017,61.81,,54,
2018,40.15,,54,
2019,64.18,,54,
2005,66.68,,63,
2006,14.10,,63,
2007,85.75,,63,
2008,29.71,,63,
2010,65.03,,63,
2011,32.97,,63,
2012,33.55,,63,
2013,67.82,,63,
2014,51.18,,63,
2015,0.00,,63,
2016,68.46,,63,
2017,0.00,,63,
2018,0.00,,63,
2019,0.00,,63,
2005,69.54,,66,
2006,45.87,,66,
2007,52.32,,66,
2008,92.44,,66,
2009,48.82,,66,
2010,59.21,,66,
2011,50.05,,66,
2012,92.40,,66,
2013,44.24,,66,
2014,26.95,,66,
2015,18.28,,66,
2016,27.64,,66,
2017,56.81,,66,
2018,39.48,,66,
2019,20.17,,66,
2005,50.39,,68,
2006,52.05,,68,
2007,37.54,,68,
2008,39.69,,68,
2009,43.01,,68,
2010,43.84,,68,
2011,35.73,,68,
2012,38.37,,68,
2013,52.27,,68,
2014,35.51,,68,
2015,29.08,,68,
2016,20.12,,68,
2017,36.59,,68,
2018,48.54,,68,
2019,21.91,,68,
2005,51.51,,70,
2006,66.41,,70,
2007,99.72,,70,
2008,43.69,,70,
2009,77.17,,70,
2010,62.80,,70,
2011,83.97,,70,
2012,45.22,,70,
2013,87.47,,70,
2014,79.52,,70,
2015,54.95,,70,
2016,62.51,,70,
2017,51.72,,70,
2018,52.16,,70,
2019,60.63,,70,
2005,77.27,,73,
2006,87.74,,73,
2007,63.65,,73,
2008,60.04,,73,
2009,48.27,,73,
2010,76.66,,73,
2011,35.56,,73,
2012,87.00,,73,
2013,21.29,,73,
2014,60.08,,73,
2015,65.77,,73,
2016,51.12,,73,
2017,62.15,,73,
2018,11.67,,73,
2019,50.22,,73,
2005,88.29,,76,
2006,66.76,,76,
2007,64.48,,76,
2008,44.72,,76,
2009,56.53,,76,
2010,54.98,,76,
2011,57.04,,76,
2012,75.13,,76,
2013,45.70,,76,
2014,37.43,,76,
2015,63.73,,76,
2016,47.29,,76,
2017,27.11,,76,
2018,24.4,,76,
2019,46.6,,76,
2005,59.02,,81,
2007,108.08,,81,
2008,82.76,,81,
2009,42.52,,81,
2010,111.33,,81,
2011,67.80,,81,
2012,0,,81,
2013,25.04,,81,
2014,50.14,,81,
2015,70.47,,81,
2016,22.84,,81,
2017,21.79,,81,
2018,60.17,,81,
2019,44.29,,81,
2005,50.53,,85,
2006,49.43,,85,
2007,31.45,,85,
2008,62.49,,85,
2009,74.89,,85,
2010,77.29,,85,
2011,0,,85,
2012,41.81,,85,
2013,56.41,,85,
2014,56.74,,85,
2015,43.04,,85,
2016,0.00,,85,
2017,15.53,,85,
2018,31.66,,85,
2019,50.7,,85,
2005,57.60,,86,
2006,95.95,,86,
2007,139.89,,86,
2008,84.71,,86,
2009,126.13,,86,
2010,242.19,,86,
2011,160.55,,86,
2012,116.44,,86,
2013,69.44,,86,
2014,138.06,,86,
2015,111.36,,86,
2016,46.62,,86,
2017,22.02,,86,
2006,37.17,,81,
2018,90.35,,86,
2019,68.7,,86,
2005,0,,88,
2006,108.46,,88,
2007,107.64,,88,
2008,0,,88,
2009,114.55,,88,
2010,0,,88,
2011,230.41,,88,
2012,0,,88,
2013,0,,88,
2014,0,,88,
2015,0.00,,88,
2016,0.00,,88,
2017,0.00,,88,
2018,127.88,,88,
2019,0.0,,88,
2005,157.98,,91,
2006,0,,91,
2007,152.67,,91,
2008,285.31,,91,
2009,391.85,,91,
2010,0,,91,
2011,146.09,,91,
2012,0,,91,
2013,141.84,,91,
2014,65.62,,91,
2015,134.23,,91,
2016,75.64,,91,
2017,69.06,,91,
2018,0.00,,91,
2019,169.64,,91,
2005,386.10,,94,
2006,558.66,,94,
2007,0,,94,
2008,351.49,,94,
2009,162.87,,94,
2010,0,,94,
2011,163.67,,94,
2012,0,,94,
2013,165.02,,94,
2014,665.56,,94,
2015,0.00,,94,
2016,302.57,,94,
2017,0.00,,94,
2018,323.28,,94,
2019,312.5,,94,
2005,171.23,,95,
2006,240,,95,
2007,64.02,,95,
2008,125.63,,95,
2009,69.44,,95,
2010,74.07,,95,
2011,77.52,,95,
2012,0,,95,
2013,93.46,,95,
2014,265.96,,95,
2015,86.06,,95,
2016,86.21,,95,
2017,0.00,,95,
2018,0.00,,95,
2019,79.24,,95,
2005,0,,97,
2006,349.04,,97,
2007,566.04,,97,
2008,0,,97,
2009,161.81,,97,
2010,0,,97,
2011,145.99,,97,
2012,286.53,,97,
2013,175.13,,97,
2014,233.10,,97,
2015,161.55,,97,
2016,378.79,,97,
2017,0.00,,97,
2018,147.28,,97,
2019,0.0,,97,
2005,0,,99,
2006,175.13,,99,
2007,513.48,,99,
2008,0,,99,
2009,235.57,,99,
2010,118.34,,99,
2011,228.57,,99,
2012,188.32,,99,
2013,366.64,,99,
2014,349.34,,99,
2015,860.42,,99,
2016,194.55,,99,
2017,393.70,,99,
2018,547.3,,99,
2019,326.8,,99,