TIME,OBS,COUNTRY,DES_GEO_DEPTOS,DES_GEO_REGIONES,SEXO,EDAD8
2013,2.1,CO,,,,
2013,4.82,,05,,,
2013,1.25,,08,,,
2013,3.12,,11,,,
2013,0.77,,13,,,
2013,1.06,,15,,,
2013,2.5,,17,,,
2013,1.77,,18,,,
2013,1.1,,19,,,
2013,0.26,,20,,,
2013,0.21,,23,,,
2013,1.18,,25,,,
2013,0.89,,27,,,
2013,1.25,,41,,,
2013,0.89,,44,,,
2013,0.6,,47,,,
2013,2.97,,50,,,
2013,2.31,,52,,,
2013,1.17,,54,,,
2013,4.34,,63,,,
2013,4.15,,66,,,
2013,1,,68,,,
2013,0,,70,,,
2013,0.94,,73,,,
2013,2.05,,76,,,
2013,1.77,,81,,,
2013,1.77,,85,,,
2013,1.77,,86,,,
2013,1.32,,88,,,
2013,1.77,,91,,,
2013,1.77,,94,,,
2013,1.77,,95,,,
2013,1.77,,97,,,
2013,1.77,,99,,,
2013,0.75,,,,F,
2013,3.48,,,,M,
2013,2.78,,,,,F12T17
2013,5.04,,,,,F18T24
2013,2.43,,,,,F25T34
2013,0.84,,,,,F35T44
2013,0.48,,,,,F45T65