TIME,OBS,COUNTRY,DES_GEO_DEPTOS,DES_GEO_REGIONES
2009,92.23,CO,,
2010,87.95,CO,,
2011,85.26,CO,,
2012,91.78,CO,,
2013,90.88,CO,,
2014,90.26,CO,,
2015,91.39,CO,,
2016,91.25,CO,,
2017,91.50,CO,,
2018,92.46,CO,,
2019,93.37,CO,,
2002,81.94,,05,
2003,79.33,,05,
2004,86.89,,05,
2005,86.25,,05,
2006,83.41,,05,
2007,87.37,,05,
2008,83.09,,05,
2009,83.10,,05,
2010,77.07,,05,
2011,81.28,,05,
2012,88.21,,05,
2013,87.62,,05,
2014,89.61,,05,
2015,94.35,,05,
2016,94.79,,05,
2017,93.17,,05,
2018,94.02,,05,
2019,95.11,,05,
2002,89.33,,08,
2003,99.31,,08,
2004,82.76,,08,
2005,77.95,,08,
2006,73.24,,08,
2007,87.27,,08,
2008,91.89,,08,
2009,99.60,,08,
2010,75.95,,08,
2011,72.66,,08,
2012,78.27,,08,
2013,90.38,,08,
2014,92.94,,08,
2015,100.00,,08,
2016,98.44,,08,
2017,99.29,,08,
2018,99.49,,08,
2019,98.45,,08,
2002,73.14,,11,
2003,87.60,,11,
2004,80.83,,11,
2005,90.60,,11,
2006,92.61,,11,
2007,94.00,,11,
2008,96.59,,11,
2009,96.62,,11,
2010,94.12,,11,
2011,92.66,,11,
2012,93.81,,11,
2013,102.96,,11,
2014,89.86,,11,
2015,90.67,,11,
2016,95.60,,11,
2017,88.67,,11,
2018,86.04,,11,
2019,89.32,,11,
2002,68.73,,13,
2003,83.64,,13,
2004,85.55,,13,
2005,101.42,,13,
2006,97.25,,13,
2007,98.01,,13,
2008,82.11,,13,
2009,95.83,,13,
2010,76.04,,13,
2011,83.36,,13,
2012,86.33,,13,
2013,82.79,,13,
2014,84.82,,13,
2015,81.04,,13,
2016,83.90,,13,
2017,86.42,,13,
2018,89.24,,13,
2019,87.3,,13,
2002,75.00,,15,
2003,90.47,,15,
2004,79.77,,15,
2005,88.56,,15,
2006,87.58,,15,
2007,90.58,,15,
2008,89.75,,15,
2009,91.85,,15,
2010,91.37,,15,
2011,86.05,,15,
2012,92.70,,15,
2013,89.96,,15,
2014,88.26,,15,
2015,93.27,,15,
2016,93.54,,15,
2017,95.01,,15,
2018,101.58,,15,
2019,97.97,,15,
2002,82.82,,17,
2003,95.03,,17,
2004,72.69,,17,
2005,88.00,,17,
2006,85.45,,17,
2007,78.69,,17,
2008,80.73,,17,
2009,77.03,,17,
2010,70.12,,17,
2011,66.42,,17,
2012,95.52,,17,
2013,84.97,,17,
2014,87.18,,17,
2015,95.38,,17,
2016,95.16,,17,
2017,97.10,,17,
2018,96.79,,17,
2019,96.24,,17,
2002,100.14,,18,
2003,101.06,,18,
2004,84.64,,18,
2005,91.89,,18,
2006,97.73,,18,
2007,98.54,,18,
2008,86.90,,18,
2009,86.65,,18,
2010,89.19,,18,
2011,85.32,,18,
2012,76.17,,18,
2013,91.56,,18,
2014,70.23,,18,
2015,71.16,,18,
2016,75.68,,18,
2017,79.17,,18,
2018,86.59,,18,
2019,90.84,,18,
2002,68.34,,19,
2003,73.74,,19,
2004,76.11,,19,
2005,84.77,,19,
2006,89.21,,19,
2007,77.57,,19,
2008,86.01,,19,
2009,93.29,,19,
2010,91.03,,19,
2011,89.47,,19,
2012,90.62,,19,
2013,87.10,,19,
2014,89.98,,19,
2015,88.24,,19,
2016,91.68,,19,
2017,94.95,,19,
2018,92.94,,19,
2019,90.3,,19,
2002,82.45,,20,
2003,98.05,,20,
2004,101.36,,20,
2005,107.40,,20,
2006,110.99,,20,
2007,107.18,,20,
2008,104.48,,20,
2009,108.09,,20,
2010,107.12,,20,
2011,106.14,,20,
2012,108.73,,20,
2013,102.25,,20,
2014,94.38,,20,
2015,94.27,,20,
2016,89.91,,20,
2017,92.20,,20,
2018,97.33,,20,
2019,101.43,,20,
2002,95.26,,23,
2003,103.77,,23,
2004,116.27,,23,
2005,86.46,,23,
2006,87.54,,23,
2007,87.88,,23,
2008,103.59,,23,
2009,99.74,,23,
2010,97.40,,23,
2011,92.61,,23,
2012,95.36,,23,
2013,88.99,,23,
2014,88.26,,23,
2015,90.51,,23,
2016,90.13,,23,
2017,90.39,,23,
2018,87.02,,23,
2019,87.04,,23,
2002,90.44,,25,
2003,89.18,,25,
2004,96.22,,25,
2005,74.88,,25,
2006,85.02,,25,
2007,82.05,,25,
2008,78.88,,25,
2009,75.97,,25,
2010,76.73,,25,
2011,77.42,,25,
2012,83.06,,25,
2013,80.03,,25,
2014,96.04,,25,
2015,98.23,,25,
2016,85.34,,25,
2017,95.09,,25,
2018,96.57,,25,
2019,97.1,,25,
2002,78.25,,27,
2003,85.06,,27,
2004,110.28,,27,
2005,67.40,,27,
2006,65.63,,27,
2007,68.34,,27,
2008,78.49,,27,
2009,75.41,,27,
2010,64.89,,27,
2011,78.14,,27,
2012,72.19,,27,
2013,68.50,,27,
2014,85.78,,27,
2015,82.40,,27,
2016,82.33,,27,
2017,77.32,,27,
2018,85.27,,27,
2019,82.86,,27,
2002,89.00,,41,
2003,103.92,,41,
2004,105.57,,41,
2005,98.23,,41,
2006,98.47,,41,
2007,97.63,,41,
2008,99.35,,41,
2009,95.24,,41,
2010,90.04,,41,
2011,87.94,,41,
2012,94.98,,41,
2013,92.09,,41,
2014,89.51,,41,
2015,89.87,,41,
2016,91.38,,41,
2017,93.47,,41,
2018,92.2,,41,
2019,92.3,,41,
2002,92.32,,44,
2003,99.51,,44,
2004,110.28,,44,
2005,57.95,,44,
2006,58.37,,44,
2007,68.15,,44,
2008,98.26,,44,
2009,94.72,,44,
2010,87.19,,44,
2011,81.63,,44,
2012,87.93,,44,
2013,85.15,,44,
2014,84.25,,44,
2015,80.49,,44,
2016,80.20,,44,
2017,86.20,,44,
2018,90.6,,44,
2019,95.73,,44,
2002,84.68,,47,
2003,97.40,,47,
2004,102.60,,47,
2005,111.52,,47,
2006,119.85,,47,
2007,111.48,,47,
2008,97.05,,47,
2009,98.45,,47,
2010,95.34,,47,
2011,97.73,,47,
2012,92.49,,47,
2013,90.13,,47,
2014,90.95,,47,
2015,92.92,,47,
2016,90.14,,47,
2017,88.86,,47,
2018,91.41,,47,
2019,94.78,,47,
2002,72.44,,50,
2003,98.06,,50,
2004,96.24,,50,
2005,98.08,,50,
2006,91.33,,50,
2007,91.15,,50,
2008,95.54,,50,
2009,95.32,,50,
2010,95.76,,50,
2011,93.26,,50,
2012,94.72,,50,
2013,95.05,,50,
2014,89.35,,50,
2015,87.74,,50,
2016,89.04,,50,
2017,84.63,,50,
2018,90.16,,50,
2019,92.04,,50,
2002,64.06,,52,
2003,83.29,,52,
2004,69.62,,52,
2005,83.96,,52,
2006,71.50,,52,
2007,74.63,,52,
2008,72.21,,52,
2009,71.42,,52,
2010,72.58,,52,
2013,81.35,,52,
2014,89.99,,52,
2015,91.32,,52,
2016,90.33,,52,
2011,68.69,,52,
2012,84.49,,52,
2017,92.07,,52,
2018,85.66,,52,
2019,86.03,,52,
2002,64.27,,54,
2003,92.35,,54,
2004,85.07,,54,
2005,112.89,,54,
2006,105.84,,54,
2007,109.32,,54,
2008,99.18,,54,
2009,100.57,,54,
2010,91.02,,54,
2011,93.40,,54,
2012,91.63,,54,
2013,93.74,,54,
2014,94.36,,54,
2015,91.05,,54,
2016,94.05,,54,
2017,104.43,,54,
2018,92.87,,54,
2019,99.84,,54,
2002,86.46,,63,
2003,127.89,,63,
2004,97.21,,63,
2005,105.83,,63,
2006,87.82,,63,
2007,86.43,,63,
2008,86.49,,63,
2009,79.95,,63,
2010,80.45,,63,
2011,76.22,,63,
2012,91.48,,63,
2013,81.67,,63,
2014,87.00,,63,
2015,97.05,,63,
2016,98.31,,63,
2017,93.48,,63,
2018,96.1,,63,
2019,92.34,,63,
2002,96.63,,66,
2003,93.63,,66,
2004,78.06,,66,
2005,83.11,,66,
2006,80.97,,66,
2007,78.50,,66,
2008,86.54,,66,
2009,83.01,,66,
2010,77.88,,66,
2011,80.33,,66,
2012,91.05,,66,
2013,90.33,,66,
2014,88.49,,66,
2015,93.27,,66,
2016,95.86,,66,
2017,91.29,,66,
2018,94.5,,66,
2019,98.75,,66,
2002,71.03,,68,
2003,80.95,,68,
2004,74.59,,68,
2005,104.28,,68,
2006,105.04,,68,
2007,100.82,,68,
2008,97.65,,68,
2009,96.61,,68,
2010,93.09,,68,
2011,95.61,,68,
2012,97.27,,68,
2013,96.86,,68,
2014,97.16,,68,
2015,90.30,,68,
2016,90.21,,68,
2017,89.08,,68,
2018,88.25,,68,
2019,86.42,,68,
2002,93.80,,70,
2003,97.91,,70,
2004,93.06,,70,
2005,110.44,,70,
2006,117.27,,70,
2007,102.71,,70,
2008,102.80,,70,
2009,100.79,,70,
2010,96.91,,70,
2011,97.93,,70,
2012,88.28,,70,
2013,85.97,,70,
2014,81.94,,70,
2015,88.24,,70,
2016,86.86,,70,
2017,92.14,,70,
2018,102.06,,70,
2019,102.13,,70,
2002,101.80,,73,
2003,121.67,,73,
2004,108.80,,73,
2005,91.27,,73,
2006,95.40,,73,
2007,89.17,,73,
2008,93.28,,73,
2009,91.69,,73,
2010,89.04,,73,
2011,86.23,,73,
2012,92.33,,73,
2013,87.62,,73,
2014,84.98,,73,
2015,90.95,,73,
2016,88.32,,73,
2017,88.86,,73,
2018,94.9,,73,
2019,94.52,,73,
2002,88.77,,76,
2003,106.57,,76,
2004,96.60,,76,
2005,107.70,,76,
2006,105.43,,76,
2007,106.90,,76,
2008,98.55,,76,
2009,98.64,,76,
2010,95.09,,76,
2011,95.16,,76,
2012,99.27,,76,
2013,94.52,,76,
2014,94.33,,76,
2015,93.59,,76,
2016,92.36,,76,
2017,92.69,,76,
2018,99.26,,76,
2019,96.49,,76,
2002,71.56,,81,
2003,75.39,,81,
2004,92.19,,81,
2005,83.24,,81,
2006,93.78,,81,
2008,77.07,,81,
2009,73.99,,81,
2010,79.66,,81,
2011,72.86,,81,
2012,88.39,,81,
2013,91.49,,81,
2014,86.96,,81,
2015,93.16,,81,
2016,105.31,,81,
2017,104.49,,81,
2018,107.07,,81,
2019,115.14,,81,
2002,71.27,,85,
2003,98.51,,85,
2004,100.11,,85,
2005,102.64,,85,
2006,98.64,,85,
2007,98.67,,85,
2008,97.17,,85,
2009,95.19,,85,
2010,95.15,,85,
2011,102.74,,85,
2012,97.56,,85,
2013,96.38,,85,
2014,92.51,,85,
2015,91.98,,85,
2016,91.40,,85,
2017,89.93,,85,
2018,88.9,,85,
2019,96.55,,85,
2002,72.47,,86,
2003,72.95,,86,
2004,92.98,,86,
2005,114.95,,86,
2006,115.57,,86,
2007,109.73,,86,
2008,91.76,,86,
2009,85.67,,86,
2010,88.52,,86,
2011,78.10,,86,
2012,88.71,,86,
2013,81.54,,86,
2014,79.62,,86,
2015,85.31,,86,
2016,88.34,,86,
2017,92.27,,86,
2018,95.2,,86,
2019,98.05,,86,
2002,108.99,,88,
2003,50.69,,88,
2004,66.24,,88,
2005,70.96,,88,
2006,71.05,,88,
2007,65.88,,88,
2008,66.04,,88,
2009,71.63,,88,
2010,77.07,,88,
2011,64.06,,88,
2012,93.79,,88,
2013,82.08,,88,
2014,88.49,,88,
2015,89.89,,88,
2016,87.05,,88,
2017,96.53,,88,
2018,92.07,,88,
2019,89.33,,88,
2002,53.89,,91,
2003,66.11,,91,
2004,78.16,,91,
2005,92.74,,91,
2006,87.42,,91,
2007,85.36,,91,
2008,77.43,,91,
2009,74.23,,91,
2010,78.62,,91,
2011,76.86,,91,
2012,85.64,,91,
2013,85.53,,91,
2014,75.79,,91,
2015,88.54,,91,
2016,80.13,,91,
2017,80.64,,91,
2018,84.06,,91,
2019,91.06,,91,
2002,48.82,,94,
2003,37.15,,94,
2004,40.91,,94,
2005,69.07,,94,
2006,78.48,,94,
2007,58.09,,94,
2008,39.63,,94,
2009,75.07,,94,
2010,51.81,,94,
2007,86.55,,81,
2011,81.81,,94,
2012,63.89,,94,
2013,59.30,,94,
2014,81.59,,94,
2015,91.89,,94,
2016,91.17,,94,
2017,93.28,,94,
2018,106.06,,94,
2019,109.23,,94,
2002,63.89,,95,
2003,61.94,,95,
2004,69.58,,95,
2005,79.93,,95,
2006,77.51,,95,
2007,85.29,,95,
2008,80.18,,95,
2009,77.98,,95,
2010,65.42,,95,
2011,59.72,,95,
2012,56.45,,95,
2013,45.03,,95,
2014,68.45,,95,
2015,90.95,,95,
2016,86.84,,95,
2017,93.49,,95,
2018,99.35,,95,
2019,102.89,,95,
2002,56.60,,97,
2003,46.22,,97,
2004,60.65,,97,
2005,50.65,,97,
2006,66.34,,97,
2007,66.29,,97,
2008,47.54,,97,
2009,75.24,,97,
2010,74.23,,97,
2011,76.85,,97,
2012,61.95,,97,
2013,56.30,,97,
2014,93.02,,97,
2015,80.46,,97,
2016,68.99,,97,
2017,83.51,,97,
2018,77.42,,97,
2019,76.68,,97,
2002,72.37,,99,
2003,28.00,,99,
2004,50.89,,99,
2005,73.29,,99,
2006,45.10,,99,
2007,54.30,,99,
2008,49.59,,99,
2009,44.52,,99,
2010,71.49,,99,
2011,76.94,,99,
2012,47.15,,99,
2013,53.23,,99,
2014,75.07,,99,
2015,70.12,,99,
2016,67.46,,99,
2017,60.35,,99,
2018,69.15,,99,
2019,68.98,,99,
2016,49.79,,5,

606 filas seleccionadas. 

