TIME,OBS,COUNTRY,DES_GEO_DEPTOS,DES_GEO_REGIONES,SEXO
2008,27.46038,,,,F
2009,30.39281,,,,F
2010,38.27205,,,,F
2011,50.18165,,,,F
2012,56.22281,,,,F
2013,57.34573,,,,F
2014,65.51149,,,,F
2015,67.45691,,,,F
2016,69.60,,,,F
2017,78.63,,,,F
2018,34.91,,,,F
2019,36.19,,,,F
2007,17.72812,,,,M
2008,26.27794,,,,M
2009,29.63919,,,,M
2010,39.27597,,,,M
2011,51.46648,,,,M
2012,60.79465,,,,M
2013,62.68903,,,,M
2014,72.26856,,,,M
2015,72.7951,,,,M
2016,78.22,,,,M
2017,82.54,,,,M
2018,57.09,,,,M
2019,54.15,,,,M
2008,26.8767,CO,,,
2009,30.02079,CO,,,
2010,38.76766,CO,,,
2011,50.82029,CO,,,
2012,58.47989,CO,,,
2013,59.98376,CO,,,
2014,68.84761,CO,,,
2015,70.09256,CO,,,
2016,73.86,CO,,,
2017,80.56,CO,,,
2018,45.86,CO,,,
2019,44.9,CO,,,
2007,0.5484274,,05,,
2008,11.55395,,05,,
2009,23.12746,,05,,
2010,46.81831,,05,,
2011,54.80313,,05,,
2012,70.3653,,05,,
2013,65.8255,,05,,
2014,82.62608,,05,,
2015,73.3857,,05,,
2016,79.34,,05,,
2017,89.66,,05,,
2018,44.30,,05,,
2019,46.8,,05,,
2007,7.369194,,08,,
2008,15.20968,,08,,
2009,13.26132,,08,,
2010,11.49296,,08,,
2011,20.26384,,08,,
2012,33.87331,,08,,
2013,55.59925,,08,,
2014,66.77623,,08,,
2015,74.32352,,08,,
2016,77.32,,08,,
2017,87.65,,08,,
2018,46.15,,08,,
2019,50.4,,08,,
2007,14.25486,,11,,
2008,23.91317,,11,,
2009,26.91609,,11,,
2010,42.58681,,11,,
2011,66.80679,,11,,
2012,69.07623,,11,,
2013,76.6578,,11,,
2014,80.43108,,11,,
2015,75.73505,,11,,
2016,70.48,,11,,
2017,73.46,,11,,
2018,48.73,,11,,
2019,42.4,,11,,
2007,5.841411,,13,,
2008,7.174193,,13,,
2009,12.15259,,13,,
2010,13.58578,,13,,
2011,23.76992,,13,,
2012,24.73374,,13,,
2013,21.96076,,13,,
2014,46.45432,,13,,
2015,62.13161,,13,,
2016,90.62,,13,,
2017,157.64,,13,,
2018,81.93,,13,,
2019,74.3,,13,,
2007,24.58715,,15,,
2008,36.65144,,15,,
2009,31.60773,,15,,
2010,48.04158,,15,,
2011,31.51083,,15,,
2012,53.88893,,15,,
2013,55.78012,,15,,
2014,57.97829,,15,,
2015,62.4409,,15,,
2016,55.55,,15,,
2017,61.96,,15,,
2018,32.37,,15,,
2019,44.8,,15,,
2007,65.1867,,17,,
2008,71.1139,,17,,
2009,62.985,,17,,
2010,60.71497,,17,,
2011,69.57288,,17,,
2012,84.80901,,17,,
2013,81.49454,,17,,
2014,106.1821,,17,,
2015,152.3293,,17,,
2007,18.32361,CO,,,
2016,173.04,,17,,
2017,174.42,,17,,
2018,79.39,,17,,
2019,66.2,,17,,
2007,7.888265,,18,,
2008,9.393221,,18,,
2009,10.40557,,18,,
2010,8.039896,,18,,
2011,28.21944,,18,,
2012,65.28622,,18,,
2013,61.65586,,18,,
2014,55.35044,,18,,
2015,63.22727,,18,,
2016,71.51,,18,,
2017,94.48,,18,,
2018,45.14,,18,,
2019,35.8,,18,,
2007,32.77044,,19,,
2008,34.13724,,19,,
2009,35.31616,,19,,
2010,40.55734,,19,,
2011,47.41666,,19,,
2012,59.73262,,19,,
2013,67.17191,,19,,
2014,75.78728,,19,,
2015,65.76424,,19,,
2016,75.66,,19,,
2017,79.55,,19,,
2018,31.43,,19,,
2019,29.8,,19,,
2007,8.292312,,20,,
2008,15.19243,,20,,
2009,15.09646,,20,,
2010,23.90191,,20,,
2011,50.76329,,20,,
2012,59.60161,,20,,
2013,66.72921,,20,,
2014,71.91109,,20,,
2015,73.38005,,20,,
2016,77.99,,20,,
2017,101.66,,20,,
2018,62.40,,20,,
2019,55.5,,20,,
2007,8.134754,,23,,
2008,10.29038,,23,,
2009,13.21501,,23,,
2010,16.48993,,23,,
2011,26.62488,,23,,
2012,31.91156,,23,,
2013,34.498,,23,,
2014,51.55062,,23,,
2015,38.60453,,23,,
2016,43.26,,23,,
2017,57.36,,23,,
2018,40.76,,23,,
2019,38.3,,23,,
2007,4.664743,,25,,
2008,12.05417,,25,,
2009,19.40791,,25,,
2010,26.76586,,25,,
2011,33.92638,,25,,
2012,38.12133,,25,,
2013,34.79272,,25,,
2014,44.37188,,25,,
2015,55.48423,,25,,
2016,54.97,,25,,
2017,58.64,,25,,
2018,31.31,,25,,
2019,27.5,,25,,
2007,3.890352,,27,,
2008,4.924273,,27,,
2009,4.028855,,27,,
2010,9.87086,,27,,
2011,20.7978,,27,,
2012,31.0992,,27,,
2013,23.86211,,27,,
2014,17.5704,,27,,
2015,69.58706,,27,,
2016,93.86,,27,,
2017,34.31,,27,,
2018,31.06,,27,,
2019,11.7,,27,,
2007,88.26193,,41,,
2008,102.3308,,41,,
2009,111.5224,,41,,
2010,100.3518,,41,,
2011,104.9578,,41,,
2012,100.7242,,41,,
2013,103.0794,,41,,
2014,103.0215,,41,,
2015,113.8748,,41,,
2016,93.51,,41,,
2017,110.91,,41,,
2018,56.30,,41,,
2019,57.6,,41,,
2007,10.05367,,44,,
2008,15.71717,,44,,
2009,12.13526,,44,,
2010,9.404695,,44,,
2011,9.685333,,44,,
2012,14.29336,,44,,
2013,23.49377,,44,,
2014,30.1029,,44,,
2015,28.50291,,44,,
2016,23.04,,44,,
2017,26.16,,44,,
2018,21.54,,44,,
2019,21,,44,,
2007,6.75291,,47,,
2008,5.677321,,47,,
2009,4.871223,,47,,
2010,10.65334,,47,,
2011,21.11238,,47,,
2012,22.87815,,47,,
2013,42.8965,,47,,
2014,61.08148,,47,,
2015,51.51521,,47,,
2016,55.41,,47,,
2017,57.88,,47,,
2018,36.81,,47,,
2019,35.7,,47,,
2007,56.60361,,50,,
2008,66.30553,,50,,
2009,71.26398,,50,,
2010,82.44146,,50,,
2011,116.3364,,50,,
2012,106.0868,,50,,
2013,87.79603,,50,,
2014,80.90581,,50,,
2015,79.88898,,50,,
2016,69.61,,50,,
2017,106.10,,50,,
2018,77.11,,50,,
2019,46.7,,50,,
2007,47.27522,,52,,
2008,44.19728,,52,,
2009,45.94121,,52,,
2010,55.56369,,52,,
2011,61.02182,,52,,
2012,77.46334,,52,,
2013,77.68327,,52,,
2014,84.04215,,52,,
2015,88.69254,,52,,
2016,108.10,,52,,
2017,91.30,,52,,
2018,51.63,,52,,
2019,52.1,,52,,
2007,35.17631,,54,,
2008,31.97908,,54,,
2009,34.27026,,54,,
2010,45.14808,,54,,
2011,63.47073,,54,,
2012,69.05026,,54,,
2013,66.64775,,54,,
2014,69.12007,,54,,
2015,84.82159,,54,,
2016,84.59,,54,,
2017,91.55,,54,,
2018,43.85,,54,,
2019,40.4,,54,,
2007,70.30098,,63,,
2008,110.0116,,63,,
2009,96.59838,,63,,
2010,102.2447,,63,,
2011,145.815,,63,,
2012,123.2378,,63,,
2013,120.9369,,63,,
2014,148.7243,,63,,
2015,154.2516,,63,,
2016,172.73,,63,,
2017,160.91,,63,,
2018,96.87,,63,,
2019,98.7,,63,,
2007,36.2078,,66,,
2008,45.39632,,66,,
2009,47.19233,,66,,
2010,46.80489,,66,,
2011,48.68256,,66,,
2012,63.46764,,66,,
2013,66.9305,,66,,
2014,60.31911,,66,,
2015,71.32705,,66,,
2016,89.11,,66,,
2017,107.84,,66,,
2018,65.30,,66,,
2019,75.3,,66,,
2007,9.954643,,68,,
2008,16.13459,,68,,
2009,23.10001,,68,,
2010,27.60654,,68,,
2011,37.90946,,68,,
2012,38.90141,,68,,
2013,33.61209,,68,,
2014,38.76117,,68,,
2015,36.58278,,68,,
2016,43.94,,68,,
2017,58.29,,68,,
2018,28.31,,68,,
2019,23.8,,68,,
2007,29.09218,,70,,
2008,24.78255,,70,,
2009,30.1469,,70,,
2010,37.0067,,70,,
2011,51.17939,,70,,
2012,67.3698,,70,,
2013,75.57456,,70,,
2014,87.52351,,70,,
2015,72.57652,,70,,
2016,64.89,,70,,
2017,77.73,,70,,
2018,36.26,,70,,
2019,40.9,,70,,
2007,26.11979,,73,,
2008,29.87882,,73,,
2009,45.8323,,73,,
2010,48.06788,,73,,
2011,58.26669,,73,,
2012,70.84335,,73,,
2013,64.77924,,73,,
2014,76.55267,,73,,
2015,74.70148,,73,,
2016,80.94,,73,,
2017,65.60,,73,,
2018,34.16,,73,,
2019,30.6,,73,,
2007,6.11877,,76,,
2008,31.20967,,76,,
2009,26.80825,,76,,
2010,33.85595,,76,,
2011,42.11192,,76,,
2012,48.23026,,76,,
2013,47.8489,,76,,
2014,51.28233,,76,,
2015,51.13051,,76,,
2016,51.97,,76,,
2017,68.75,,76,,
2018,37.61,,76,,
2019,50.1,,76,,
2007,55.79772,,81,,
2008,78.27837,,81,,
2009,83.02421,,81,,
2010,68.27151,,81,,
2011,66.24921,,81,,
2012,79.66399,,81,,
2013,56.13444,,81,,
2014,69.37833,,81,,
2015,96.0677,,81,,
2016,93.89,,81,,
2017,76.12,,81,,
2018,38.42,,81,,
2019,41.7,,81,,
2007,44.23613,,85,,
2008,50.09077,,85,,
2009,46.94615,,85,,
2010,54.97189,,85,,
2011,88.62522,,85,,
2012,89.67522,,85,,
2013,76.4446,,85,,
2014,76.51918,,85,,
2015,95.93833,,85,,
2016,90.43,,85,,
2017,90.79,,85,,
2018,36.51,,85,,
2019,42.7,,85,,
2007,66.41177,,86,,
2008,66.68963,,86,,
2009,74.68677,,86,,
2011,98.30157,,86,,
2012,109.2283,,86,,
2013,99.3906,,86,,
2014,112.5987,,86,,
2015,105.1552,,86,,
2016,114.72,,86,,
2017,122.57,,86,,
2018,46.53,,86,,
2019,61,,86,,
2007,2.792789,,88,,
2008,6.928374,,88,,
2009,19.24796,,88,,
2010,16.36661,,88,,
2011,13.52722,,88,,
2012,17.44007,,88,,
2013,31.92891,,88,,
2014,80.47387,,88,,
2015,52.32726,,88,,
2016,35.02,,88,,
2017,43.72,,88,,
2018,29.33,,88,,
2019,6.32,,88,,
2007,5.75755,,91,,
2008,12.79991,,91,,
2009,4.215437,,91,,
2010,5.554244,,91,,
2011,8.235197,,91,,
2012,28.49428,,91,,
2013,44.27094,,91,,
2014,23.87648,,91,,
2015,34.10149,,91,,
2016,31.13,,91,,
2017,57.73,,91,,
2018,27.91,,91,,
2019,15,,91,,
2007,19.19702,,94,,
2008,10.78632,,94,,
2009,18.56518,,94,,
2010,31.3087,,94,,
2011,33.37698,,94,,
2012,50.53823,,94,,
2013,37.31065,,94,,
2014,51.42144,,94,,
2015,43.39231,,94,,
2016,30.86,,94,,
2017,23.38,,94,,
2018,9.21,,94,,
2019,20.4,,94,,
2007,13.17283,,95,,
2008,10.97717,,95,,
2009,13.758,,95,,
2010,13.55184,,95,,
2011,23.8445,,95,,
2012,45.11872,,95,,
2013,21.30932,,95,,
2014,58.45283,,95,,
2015,55.82568,,95,,
2016,81.69,,95,,
2017,56.91,,95,,
2018,42.30,,95,,
2019,30.6,,95,,
2007,0,,97,,
2008,4.92017,,97,,
2009,0,,97,,
2010,2.407666,,97,,
2011,9.531753,,97,,
2012,4.717871,,97,,
2013,4.671042,,97,,
2014,6.93802,,97,,
2015,4.580328,,97,,
2016,399.28,,97,,
2017,51.69,,97,,
2018,6.68,,97,,
2019,8.82,,97,,
2007,22.07693,,99,,
2008,11.5714,,99,,
2009,17.72164,,99,,
2010,12.56479,,99,,
2011,35.23176,,99,,
2012,16.43827,,99,,
2010,72.06533,,86,,
2013,16.04083,,99,,
2014,39.85198,,99,,
2015,41.68172,,99,,
2016,29.85,,99,,
2017,27.83,,99,,
2018,15.53,,99,,
2019,53.1,,99,,
2007,18.90409,,,,F