"TIME","OBS","COUNTRY","SEXO","DES_GEO_DEPTOS","DES_GEO_REGIONES"
"2019","85.84","CO","","",""
"2019","91.60","","F","",""
"2019","80.30","","M","",""
"2019","88.35","","","05",""
"2019","84.00","","","08",""
"2019","92.09","","","11",""
"2019","84.78","","","13",""
"2019","102.30","","","15",""
"2019","85.94","","","17",""
"2019","91.47","","","18",""
"2019","84.10","","","19",""
"2019","76.40","","","20",""
"2019","84.74","","","23",""
"2019","88.08","","","25",""
"2019","72.49","","","27",""
"2019","81.96","","","41",""
"2019","54.34","","","44",""
"2019","88.25","","","47",""
"2019","100.67","","","50",""
"2019","79.42","","","52",""
"2019","92.28","","","54",""
"2019","93.0","","","63",""
"2019","102.21","","","66",""
"2019","89.26","","","68",""
"2019","81.84","","","70",""
"2019","86.82","","","73",""
"2019","80.57","","","76",""
"2019","80.99","","","81",""
"2019","83.55","","","85",""
"2019","76.07","","","86",""
"2019","75.50","","","88",""
"2019","70.41","","","91",""
"2019","42.29","","","94",""
"2019","72.90","","","95",""
"2019","40.26","","","97",""
"2019","23.92","","","99",""
"2009","68.15","","M","",""
"2010","71.29","","M","",""
"2011","72.82","","M","",""
"2000","58.44","CO","","",""
"2001","52.16","CO","","",""
"2002","57.43","CO","","",""
"2003","60.51","CO","","",""
"2004","61.68","CO","","",""
"2005","64.90","CO","","",""
"2006","68.87","CO","","",""
"2012","68.32","","M","",""
"2013","70.71","","M","",""
"2014","70.03","","M","",""
"2015","71.00","","M","",""
"2016","72.71","","M","",""
"2017","74.06","","M","",""
"2018","75","","M","",""
"2000","59.90","","","05",""
"2001","49.63","","","05",""
"2002","62.07","","","05",""
"2003","59.89","","","05",""
"2004","64.94","","","05",""
"2005","68.60","","","05",""
"2006","71.50","","","05",""
"2007","74.60","","","05",""
"2008","76.06","","","05",""
"2009","79.85","","","05",""
"2010","81.94","","","05",""
"2011","84.06","","","05",""
"2012","80.91","","","05",""
"2013","83.42","","","05",""
"2014","82.73","","","05",""
"2015","82.19","","","05",""
"2016","82.86","","","05",""
"2017","81.77","","","05",""
"2018","82","","","05",""
"2000","69.28","","","08",""
"2001","66.69","","","08",""
"2002","66.61","","","08",""
"2003","68.84","","","08",""
"2004","68.71","","","08",""
"2005","74.82","","","08",""
"2006","78.46","","","08",""
"2007","81.60","","","08",""
"2008","76.55","","","08",""
"2009","84.60","","","08",""
"2010","82.10","","","08",""
"2011","87.98","","","08",""
"2012","77.63","","","08",""
"2013","72.05","","","08",""
"2014","73.86","","","08",""
"2015","76.02","","","08",""
"2016","83.3","","","08",""
"2017","86.39","","","08",""
"2018","87","","","08",""
"2000","66.55","","","11",""
"2001","58.48","","","11",""
"2002","75.91","","","11",""
"2003","85.23","","","11",""
"2004","80.05","","","11",""
"2005","80.69","","","11",""
"2006","84.15","","","11",""
"2007","86.44","","","11",""
"2008","85.28","","","11",""
"2009","85.56","","","11",""
"2010","86.78","","","11",""
"2011","87.76","","","11",""
"2012","78.59","","","11",""
"2013","85.53","","","11",""
"2014","78.68","","","11",""
"2015","81.94","","","11",""
"2016","82.07","","","11",""
"2017","82.66","","","11",""
"2018","81","","","11",""
"2000","59.00","","","13",""
"2001","52.03","","","13",""
"2002","55.17","","","13",""
"2003","64.22","","","13",""
"2004","66.05","","","13",""
"2005","70.16","","","13",""
"2006","75.75","","","13",""
"2007","76.37","","","13",""
"2008","78.03","","","13",""
"2009","80.94","","","13",""
"2010","83.22","","","13",""
"2011","80.64","","","13",""
"2012","77.07","","","13",""
"2013","76.86","","","13",""
"2014","71.87","","","13",""
"2015","73.44","","","13",""
"2016","75.56","","","13",""
"2017","77.19","","","13",""
"2018","79","","","13",""
"2000","60.38","","","15",""
"2001","56.27","","","15",""
"2002","64.83","","","15",""
"2003","70.04","","","15",""
"2004","66.96","","","15",""
"2005","69.41","","","15",""
"2006","72.48","","","15",""
"2007","74.75","","","15",""
"2008","76.90","","","15",""
"2009","83.46","","","15",""
"2010","90.46","","","15",""
"2011","94.76","","","15",""
"2012","91.74","","","15",""
"2013","94.08","","","15",""
"2007","70.65","CO","","",""
"2008","71.30","CO","","",""
"2009","75.24","CO","","",""
"2010","78.61","CO","","",""
"2011","80.31","CO","","",""
"2012","75.54","CO","","",""
"2013","78.21","CO","","",""
"2014","77.31","CO","","",""
"2015","77.81","CO","","",""
"2016","79.48","CO","","",""
"2017","80.10","CO","","",""
"2018","80","CO","","",""
"2000","62.22","","F","",""
"2001","56.01","","F","",""
"2002","61.66","","F","",""
"2003","65.49","","F","",""
"2004","67.44","","F","",""
"2005","71.34","","F","",""
"2006","76.01","","F","",""
"2007","77.69","","F","",""
"2008","78.17","","F","",""
"2009","82.71","","F","",""
"2010","86.32","","F","",""
"2011","88.16","","F","",""
"2012","83.09","","F","",""
"2013","86.06","","F","",""
"2014","84.90","","F","",""
"2015","84.90","","F","",""
"2016","86.54","","F","",""
"2017","86.41","","F","",""
"2018","86","","F","",""
"2000","54.67","","M","",""
"2001","48.37","","M","",""
"2002","53.33","","M","",""
"2003","55.74","","M","",""
"2004","56.20","","M","",""
"2005","58.79","","M","",""
"2006","62.10","","M","",""
"2007","63.97","","M","",""
"2008","64.80","","M","",""
"2014","89.85","","","15",""
"2015","85.47","","","15",""
"2016","87.69","","","15",""
"2017","87.74","","","15",""
"2018","85","","","15",""
"2000","60.80","","","17",""
"2001","54.21","","","17",""
"2002","54.48","","","17",""
"2003","57.47","","","17",""
"2004","57.04","","","17",""
"2005","59.02","","","17",""
"2006","66.04","","","17",""
"2007","68.80","","","17",""
"2008","73.67","","","17",""
"2009","78.68","","","17",""
"2010","80.67","","","17",""
"2011","83.70","","","17",""
"2012","80.79","","","17",""
"2013","83.20","","","17",""
"2014","83.40","","","17",""
"2015","82.41","","","17",""
"2016","81.13","","","17",""
"2017","78.29","","","17",""
"2018","77","","","17",""
"2000","32.66","","","18",""
"2001","27.87","","","18",""
"2002","30.40","","","18",""
"2003","30.77","","","18",""
"2004","37.40","","","18",""
"2005","38.82","","","18",""
"2006","41.31","","","18",""
"2007","45.59","","","18",""
"2008","48.55","","","18",""
"2009","54.12","","","18",""
"2010","61.35","","","18",""
"2011","60.35","","","18",""
"2012","58.65","","","18",""
"2013","58.16","","","18",""
"2014","59.22","","","18",""
"2015","60.16","","","18",""
"2016","64.97","","","18",""
"2017","71.42","","","18",""
"2018","69","","","18",""
"2000","40.08","","","19",""
"2001","36.55","","","19",""
"2002","40.75","","","19",""
"2003","40.16","","","19",""
"2004","42.64","","","19",""
"2005","43.88","","","19",""
"2006","45.08","","","19",""
"2007","47.64","","","19",""
"2008","51.60","","","19",""
"2009","62.05","","","19",""
"2010","63.72","","","19",""
"2011","65.87","","","19",""
"2012","67.13","","","19",""
"2013","77.68","","","19",""
"2014","80.85","","","19",""
"2015","74.71","","","19",""
"2016","74.83","","","19",""
"2017","76.47","","","19",""
"2018","81","","","19",""
"2000","54.86","","","20",""
"2001","47.44","","","20",""
"2002","51.61","","","20",""
"2003","50.58","","","20",""
"2004","50.42","","","20",""
"2005","54.00","","","20",""
"2006","58.12","","","20",""
"2007","60.87","","","20",""
"2008","60.75","","","20",""
"2009","71.77","","","20",""
"2010","72.84","","","20",""
"2011","73.07","","","20",""
"2012","71.10","","","20",""
"2013","75.74","","","20",""
"2014","75.61","","","20",""
"2015","78.46","","","20",""
"2016","83.48","","","20",""
"2017","80.18","","","20",""
"2018","83","","","20",""
"2000","58.31","","","23",""
"2001","49.04","","","23",""
"2002","54.68","","","23",""
"2003","52.95","","","23",""
"2004","53.08","","","23",""
"2005","56.38","","","23",""
"2006","63.16","","","23",""
"2007","65.59","","","23",""
"2008","64.14","","","23",""
"2009","65.80","","","23",""
"2010","73.25","","","23",""
"2011","78.66","","","23",""
"2012","79.37","","","23",""
"2013","79.41","","","23",""
"2014","84.48","","","23",""
"2015","78.72","","","23",""
"2016","83.77","","","23",""
"2017","82.44","","","23",""
"2018","82","","","23",""
"2000","63.68","","","25",""
"2001","56.63","","","25",""
"2002","57.20","","","25",""
"2003","59.83","","","25",""
"2004","61.66","","","25",""
"2005","65.98","","","25",""
"2006","70.64","","","25",""
"2007","72.14","","","25",""
"2008","72.72","","","25",""
"2009","77.75","","","25",""
"2010","81.15","","","25",""
"2011","86.21","","","25",""
"2012","83.12","","","25",""
"2013","83.73","","","25",""
"2014","84.06","","","25",""
"2015","86.49","","","25",""
"2016","88.49","","","25",""
"2017","89.86","","","25",""
"2018","89","","","25",""
"2000","42.89","","","27",""
"2001","34.30","","","27",""
"2002","45.55","","","27",""
"2003","36.64","","","27",""
"2004","33.84","","","27",""
"2005","39.10","","","27",""
"2006","39.84","","","27",""
"2007","44.13","","","27",""
"2008","50.20","","","27",""
"2009","52.82","","","27",""
"2010","58.03","","","27",""
"2011","63.13","","","27",""
"2012","55.82","","","27",""
"2013","56.24","","","27",""
"2014","64.86","","","27",""
"2015","63.56","","","27",""
"2016","59.64","","","27",""
"2017","62.24","","","27",""
"2018","67","","","27",""
"2000","47.97","","","41",""
"2001","41.29","","","41",""
"2002","53.38","","","41",""
"2003","52.33","","","41",""
"2004","56.72","","","41",""
"2005","58.35","","","41",""
"2006","66.57","","","41",""
"2007","67.41","","","41",""
"2008","66.31","","","41",""
"2009","69.20","","","41",""
"2010","68.87","","","41",""
"2011","71.11","","","41",""
"2012","69.78","","","41",""
"2013","73.09","","","41",""
"2014","75.89","","","41",""
"2015","76.13","","","41",""
"2016","76.86","","","41",""
"2017","76.94","","","41",""
"2018","75","","","41",""
"2000","55.83","","","44",""
"2001","42.17","","","44",""
"2002","41.32","","","44",""
"2003","42.17","","","44",""
"2004","38.74","","","44",""
"2005","40.04","","","44",""
"2006","42.74","","","44",""
"2007","43.63","","","44",""
"2008","45.31","","","44",""
"2009","48.96","","","44",""
"2010","59.23","","","44",""
"2011","49.83","","","44",""
"2012","47.18","","","44",""
"2013","43.91","","","44",""
"2014","43.85","","","44",""
"2015","42.18","","","44",""
"2016","42.65","","","44",""
"2017","44.75","","","44",""
"2018","47","","","44",""
"2000","53.68","","","47",""
"2001","49.67","","","47",""
"2002","50.58","","","47",""
"2003","56.58","","","47",""
"2004","61.03","","","47",""
"2005","61.40","","","47",""
"2006","67.21","","","47",""
"2007","68.62","","","47",""
"2008","71.44","","","47",""
"2009","69.97","","","47",""
"2010","78.97","","","47",""
"2011","75.84","","","47",""
"2012","70.94","","","47",""
"2013","71.96","","","47",""
"2014","69.50","","","47",""
"2015","71.43","","","47",""
"2016","75.5","","","47",""
"2017","78.91","","","47",""
"2018","84","","","47",""
"2000","48.56","","","50",""
"2001","43.00","","","50",""
"2002","43.24","","","50",""
"2003","52.30","","","50",""
"2004","55.20","","","50",""
"2005","57.43","","","50",""
"2006","59.30","","","50",""
"2007","60.99","","","50",""
"2008","60.23","","","50",""
"2009","66.97","","","50",""
"2010","75.08","","","50",""
"2011","75.26","","","50",""
"2012","72.52","","","50",""
"2013","80.32","","","50",""
"2014","77.98","","","50",""
"2015","82.14","","","50",""
"2016","85.56","","","50",""
"2017","85.89","","","50",""
"2018","88","","","50",""
"2000","44.11","","","52",""
"2001","43.38","","","52",""
"2002","43.19","","","52",""
"2003","47.49","","","52",""
"2004","48.57","","","52",""
"2005","49.73","","","52",""
"2006","52.83","","","52",""
"2007","54.77","","","52",""
"2008","55.48","","","52",""
"2009","57.85","","","52",""
"2010","60.55","","","52",""
"2011","62.27","","","52",""
"2012","58.96","","","52",""
"2013","62.36","","","52",""
"2014","72.66","","","52",""
"2015","67.17","","","52",""
"2016","63.11","","","52",""
"2017","63.93","","","52",""
"2018","64","","","52",""
"2000","55.62","","","54",""
"2001","49.22","","","54",""
"2002","56.48","","","54",""
"2003","55.80","","","54",""
"2004","62.57","","","54",""
"2005","62.33","","","54",""
"2006","66.14","","","54",""
"2007","63.25","","","54",""
"2008","69.43","","","54",""
"2009","78.76","","","54",""
"2010","80.41","","","54",""
"2011","82.30","","","54",""
"2012","65.85","","","54",""
"2013","70.64","","","54",""
"2014","72.08","","","54",""
"2015","72.75","","","54",""
"2016","74.99","","","54",""
"2017","84.94","","","54",""
"2018","88","","","54",""
"2000","59.13","","","63",""
"2001","56.30","","","63",""
"2002","65.67","","","63",""
"2003","65.26","","","63",""
"2004","66.23","","","63",""
"2005","85.38","","","63",""
"2006","85.06","","","63",""
"2007","80.03","","","63",""
"2008","76.39","","","63",""
"2009","79.70","","","63",""
"2010","81.71","","","63",""
"2011","87.83","","","63",""
"2012","84.76","","","63",""
"2013","87.20","","","63",""
"2014","86.52","","","63",""
"2015","88.63","","","63",""
"2016","91.22","","","63",""
"2017","86.77","","","63",""
"2018","83","","","63",""
"2000","57.47","","","66",""
"2001","54.27","","","66",""
"2002","57.55","","","66",""
"2003","62.87","","","66",""
"2004","62.06","","","66",""
"2005","67.10","","","66",""
"2006","70.37","","","66",""
"2007","69.27","","","66",""
"2008","71.78","","","66",""
"2009","79.75","","","66",""
"2010","87.77","","","66",""
"2011","95.27","","","66",""
"2012","87.70","","","66",""
"2013","85.08","","","66",""
"2014","85.75","","","66",""
"2015","89.46","","","66",""
"2016","92.6","","","66",""
"2017","92.84","","","66",""
"2018","93","","","66",""
"2000","57.46","","","68",""
"2001","52.76","","","68",""
"2002","54.99","","","68",""
"2003","60.25","","","68",""
"2004","66.22","","","68",""
"2005","69.25","","","68",""
"2006","72.54","","","68",""
"2007","74.94","","","68",""
"2008","72.89","","","68",""
"2009","76.36","","","68",""
"2010","83.34","","","68",""
"2011","83.87","","","68",""
"2012","81.41","","","68",""
"2013","84.09","","","68",""
"2014","83.10","","","68",""
"2015","85.51","","","68",""
"2016","89.14","","","68",""
"2017","92.22","","","68",""
"2018","98","","","68",""
"2000","59.80","","","70",""
"2001","53.87","","","70",""
"2002","55.31","","","70",""
"2003","60.00","","","70",""
"2004","61.22","","","70",""
"2005","71.46","","","70",""
"2006","77.03","","","70",""
"2007","78.60","","","70",""
"2008","78.17","","","70",""
"2009","78.24","","","70",""
"2010","87.57","","","70",""
"2011","88.27","","","70",""
"2012","79.65","","","70",""
"2013","81.58","","","70",""
"2014","83.81","","","70",""
"2015","85.64","","","70",""
"2016","85.64","","","70",""
"2017","84.12","","","70",""
"2000","59.33","","","73",""
"2001","54.19","","","73",""
"2002","52.60","","","73",""
"2003","54.69","","","73",""
"2004","52.59","","","73",""
"2005","57.64","","","73",""
"2006","63.70","","","73",""
"2007","65.36","","","73",""
"2008","65.38","","","73",""
"2009","74.57","","","73",""
"2010","83.25","","","73",""
"2011","81.59","","","73",""
"2012","70.92","","","73",""
"2013","78.24","","","73",""
"2014","74.52","","","73",""
"2015","77.44","","","73",""
"2016","80.13","","","73",""
"2017","79.47","","","73",""
"2000","64.22","","","76",""
"2001","60.31","","","76",""
"2002","54.52","","","76",""
"2003","57.90","","","76",""
"2004","62.37","","","76",""
"2005","66.81","","","76",""
"2006","71.20","","","76",""
"2007","71.62","","","76",""
"2008","72.64","","","76",""
"2009","75.50","","","76",""
"2010","77.52","","","76",""
"2011","78.70","","","76",""
"2012","76.19","","","76",""
"2013","78.82","","","76",""
"2014","76.79","","","76",""
"2015","77.20","","","76",""
"2016","79.48","","","76",""
"2017","77.74","","","76",""
"2000","46.86","","","81",""
"2001","39.13","","","81",""
"2002","37.90","","","81",""
"2003","43.21","","","81",""
"2004","43.15","","","81",""
"2005","47.85","","","81",""
"2006","44.47","","","81",""
"2007","40.87","","","81",""
"2008","52.63","","","81",""
"2009","57.25","","","81",""
"2010","61.68","","","81",""
"2011","64.26","","","81",""
"2012","61.94","","","81",""
"2013","56.13","","","81",""
"2014","56.24","","","81",""
"2015","59.76","","","81",""
"2016","63.17","","","81",""
"2017","62.25","","","81",""
"2000","42.74","","","85",""
"2001","38.31","","","85",""
"2002","32.98","","","85",""
"2003","48.14","","","85",""
"2004","51.20","","","85",""
"2005","51.76","","","85",""
"2006","58.04","","","85",""
"2007","61.83","","","85",""
"2008","64.06","","","85",""
"2009","70.17","","","85",""
"2010","80.25","","","85",""
"2011","82.99","","","85",""
"2012","87.90","","","85",""
"2013","92.10","","","85",""
"2014","90.92","","","85",""
"2015","90.97","","","85",""
"2016","87.96","","","85",""
"2017","86.31","","","85",""
"2000","32.19","","","86",""
"2001","31.74","","","86",""
"2002","28.05","","","86",""
"2003","31.34","","","86",""
"2004","33.75","","","86",""
"2005","35.16","","","86",""
"2006","40.74","","","86",""
"2007","42.15","","","86",""
"2008","47.61","","","86",""
"2009","47.91","","","86",""
"2010","54.86","","","86",""
"2011","62.85","","","86",""
"2012","67.64","","","86",""
"2013","65.13","","","86",""
"2014","65.79","","","86",""
"2015","66.70","","","86",""
"2016","69.27","","","86",""
"2017","73.40","","","86",""
"2000","59.50","","","88",""
"2001","55.85","","","88",""
"2002","57.34","","","88",""
"2003","64.22","","","88",""
"2004","62.05","","","88",""
"2005","63.68","","","88",""
"2006","70.48","","","88",""
"2007","68.40","","","88",""
"2008","67.64","","","88",""
"2009","67.06","","","88",""
"2010","68.09","","","88",""
"2011","66.33","","","88",""
"2012","66.91","","","88",""
"2013","61.98","","","88",""
"2014","57.48","","","88",""
"2015","58.81","","","88",""
"2016","57.06","","","88",""
"2017","55.57","","","88",""
"2000","26.81","","","91",""
"2001","25.53","","","91",""
"2002","29.68","","","91",""
"2003","30.98","","","91",""
"2004","0.00","","","91",""
"2005","52.85","","","91",""
"2006","54.18","","","91",""
"2007","57.94","","","91",""
"2008","60.52","","","91",""
"2009","54.85","","","91",""
"2010","58.65","","","91",""
"2011","58.01","","","91",""
"2012","58.28","","","91",""
"2013","59.61","","","91",""
"2014","63.26","","","91",""
"2015","67.01","","","91",""
"2016","68.38","","","91",""
"2017","72.21","","","91",""
"2005","23.38","","","94",""
"2006","25.42","","","94",""
"2007","28.20","","","94",""
"2008","28.75","","","94",""
"2009","29.45","","","94",""
"2010","29.46","","","94",""
"2011","36.14","","","94",""
"2012","33.19","","","94",""
"2013","52.76","","","94",""
"2014","40.08","","","94",""
"2015","38.10","","","94",""
"2016","41.23","","","94",""
"2017","42.10","","","94",""
"2005","24.66","","","95",""
"2006","26.05","","","95",""
"2007","28.50","","","95",""
"2008","32.30","","","95",""
"2009","39.13","","","95",""
"2010","40.10","","","95",""
"2011","53.69","","","95",""
"2012","50.99","","","95",""
"2013","49.64","","","95",""
"2014","48.53","","","95",""
"2015","47.72","","","95",""
"2016","47.23","","","95",""
"2017","49.66","","","95",""
"2005","25.83","","","97",""
"2006","27.73","","","97",""
"2007","28.35","","","97",""
"2008","31.38","","","97",""
"2009","35.55","","","97",""
"2010","36.80","","","97",""
"2011","39.92","","","97",""
"2012","37.78","","","97",""
"2013","41.06","","","97",""
"2014","41.31","","","97",""
"2015","42.91","","","97",""
"2016","45.46","","","97",""
"2017","48.28","","","97",""
"2005","33.06","","","99",""
"2006","36.04","","","99",""
"2007","37.08","","","99",""
"2008","35.58","","","99",""
"2009","37.13","","","99",""
"2010","40.55","","","99",""
"2011","39.03","","","99",""
"2012","35.88","","","99",""
"2013","35.26","","","99",""
"2014","36.36","","","99",""
"2015","38.02","","","99",""
"2016","37.3","","","99",""
"2017","37.40","","","99",""