TIME,OBS,COUNTRY
2000,81.97,CO
2001,78.39,CO
2002,74.67,CO
2003,75.26,CO
2004,76.37,CO
2005,75.58,CO
2006,75.94,CO
2007,75.91,CO
2008,76.04,CO
2009,73.97,CO
2010,68.85,CO
2011,69.97,CO
2012,72.59,CO
2013,69.25,CO
2014,67.44,CO
2015,63.88,CO
2016,61.56,CO
2017,61.11,CO
2018,58.81,CO
2000,93.85,
2001,87.76,
2002,81.10,
2003,80.23,
2004,81.56,
2005,81.78,
2006,83.25,
2007,82.20,
2008,81.00,
2009,75.59,
2010,67.69,
2011,67.40,
2012,69.56,
2013,65.44,
2014,64.79,
2015,60.81,
2016,58.79,
2017,57.97,
2018,54.18,
2000,70.86,
2001,66.10,
2002,67.45,
2003,71.58,
2004,69.86,
2005,68.88,
2006,67.91,
2007,70.62,
2008,73.75,
2009,72.08,
2010,62.80,
2011,62.75,
2012,76.66,
2013,74.93,
2014,77.74,
2015,74.43,
2016,73.25,
2017,75.36,
2000,66.74,
2001,65.53,
2002,63.11,
2003,63.05,
2004,62.83,
2005,63.15,
2006,65.62,
2007,69.01,
2008,67.40,
2009,65.26,
2010,60.57,
2011,59.26,
2012,59.28,
2013,56.34,
2014,52.51,
2015,48.57,
2016,43.80,
2017,38.68,
2018,34.62,
2000,76.68,
2001,70.01,
2002,70.76,
2003,76.07,
2004,71.86,
2005,75.50,
2006,77.72,
2007,71.98,
2008,74.45,
2009,85.09,
2010,74.53,
2011,85.11,
2012,90.52,
2013,83.52,
2014,83.15,
2015,78.89,
2016,76.82,
2017,82.21,
2018,78.72,
2000,78.47,
2001,76.46,
2002,73.16,
2003,73.17,
2004,71.31,
2005,70.09,
2006,69.50,
2007,71.03,
2008,70.30,
2009,70.10,
2010,64.96,
2011,65.44,
2012,65.57,
2013,61.15,
2014,56.87,
2015,53.15,
2016,51.10,
2017,50.02,
2018,45.24,
2000,84.33,
2001,81.44,
2002,75.93,
2003,73.88,
2004,71.29,
2005,67.26,
2006,68.07,
2007,67.75,
2008,68.58,
2009,62.93,
2010,62.28,
2011,61.56,
2012,62.76,
2013,59.89,
2014,57.70,
2015,54.09,
2016,51.52,
2017,47.24,
2018,42.81,
2000,99.97,
2001,96.27,
2002,85.72,
2003,86.18,
2004,89.55,
2005,91.48,
2006,87.50,
2007,90.40,
2008,87.77,
2009,91.76,
2010,90.83,
2011,91.86,
2012,101.82,
2013,96.47,
2014,89.16,
2015,86.64,
2016,76.75,
2017,80.58,
2018,73.24,
2000,81.43,
2001,80.56,
2002,76.72,
2003,78.66,
2004,82.62,
2005,81.27,
2006,83.57,
2007,73.14,
2008,72.33,
2009,71.74,
2010,70.73,
2011,68.32,
2012,71.24,
2013,72.46,
2014,70.33,
2015,70.02,
2016,67.38,
2017,69.10,
2018,62.9,
2000,93.80,
2001,95.89,
2002,93.40,
2003,101.30,
2004,105.93,
2005,101.77,
2006,104.50,
2007,99.90,
2008,101.00,
2009,98.21,
2010,90.00,
2011,99.94,
2012,98.75,
2013,97.98,
2014,100.11,
2015,93.10,
2016,91.57,
2017,90.16,
2018,99.31,
2000,89.42,
2001,83.75,
2002,76.40,
2003,74.12,
2004,87.73,
2005,90.31,
2006,73.92,
2007,66.13,
2008,81.73,
2009,79.51,
2010,69.51,
2011,84.55,
2012,88.06,
2013,84.74,
2014,83.58,
2015,78.98,
2016,76.07,
2017,76.95,
2018,74.9,
2000,91.72,
2001,86.23,
2002,79.46,
2003,64.09,
2004,70.52,
2005,68.61,
2006,70.88,
2007,74.16,
2008,74.14,
2009,72.11,
2010,70.71,
2011,67.86,
2012,70.03,
2013,68.73,
2014,66.68,
2015,63.54,
2016,59.33,
2017,56.67,
2018,51.56,
2000,45.94,
2001,46.14,
2002,46.69,
2003,48.00,
2004,50.38,
2005,48.72,
2006,48.95,
2007,50.92,
2008,49.74,
2009,49.56,
2010,50.99,
2011,51.21,
2012,54.45,
2013,60.91,
2014,58.41,
2015,55.05,
2016,43.64,
2017,50.49,
2018,53.52,
2000,117.25,
2001,114.81,
2002,112.59,
2003,108.88,
2004,104.98,
2005,99.38,
2006,104.93,
2007,104.06,
2008,99.71,
2009,94.76,
2010,87.69,
2011,90.76,
2012,95.93,
2013,92.05,
2014,87.84,
2015,82.64,
2016,84.35,
2018,76.6,
2017,83.61,
2018,74.59,
2000,75.16,
2001,74.43,
2002,70.08,
2004,57.24,
2005,59.48,
2006,61.34,
2007,62.75,
2008,62.95,
2009,65.44,
2010,62.87,
2011,65.74,
2012,66.72,
2013,66.79,
2014,71.66,
2015,69.58,
2016,67.71,
2017,73.11,
2018,86.38,
2003,61.34,
2000,68.48,
2001,65.91,
2002,68.16,
2003,82.29,
2004,85.94,
2005,80.72,
2006,86.35,
2007,89.42,
2008,88.97,
2009,91.61,
2010,86.20,
2011,90.27,
2012,96.63,
2013,93.12,
2014,89.63,
2015,84.59,
2016,83.28,
2017,89.84,
2018,91.1,
2000,104.62,
2001,99.95,
2002,91.45,
2003,100.86,
2004,94.90,
2005,91.88,
2006,85.63,
2007,92.82,
2008,91.54,
2009,88.25,
2010,85.24,
2011,84.99,
2012,90.79,
2013,85.32,
2014,82.07,
2015,76.39,
2016,70.87,
2017,68.88,
2018,64.95,
2000,57.69,
2001,57.31,
2002,58.54,
2003,64.40,
2004,70.64,
2005,73.48,
2006,72.84,
2007,73.80,
2008,68.42,
2009,67.11,
2010,61.90,
2011,57.84,
2012,56.70,
2013,55.76,
2014,54.62,
2015,50.35,
2016,48.63,
2017,50.40,
2018,43.7,
2000,83.33,
2001,78.27,
2002,75.14,
2003,73.67,
2004,71.77,
2005,70.88,
2006,75.19,
2007,74.16,
2008,75.05,
2009,77.43,
2010,73.38,
2011,73.49,
2012,73.72,
2013,69.14,
2014,63.71,
2015,61.40,
2016,60.93,
2017,61.93,
2018,68.21,
2000,110.49,
2001,105.87,
2002,95.80,
2003,86.92,
2004,84.58,
2005,80.72,
2006,78.55,
2007,76.63,
2008,69.48,
2009,66.65,
2010,62.99,
2011,63.73,
2012,59.88,
2013,58.25,
2014,54.34,
2015,54.36,
2016,50.91,
2017,53.71,
2018,47.27,
2000,92.36,
2001,87.84,
2002,81.06,
2003,82.47,
2004,77.90,
2005,74.04,
2006,76.75,
2007,84.07,
2008,77.27,
2009,74.60,
2010,69.79,
2011,67.18,
2012,68.75,
2013,65.59,
2014,60.12,
2015,58.96,
2016,55.55,
2017,54.52,
2018,51.66,
2000,77.61,
2001,72.59,
2002,69.78,
2003,72.82,
2004,73.49,
2005,71.49,
2006,70.17,
2007,69.12,
2008,70.24,
2009,66.81,
2010,64.30,
2011,68.91,
2012,71.22,
2013,68.76,
2014,65.89,
2015,63.99,
2016,60.74,
2017,59.79,
2018,56.45,
2000,79.44,
2001,86.18,
2002,81.10,
2003,83.48,
2004,90.35,
2005,92.37,
2006,86.37,
2007,85.10,
2008,89.98,
2009,87.21,
2010,79.87,
2011,86.86,
2012,88.28,
2013,86.11,
2014,81.07,
2015,80.53,
2016,78.19,
2017,83.79,
2018,83.7,
2000,103.38,
2001,99.32,
2002,88.68,
2003,85.73,
2004,85.57,
2005,82.35,
2006,85.13,
2007,81.41,
2008,79.94,
2009,78.56,
2010,76.94,
2011,74.69,
2012,79.03,
2013,72.47,
2014,68.84,
2015,68.13,
2016,66.84,
2017,65.37,
2018,61.52,
2000,80.26,
2001,72.76,
2002,68.26,
2003,70.92,
2004,74.78,
2005,71.48,
2006,71.54,
2007,71.20,
2008,70.36,
2009,65.70,
2010,60.83,
2011,62.03,
2012,63.07,
2013,56.98,
2014,56.22,
2015,50.96,
2016,48.06,
2017,48.63,
2018,43.41,
2000,135.18,
2001,133.30,
2002,126.13,
2003,128.69,
2004,123.62,
2005,123.97,
2006,126.91,
2008,113.31,
2009,106.06,
2010,98.90,
2011,93.34,
2012,97.71,
2013,83.31,
2014,86.08,
2015,83.71,
2016,80.11,
2017,81.29,
2018,84.42,
2000,125,
2001,117.22,
2002,108.09,
2003,104.05,
2004,95.34,
2005,93.52,
2006,93.21,
2007,97.36,
2008,100.32,
2009,77.69,
2010,97.24,
2011,90.69,
2012,100.09,
2013,95.92,
2014,91.93,
2015,83.77,
2016,70.13,
2017,71.72,
2018,66.66,
2000,76.47,
2001,86.18,
2002,84.36,
2003,87.37,
2004,80.56,
2005,86.67,
2006,84.29,
2007,78.56,
2008,72.73,
2009,72.71,
2010,62.73,
2011,65.61,
2012,66.07,
2013,62.37,
2014,63.66,
2015,63.60,
2016,60.50,
2017,63.13,
2018,57.66,
2000,57.78,
2001,50.49,
2002,50.42,
2003,55.49,
2004,50.77,
2005,49.88,
2006,51.06,
2007,57.47,
2008,47.55,
2009,47.96,
2010,45.33,
2011,43.98,
2012,48.76,
2013,36.54,
2014,51.01,
2015,39.57,
2016,44.10,
2017,41.15,
2018,34.59,
2000,90.43,
2001,83.90,
2002,82.53,
2003,85.43,
2004,82.65,
2005,71.85,
2006,55.00,
2007,81.41,
2008,85.27,
2009,78.71,
2010,73.43,
2011,75.82,
2012,91.19,
2013,74.19,
2014,81.88,
2015,80.91,
2016,59.63,
2017,85.14,
2018,79.05,
2000,109.41,
2001,101.96,
2002,85.96,
2003,73.01,
2004,63.48,
2005,76.96,
2006,71.09,
2007,60.04,
2008,70.81,
2009,73.45,
2010,76.32,
2011,64.59,
2012,66.19,
2013,64.60,
2014,72.19,
2015,64.71,
2016,60.16,
2017,95.16,
2018,111.25,
2000,117.24,
2001,109.00,
2002,88.36,
2003,102.01,
2004,89.33,
2005,101.15,
2006,57.56,
2007,75.50,
2008,78.26,
2009,67.69,
2010,63.80,
2011,59.38,
2012,60.90,
2013,58.27,
2014,58.25,
2015,62.14,
2016,53.28,
2017,54.20,
2018,52.37,
2000,76.03,
2001,67.30,
2002,63.85,
2003,49.59,
2004,58.43,
2005,49.98,
2006,51.39,
2007,45.03,
2008,66.73,
2009,55.22,
2010,53.52,
2011,62.88,
2012,65.69,
2013,57.24,
2014,50.15,
2015,58.15,
2016,47.72,
2017,67.62,
2018,64.19,
2000,128.48,
2001,92.11,
2002,86.80,
2003,68.34,
2004,53.30,
2005,62.99,
2006,48.29,
2007,58.20,
2008,64.36,
2009,56.85,
2010,55.99,
2011,54.70,
2012,53.16,
2013,70.27,
2014,74.63,
2015,71.88,
2016,70.42,
2007,106.07,
2017,66.02,
2018,86.61,