TIME,OBS,COUNTRY
2005,26.31,CO
2006,25.80,CO
2007,24.98,CO
2008,25.12,CO
2009,24.76,CO
2010,23.57,CO
2011,21.89,CO
2012,20.70,CO
2013,20.58,CO
2014,20.83,CO
2015,20.10,CO
2016,19.88,CO
2017,19.65,CO
2018,20.57,CO
2019,21.54,CO