TIME,OBS,COUNTRY,DES_GEO_REGIONES,DES_GEO_RURALDISPERSO,EDAD19
2012,86.8,,11,,
2013,85.58,,11,,
2014,80.39,,11,,
2015,84.94,,11,,
2016,80.31,,11,,
2018,80.544156783,,11,,
2019,82.71,,11,,
2012,89.06,,12,,
2013,87.39,,12,,
2014,83.23,,12,,
2015,86.59,,12,,
2016,89.0,,12,,
2018,87.357920989,,12,,
2019,87.51,,12,,
2012,88.72,,13,,
2013,90.53,,13,,
2015,86.7,CO,,,
2016,86.8,CO,,,
2018,86.322622933,CO,,,
2019,87.19,CO,,,
2013,86.59,,14,,
2014,83.0,,14,,
2015,85.87,,14,,
2016,86.08,,14,,
2018,81.746263416,,14,,
2019,82.07,,14,,
2012,89.6,,15,,
2013,90.06,,15,,
2014,85.09,,15,,
2015,90.55,,15,,
2016,92.3,,15,,
2018,89.589942464,,15,,
2019,93.27,,15,,
2012,80.69,,16,,
2013,82.17,,16,,
2014,84.57,,16,,
2015,84.59,,16,,
2016,84.07,,16,,
2018,86.875190089,,16,,
2019,88.55,,16,,
2012,91.09,,17,,
2013,88.93,,17,,
2014,89.12,,17,,
2015,87.16,,17,,
2016,89.86,,17,,
2018,92.427407606,,17,,
2019,90.85,,17,,
2012,91.34,,18,,
2013,85.69,,18,,
2014,41.4443529795873,,,,F5T11
2015,50.183007559007876,,,,F5T11
2016,52.531901550769135,,,,F5T11
2018,47.523945593,,,,F5T11
2019,52.25,,,,F5T11
2013,87.2,CO,,,
2014,84.3,CO,,,
2012,90.41,,19,,
2013,84.85,,19,,
2014,87.07,,19,,
2015,87.44,,19,,
2016,89.16,,19,,
2018,83.612123406,,19,,
2019,80.01,,,,F12T24
2013,97.61066642672351,,,,F25T54
2014,96.31721523583231,,,,F25T54
2015,96.84429959414584,,,,F25T54
2016,96.64546153777574,,,,F25T54
2018,96.258745194,,,,F25T54
2019,96.15,,,,F25T54
2013,83.17209682582366,,,,F55T
2014,79.92608407859888,,,,F55T
2015,83.13430444506386,,,,F55T
2016,83.89809660476013,,,,F55T
2018,85.725691276,,,,F55T
2019,85.68,,,,F55T
2013,48.492560157219316,,,,F5T11
2016,88.42,,18,,
2018,86.151661272,,18,,
2019,85.0,,18,,
2019,74.88,,19,,
2013,88.41397052182603,,,1,
2014,86.0890034698101,,,1,
2015,88.51066895764642,,,1,
2016,90.19405330864781,,,,F12T24
2018,89.570765424,,,,F12T24
2019,88.37,,13,,
2012,83.14,,14,,
2014,88.08,,13,,
2015,86.62,,13,,
2016,88.11,,13,,
2018,88.023571996,,13,,
2014,80.19,,18,,
2015,88.56,,18,,
2016,88.81882758407151,,,1,
2017,88.8858333,,,1,
2018,88.653954844,,,1,
2019,89.96,,,1,
2013,82.3880305775311,,,2,
2014,77.53510877077157,,,2,
2015,79.47676241214866,,,2,
2016,78.86930535353667,,,2,
2018,77.110921852,,,2,
2019,77.45,,,2,
2013,92.888407875487,,,,F12T24
2014,90.1265764618994,,,,F12T24
2015,91.65376347624614,,,,F12T24