TIME,OBS,COUNTRY,DES_GEO_CCPRURALDISP,DES_GEO_DEPTOS,DES_GEO_REGIONES,DES_GEO_MUNICIPIOS
2015,71.0718974819,,,70,,
2016,70.3573243526,,,70,,
2017,70.9413765587,,,70,,
2018,70.9976033621,,,70,,
2019,72.39,,,70,,
2007,83.1001338,,,73,,
2008,84.19117834,,,73,,
2009,80.54144476,,,73,,
2010,82.19345512,,,73,,
2011,81.80233657,,,73,,
2012,84.67826045,,,73,,
2013,83.98049342,,,73,,
2014,83.8905327,,,73,,
2015,86.9207609336,,,73,,
2016,87.1361220435,,,73,,
2017,86.7122748865,,,73,,
2018,87.2093727508,,,73,,
2019,88.17,,,73,,
2007,93.85190221,,,76,,
2008,93.30559408,,,76,,
2009,92.79077449,,,76,,
2010,90.96348133,,,76,,
2011,93.03592218,,,76,,
2012,93.35726211,,,76,,
2013,94.41516049,,,76,,
2014,93.94286357,,,76,,
2015,93.1744222087,,,76,,
2016,94.5124256399,,,76,,
2017,93.3591149026,,,76,,
2018,93.5902196278,,,76,,
2019,93.44,,,76,,
2010,66.5,,,,11,
2011,68.2069835609,,,,11,
2012,69.5039099562,,,,11,
2013,69.8643820659,,,,11,
2014,70.2106651751,,,,11,
2015,72.3138554881,,,,11,
2016,74.3526250062,,,,11,
2017,74.8796668908,,,,11,
2018,76.5129912749,,,,11,
2010,90.3,,,,12,
2011,90.7195578261,,,,12,
2012,91.4155026677,,,,12,
2013,92.8313427459,,,,12,
2014,93.0389651121,,,,12,
2015,93.530392972,,,,12,
2016,93.9249423988,,,,12,
2017,94.4276313881,,,,12,
2018,94.5408377161,,,,12,
2010,87.2164492195,,,,13,
2011,87.2195151007,,,,13,
2012,88.4574770635,,,,13,
2013,88.6723982973,,,,13,
2014,89.1824713382,,,,13,
2015,90.6839909537,,,,13,
2016,91.35848956,,,,13,
2017,90.7367106421,,,,13,
2018,90.4574517902,,,,13,
2010,81.6503527738,,,,14,
2011,83.0256713132,,,,14,
2012,83.5407365858,,,,14,
2013,83.807107719,,,,14,
2014,83.9390866332,,,,14,
2015,84.1316476214,,,,14,
2016,85.4743061397,,,,14,
2017,84.2597713234,,,,14,
2018,84.5280615157,,,,14,
2010,99.6,,,,15,
2011,99.3954385357,,,,15,
2012,99.5869540021,,,,15,
2013,99.4888480688,,,,15,
2014,99.3694950925,,,,15,
2015,99.3693568816,,,,15,
2016,99.3576951099,,,,15,
2017,99.4921585975,,,,15,
2018,99.5119401578,,,,15,
2007,99.1238401,,,,,52001
2008,99.52115314,,,,,52001
2009,99.34238369,,,,,52001
2010,98.56765179,,,,,52001
2011,99.7176825,,,,,52001
2012,98.87741112,,,,,52001
2013,98.84163029,,,,,52001
2014,98.75943126,,,,,52001
2015,99.8386439528,,,,,52001
2016,99.5332039672,,,,,52001
2017,99.4371960779,,,,,52001
2018,99.3572486467,,,,,52001
2007,95.39284318,,,,,54001
2008,96.48810027,,,,,54001
2009,94.47155851,,,,,54001
2010,94.87423299,,,,,54001
2011,94.08558317,,,,,54001
2012,96.3971049,,,,,54001
2013,95.83263833,,,,,54001
2014,96.14496048,,,,,54001
2015,97.4295553005,,,,,54001
2016,96.7058519256,,,,,54001
2017,98.3027135116,,,,,54001
2018,98.6071157672,,,,,54001
2007,98.14003149,,,,,63001
2008,97.32576635,,,,,63001
2009,97.83608341,,,,,63001
2010,99.04130502,,,,,63001
2011,98.1345687,,,,,63001
2012,99.52975463,,,,,63001
2013,99.15452722,,,,,63001
2014,99.08275091,,,,,63001
2015,98.9431313933,,,,,63001
2016,99.6612564182,,,,,63001
2017,99.3613016693,,,,,63001
2018,99.5657898327,,,,,63001
2007,99.13456492,,,,,66001
2008,99.66947567,,,,,66001
2009,99.08091536,,,,,66001
2010,98.40469784,,,,,66001
2011,98.76587889,,,,,66001
2012,98.53053861,,,,,66001
2013,99.11489163,,,,,66001
2014,98.89367043,,,,,66001
2015,97.5268413593,,,,,66001
2016,98.0871425337,,,,,66001
2017,98.6025490806,,,,,66001
2018,98.9466354371,,,,,66001
2007,98.14783772,,,,,68001
2008,97.61758462,,,,,68001
2009,97.28694675,,,,,68001
2010,96.75143834,,,,,68001
2011,97.82345568,,,,,68001
2012,98.92298787,,,,,68001
2013,99.59557706,,,,,68001
2014,99.34295416,,,,,68001
2015,98.6987349362,,,,,68001
2016,99.624382072,,,,,68001
2017,99.3676795229,,,,,68001
2018,98.8404624171,,,,,68001
2007,91.33630574,,,,,70001
2008,91.94258622,,,,,70001
2009,92.23264572,,,,,70001
2010,94.36228779,,,,,70001
2011,94.45469366,,,,,70001
2012,92.81238826,,,,,70001
2013,93.13309701,,,,,70001
2014,95.05443627,,,,,70001
2015,95.3658243127,,,,,70001
2016,95.7286691573,,,,,70001
2017,95.1380253668,,,,,70001
2018,95.8110070145,,,,,70001
2007,98.21552091,,,,,73001
2008,98.61129132,,,,,73001
2009,97.43764662,,,,,73001
2010,98.3056821,,,,,73001
2011,98.78376278,,,,,73001
2012,99.03729212,,,,,73001
2013,99.2245824,,,,,73001
2014,98.70582033,,,,,73001
2015,98.7764169665,,,,,73001
2016,98.418251728,,,,,73001
2017,98.49535952,,,,,73001
2018,98.6931369727,,,,,73001
2007,98.57281841,,,,,76001
2008,97.51049579,,,,,76001
2009,97.4794598,,,,,76001
2010,96.42720615,,,,,76001
2011,99.54547018,,,,,76001
2012,99.20304863,,,,,76001
2013,99.48416331,,,,,76001
2014,99.55774882,,,,,76001
2015,98.6593187812,,,,,76001
2016,98.5994982175,,,,,76001
2017,99.1881709381,,,,,76001
2018,98.9364949627,,,,,76001
2007,98.42422432,,,,,17001
2008,99.52223013,,,,,17001
2009,98.92011284,,,,,17001
2010,99.36562402,,,,,17001
2011,99.01865227,,,,,17001
2012,99.35916301,,,,,17001
2013,99.87177768,,,,,17001
2014,98.92893924,,,,,17001
2015,99.4736487105,,,,,17001
2016,99.5468665052,,,,,17001
2017,99.0889174644,,,,,17001
2018,99.5230968866,,,,,17001
2007,87.76417718,,,,,18001
2008,85.95951753,,,,,18001
2009,90.4420945,,,,,18001
2010,86.43910624,,,,,18001
2011,88.19127328,,,,,18001
2012,87.559225,,,,,18001
2013,86.35356332,,,,,18001
2014,87.54336257,,,,,18001
2015,89.8212996031,,,,,18001
2016,90.0452665008,,,,,18001
2017,91.3617983252,,,,,18001
2018,90.5736757604,,,,,18001
2007,96.97967743,,,,,19001
2008,96.28964356,,,,,19001
2009,96.73373612,,,,,19001
2010,97.72656863,,,,,19001
2011,98.3529303,,,,,19001
2012,97.2670885,,,,,19001
2013,97.50480163,,,,,19001
2014,97.17670198,,,,,19001
2015,98.328613157,,,,,19001
2016,98.5106085148,,,,,19001
2017,97.9334849121,,,,,19001
2018,97.8314719218,,,,,19001
2007,92.35723799,,,,,20001
2008,94.53841037,,,,,20001
2009,94.72713256,,,,,20001
2010,95.25101288,,,,,20001
2011,95.51596089,,,,,20001
2012,96.24325579,,,,,20001
2013,96.74648338,,,,,20001
2014,96.4368647,,,,,20001
2015,96.188355881,,,,,20001
2016,97.0952071803,,,,,20001
2017,98.3748046581,,,,,20001
2018,96.4597241732,,,,,20001
2007,28.26861304,,,,,23001
2008,30.22050443,,,,,23001
2009,26.32033255,,,,,23001
2010,30.83258141,,,,,23001
2011,34.58355918,,,,,23001
2012,32.86924119,,,,,23001
2013,34.648666,,,,,23001
2014,40.96113247,,,,,23001
2015,45.8140229791,,,,,23001
2016,50.2839696945,,,,,23001
2017,60.7977382655,,,,,23001
2018,70.7255008878,,,,,23001
2007,16.36689596,,,,,27001
2008,17.7162536,,,,,27001
2009,12.94764252,,,,,27001
2010,11.36196577,,,,,27001
2011,11.52196603,,,,,27001
2012,8.846226415,,,,,27001
2013,10.90083412,,,,,27001
2014,9.081235474,,,,,27001
2015,11.5855187982,,,,,27001
2016,13.1155272381,,,,,27001
2017,13.0509660901,,,,,27001
2018,11.4988621348,,,,,27001
2007,95.62292793,,,,,41001
2008,96.13531002,,,,,41001
2009,97.5759779,,,,,41001
2010,95.99232957,,,,,41001
2011,95.36495477,,,,,41001
2012,96.96882391,,,,,41001
2013,95.13515892,,,,,41001
2014,95.92947037,,,,,41001
2015,95.8739482507,,,,,41001
2016,95.0161852206,,,,,41001
2017,96.6017304072,,,,,41001
2018,97.0692395213,,,,,41001
2007,63.27411035,,,,,44001
2008,62.76107271,,,,,44001
2009,73.30676821,,,,,44001
2010,70.58529714,,,,,44001
2011,69.97552629,,,,,44001
2012,72.81684154,,,,,44001
2013,73.77230993,,,,,44001
2014,75.03074915,,,,,44001
2015,73.4888677277,,,,,44001
2016,74.3279575768,,,,,44001
2017,75.2550589507,,,,,44001
2018,74.1283488893,,,,,44001
2007,90.02798663,,,,,47001
2008,90.34875796,,,,,47001
2009,80.97204491,,,,,47001
2010,82.10243626,,,,,47001
2011,82.89739729,,,,,47001
2012,84.82969474,,,,,47001
2013,83.0483843,,,,,47001
2014,84.62943724,,,,,47001
2015,85.7684472369,,,,,47001
2016,86.2960465312,,,,,47001
2017,85.9460903935,,,,,47001
2018,85.9208114383,,,,,47001
2007,98.23335429,,,,,50001
2008,97.4175888,,,,,50001
2009,96.01635811,,,,,50001
2010,95.77243862,,,,,50001
2011,96.85172396,,,,,50001
2012,97.09638167,,,,,50001
2013,97.40133278,,,,,50001
2014,98.34442309,,,,,50001
2015,96.1904183117,,,,,50001
2016,98.1117305636,,,,,50001
2017,97.5604089219,,,,,50001
2018,97.2390222518,,,,,50001
2007,97.56407841,,,,,5001
2008,97.89349671,,,,,5001
2009,97.16753323,,,,,5001
2010,96.38915996,,,,,5001
2011,94.76227566,,,,,5001
2012,96.88569493,,,,,5001
2013,96.33584098,,,,,5001
2014,96.34570723,,,,,5001
2015,97.4649224546,,,,,5001
2016,97.672859637,,,,,5001
2017,97.0973566152,,,,,5001
2018,97.0110929008,,,,,5001
2007,95.90145691,,,,,8001
2008,96.70874158,,,,,8001
2009,94.58371988,,,,,8001
2010,95.14890346,,,,,8001
2011,96.63167647,,,,,8001
2012,95.48476121,,,,,8001
2013,95.88570097,,,,,8001
2014,95.49749658,,,,,8001
2015,95.4765775941,,,,,8001
2016,95.9595261082,,,,,8001
2017,96.7655818519,,,,,8001
2018,97.5918596227,,,,,8001
2007,99.09880966,,,,,11001
2008,99.60561534,,,,,11001
2009,99.37047183,,,,,11001
2010,99.56830569,,,,,11001
2011,99.39509073,,,,,11001
2012,99.58679808,,,,,11001
2013,99.50883103,,,,,11001
2014,99.36921029,,,,,11001
2015,99.3692511627,,,,,11001
2016,99.3575576945,,,,,11001
2017,99.4920369897,,,,,11001
2018,99.5244461037,,,,,11001
2007,82.4456672,,,,,13001
2008,85.66511405,,,,,13001
2009,82.87875886,,,,,13001
2010,83.57177882,,,,,13001
2011,86.00029846,,,,,13001
2012,87.76096096,,,,,13001
2013,88.46388604,,,,,13001
2014,90.43727409,,,,,13001
2015,94.2595574175,,,,,13001
2016,92.0796267535,,,,,13001
2017,94.4180219427,,,,,13001
2018,95.8666247184,,,,,13001
2007,98.97602691,,,,,15001
2008,98.77599184,,,,,15001
2009,99.33056902,,,,,15001
2010,99.13502536,,,,,15001
2011,99.71053751,,,,,15001
2012,99.46784454,,,,,15001
2013,99.43801463,,,,,15001
2014,99.08977979,,,,,15001
2015,99.1572256,,,,,15001
2016,99.7056411538,,,,,15001
2017,99.7895981591,,,,,15001
2018,99.3506222115,,,,,15001
2002,83.33,CO,,,,
2003,83.22,CO,,,,
2004,82.49,CO,,,,
2005,84.58,CO,,,,
2007,85.68,CO,,,,
2008,86.20,CO,,,,
2009,83.88,CO,,,,
2010,84.30,CO,,,,
2011,84.97,CO,,,,
2012,85.81,CO,,,,
2013,86.22,CO,,,,
2014,86.47,CO,,,,
2015,87.430398257,CO,,,,
2016,88.3528931147,CO,,,,
2017,88.2036284877,CO,,,,
2018,88.5619088257,CO,,,,
2019,88.68,CO,,,,
2007,90.771323,,1,,,
2008,91.52530269,,1,,,
2009,89.74741584,,1,,,
2010,89.7559432,,1,,,
2011,90.2344229,,1,,,
2012,91.2454164,,1,,,
2013,91.18300935,,1,,,
2014,91.2593361,,1,,,
2015,91.817654843,,1,,,
2016,92.2890113678,,1,,,
2017,92.447121012,,1,,,
2018,92.8549558249,,1,,,
2019,93.0,,1,,,
2007,67.92235476,,2,,,
2008,69.18473293,,2,,,
2009,65.43974285,,2,,,
2010,66.93481793,,2,,,
2011,67.99273415,,2,,,
2012,68.1293963,,2,,,
2013,69.93365301,,2,,,
2014,70.57347595,,2,,,
2015,72.7622527805,,2,,,
2016,75.0879806351,,2,,,
2017,73.7950123955,,2,,,
2018,73.8814005316,,2,,,
2019,75.29,,2,,,
2007,84.98483928,,,05,,
2008,86.45481544,,,05,,
2009,86.49407303,,,05,,
2010,85.45704252,,,05,,
2011,85.7255328,,,05,,
2012,87.6066628,,,05,,
2013,87.12029293,,,05,,
2014,87.37090454,,,05,,
2015,89.7033993797,,,05,,
2016,89.9994475763,,,05,,
2017,88.4914138682,,,05,,
2018,86.8778535494,,,05,,
2019,88.4,,,05,,
2007,85.98903247,,,08,,
2008,88.27397948,,,08,,
2009,83.9324362,,,08,,
2010,84.92595687,,,08,,
2011,86.83008613,,,08,,
2012,86.40288143,,,08,,
2013,86.37281847,,,08,,
2014,85.84548317,,,08,,
2015,87.0603863537,,,08,,
2016,88.1214443204,,,08,,
2017,90.0942141053,,,08,,
2018,92.2155928529,,,08,,
2019,92.39,,,08,,
2007,99.08017287,,,11,,
2008,99.60026462,,,11,,
2009,99.35231807,,,11,,
2010,99.57082345,,,11,,
2011,99.39761364,,,11,,
2012,99.5952956,,,11,,
2013,99.48399444,,,11,,
2014,99.36921029,,,11,,
2015,99.3692511627,,,11,,
2016,99.3575576945,,,11,,
2017,99.4920369897,,,11,,
2018,99.5244461037,,,11,,
2019,99.32,,,11,,
2007,54.6061292,,,13,,
2008,54.83622731,,,13,,
2009,57.64851135,,,13,,
2010,60.21268064,,,13,,
2011,63.49475768,,,13,,
2012,62.80808216,,,13,,
2013,63.71527541,,,13,,
2014,63.80430572,,,13,,
2015,65.5302291583,,,13,,
2016,66.4031506928,,,13,,
2017,67.723688354,,,13,,
2018,69.6595442475,,,13,,
2019,69.15,,,13,,
2007,75.69863596,,,15,,
2008,78.63698541,,,15,,
2009,85.06975833,,,15,,
2010,83.00212444,,,15,,
2011,85.46282992,,,15,,
2012,87.09038415,,,15,,
2013,88.02889877,,,15,,
2014,89.84967273,,,15,,
2015,90.7322156064,,,15,,
2016,89.7905118084,,,15,,
2017,90.4687386472,,,15,,
2018,91.8449850632,,,15,,
2019,92.67,,,15,,
2007,88.31737937,,,17,,
2008,86.64015721,,,17,,
2009,87.16456614,,,17,,
2010,86.48959157,,,17,,
2011,88.02143904,,,17,,
2012,88.51307875,,,17,,
2013,91.83298327,,,17,,
2014,92.73987773,,,17,,
2015,91.5069064394,,,17,,
2016,94.2707117971,,,17,,
2017,91.0677540436,,,17,,
2018,90.8914919778,,,17,,
2019,90.19,,,17,,
2007,79.30631279,,,18,,
2008,87.03377871,,,18,,
2009,85.02975726,,,18,,
2010,84.21741422,,,18,,
2011,89.46676867,,,18,,
2012,88.04766744,,,18,,
2013,86.84722154,,,18,,
2014,85.68608032,,,18,,
2015,86.6998291629,,,18,,
2016,84.9896144426,,,18,,
2017,89.3180941653,,,18,,
2018,91.6236264235,,,18,,
2019,93.56,,,18,,
2007,86.36066786,,,19,,
2008,81.07753017,,,19,,
2009,81.5550857,,,19,,
2010,81.61407749,,,19,,
2011,83.41927407,,,19,,
2012,84.08135206,,,19,,
2013,84.26595726,,,19,,
2014,84.35505628,,,19,,
2015,85.6007935029,,,19,,
2016,88.4563930054,,,19,,
2017,85.3482146482,,,19,,
2018,86.4230489714,,,19,,
2019,86.95,,,19,,
2007,80.42271404,,,20,,
2008,80.63498269,,,20,,
2009,77.82914773,,,20,,
2010,77.93887119,,,20,,
2011,82.05852612,,,20,,
2012,82.36311507,,,20,,
2013,83.48275999,,,20,,
2014,83.94976228,,,20,,
2015,82.6458442067,,,20,,
2016,86.6059740512,,,20,,
2017,88.7316523537,,,20,,
2018,87.7805397361,,,20,,
2019,89.08,,,20,,
2007,58.12645122,,,23,,
2008,58.14423482,,,23,,
2009,50.2527488,,,23,,
2010,52.58071038,,,23,,
2011,53.39592207,,,23,,
2012,54.41754203,,,23,,
2013,57.69844778,,,23,,
2014,57.27805457,,,23,,
2015,65.1372621272,,,23,,
2016,67.8378370595,,,23,,
2017,66.1391250571,,,23,,
2018,70.1287293519,,,23,,
2019,72.39,,,23,,
2007,90.06745545,,,25,,
2008,94.48822421,,,25,,
2009,93.71894439,,,25,,
2010,94.36092955,,,25,,
2011,93.69927091,,,25,,
2012,93.32429874,,,25,,
2013,95.99106993,,,25,,
2014,95.94917031,,,25,,
2015,96.3519157328,,,25,,
2016,96.3337352095,,,25,,
2017,96.3376169128,,,25,,
2018,96.0348147392,,,25,,
2019,95.89,,,25,,
2007,24.6681306,,,27,,
2008,28.78267888,,,27,,
2009,26.16195608,,,27,,
2010,29.31251378,,,27,,
2011,31.27927291,,,27,,
2012,28.76761419,,,27,,
2013,26.91818999,,,27,,
2014,27.3266311,,,27,,
2015,33.1416345058,,,27,,
2016,31.3463571884,,,27,,
2017,28.7974857268,,,27,,
2018,32.1959211563,,,27,,
2019,31.91,,,27,,
2007,85.77469298,,,41,,
2008,88.85255541,,,41,,
2009,86.00720784,,,41,,
2010,87.63249024,,,41,,
2011,88.71234899,,,41,,
2012,88.51836863,,,41,,
2013,89.69534034,,,41,,
2014,89.80256755,,,41,,
2015,91.2542681697,,,41,,
2016,91.751948463,,,41,,
2017,91.3872799142,,,41,,
2018,90.0672973145,,,41,,
2019,91.58,,,41,,
2007,52.06356582,,,44,,
2008,51.70077917,,,44,,
2009,49.03530982,,,44,,
2010,53.16914869,,,44,,
2011,54.46873398,,,44,,
2012,57.42998247,,,44,,
2013,57.55890625,,,44,,
2014,56.72669725,,,44,,
2015,56.4023804552,,,44,,
2016,58.7582437543,,,44,,
2017,55.8578401368,,,44,,
2018,56.7080135058,,,44,,
2019,57.99,,,44,,
2007,60.47674934,,,47,,
2008,65.66978267,,,47,,
2009,57.20735815,,,47,,
2010,57.98536841,,,47,,
2011,59.55136611,,,47,,
2012,63.19129987,,,47,,
2013,61.2972413,,,47,,
2014,65.39839956,,,47,,
2015,68.4530660389,,,47,,
2016,67.0750635582,,,47,,
2017,67.074737105,,,47,,
2018,70.5516559535,,,47,,
2019,71.04,,,47,,
2007,92.87879029,,,50,,
2008,92.74003983,,,50,,
2009,91.93105259,,,50,,
2010,92.13354522,,,50,,
2011,92.82387197,,,50,,
2012,94.23426841,,,50,,
2013,95.60006833,,,50,,
2014,95.80074925,,,50,,
2015,94.8869233434,,,50,,
2016,96.8483595179,,,50,,
2017,96.8390058978,,,50,,
2018,95.9712796302,,,50,,
2019,95.69,,,50,,
2007,81.44365977,,,52,,
2008,81.42719435,,,52,,
2009,80.59471272,,,52,,
2010,77.58895571,,,52,,
2011,77.5243815,,,52,,
2012,79.98498341,,,52,,
2013,78.52068791,,,52,,
2014,78.9115974,,,52,,
2015,77.8816683388,,,52,,
2016,80.4490628008,,,52,,
2017,81.6583079027,,,52,,
2018,79.5381367713,,,52,,
2019,79.75,,,52,,
2007,86.07676486,,,54,,
2008,86.83727255,,,54,,
2009,87.00164435,,,54,,
2010,87.21031465,,,54,,
2011,86.49512135,,,54,,
2012,87.9649995,,,54,,
2013,88.85542327,,,54,,
2014,88.84132913,,,54,,
2015,91.1119503053,,,54,,
2016,91.977492173,,,54,,
2017,92.8917094953,,,54,,
2018,92.9174750059,,,54,,
2019,92.41,,,54,,
2007,96.69070445,,,63,,
2008,96.43472118,,,63,,
2009,97.51461774,,,63,,
2010,96.11361871,,,63,,
2011,96.64497524,,,63,,
2012,97.68476123,,,63,,
2013,96.74918779,,,63,,
2014,97.01059208,,,63,,
2015,97.3856821921,,,63,,
2016,97.1353035231,,,63,,
2017,97.0913097851,,,63,,
2018,98.5565443323,,,63,,
2019,98.38,,,63,,
2007,91.60229398,,,66,,
2008,92.86465164,,,66,,
2009,89.61215342,,,66,,
2010,92.27552988,,,66,,
2011,90.91591995,,,66,,
2012,89.29564733,,,66,,
2013,91.1722929,,,66,,
2014,92.02159239,,,66,,
2015,92.0270055917,,,66,,
2016,94.4946691265,,,66,,
2017,96.0947589003,,,66,,
2018,95.4968406586,,,66,,
2019,95.62,,,66,,
2007,88.95740366,,,68,,
2008,91.52997897,,,68,,
2009,89.50402901,,,68,,
2010,90.01439029,,,68,,
2011,92.8053196,,,68,,
2012,92.08213223,,,68,,
2013,93.23298029,,,68,,
2014,94.14004335,,,68,,
2015,93.6849398347,,,68,,
2016,94.9188273593,,,68,,
2017,95.3420021846,,,68,,
2018,94.5850846264,,,68,,
2019,95.74,,,68,,
2007,73.10819429,,,70,,
2008,79.30953798,,,70,,
2009,62.73572331,,,70,,
2010,66.27604327,,,70,,
2011,66.25678521,,,70,,
2012,66.27067353,,,70,,
2013,66.86799802,,,70,,
2014,69.54825825,,,70,,