TIME,OBS,COUNTRY
2000,4.4,CO
2001,4.3,CO
2002,4.2,CO
2003,4.2,CO
2004,4.1,CO
2005,4.0,CO
2006,4.1,CO
2007,4.0,CO
2008,4.2,CO
2009,4,CO
2010,3.9,CO
2011,3.8,CO
2012,3.8,CO
2013,3.7,CO
2014,3.7,CO
2015,3.7,CO
2016,3.7,CO
2017,3.6,CO
2018,3.3268,CO
2019,3.3902,CO