TIME,OBS,COUNTRY,DES_GEO_CCPRURALDISP,DES_GEO_DEPTOS,DES_GEO_REGIONES,DES_GEO_MUNICIPIOS
2010,19.39283019,,,25,,
2011,19.15535706,,,25,,
2012,16.67854023,,,25,,
2013,18.59025087,,,25,,
2014,16.81348175,,,25,,
2015,16.67423459,,,25,,
2016,17.0679840875,,,25,,
2017,16.6484747977,,,25,,
2018,19.2931645368,,,25,,
2019,21.27,,,25,,
2001,23.52106238,,,27,,
2002,24.82636305,,,27,,
2003,17.2050252,,,27,,
2004,21.95164971,,,27,,
2005,27.02421552,,,27,,
2006,27.37377935,,,27,,
2007,35.62261087,,,27,,
2008,28.05125982,,,27,,
2009,27.20175279,,,27,,
2010,28.46545047,,,27,,
2011,29.782215,,,27,,
2012,30.97136219,,,27,,
2013,29.79155296,,,27,,
2014,36.02357011,,,27,,
2015,30.43864184,,,27,,
2016,29.7807688187,,,27,,
2017,30.2877067064,,,27,,
2018,31.282833069,,,27,,
2019,34.49,,,27,,
2001,29.7787194,,,41,,
2002,39.31145802,,,41,,
2003,29.35328006,,,41,,
2004,30.99360856,,,41,,
2005,30.25150856,,,41,,
2006,32.68839583,,,41,,
2007,28.93806759,,,41,,
2008,24.96752679,,,41,,
2009,25.87412232,,,41,,
2010,22.75596141,,,41,,
2011,23.2679263,,,41,,
2012,22.31531575,,,41,,
2013,21.50893064,,,41,,
2014,21.57831167,,,41,,
2015,20.38958072,,,41,,
2016,20.6160814785,,,41,,
2017,21.8888494335,,,41,,
2018,24.2356618928,,,41,,
2019,21.57,,,41,,
2001,29.63249012,,,44,,
2002,31.84572403,,,44,,
2003,29.07219952,,,44,,
2004,24.46688494,,,44,,
2005,29.36099697,,,44,,
2006,27.4087615,,,44,,
2007,37.95704489,,,44,,
2008,32.891383,,,44,,
2009,26.52341158,,,44,,
2010,21.6866301,,,44,,
2011,22.32768089,,,44,,
2012,18.38159255,,,44,,
2013,20.39259561,,,44,,
2014,18.08633572,,,44,,
2015,19.17342225,,,44,,
2016,19.8467630854,,,44,,
2017,18.0037744462,,,44,,
2018,18.0290056727,,,44,,
2019,20.81,,,44,,
2001,32.28430412,,,47,,
2002,36.4020491,,,47,,
2003,33.45278165,,,47,,
2004,30.13176258,,,47,,
2005,31.46554396,,,47,,
2006,32.22823915,,,47,,
2007,31.52546034,,,47,,
2008,30.08208234,,,47,,
2009,32.5175544,,,47,,
2010,29.55832847,,,47,,
2011,32.32597503,,,47,,
2012,29.72356242,,,47,,
2013,31.71025525,,,47,,
2014,29.58703353,,,47,,
2015,29.07819443,,,47,,
2016,30.156745485,,,47,,
2017,29.7963770174,,,47,,
2018,29.912231893,,,47,,
2019,31.27,,,47,,
2001,29.4766673,,,50,,
2002,30.70042493,,,50,,
2003,26.82410621,,,50,,
2004,30.76168522,,,50,,
2005,28.70084128,,,50,,
2006,30.59401369,,,50,,
2007,29.79805969,,,50,,
2008,26.43880667,,,50,,
2009,27.57247449,,,50,,
2010,27.59865375,,,50,,
2011,27.22250771,,,50,,
2012,27.88286934,,,50,,
2013,28.34068331,,,50,,
2014,28.25169715,,,50,,
2015,27.51968022,,,50,,
2016,25.7844396532,,,50,,
2017,27.6590460127,,,50,,
2018,27.4878887192,,,50,,
2019,28.82,,,50,,
2001,22.67459723,,,52,,
2002,29.21221643,,,52,,
2003,22.93549426,,,52,,
2004,23.83632858,,,52,,
2005,28.44367399,,,52,,
2006,33.12345079,,,52,,
2007,32.08804365,,,52,,
2008,31.50318189,,,52,,
2009,27.82000722,,,52,,
2010,28.51701619,,,52,,
2011,25.60206422,,,52,,
2012,24.36121395,,,52,,
2013,21.24341196,,,52,,
2014,23.1598578,,,52,,
2015,20.8054976,,,52,,
2016,20.7847713877,,,52,,
2017,20.2156677166,,,52,,
2018,20.7130357372,,,52,,
2019,21.45,,,52,,
2001,29.45129577,,,54,,
2002,29.61611008,,,54,,
2003,33.4712417,,,54,,
2004,31.15080499,,,54,,
2005,29.83040293,,,54,,
2006,29.75567228,,,54,,
2007,25.9181532,,,54,,
2008,25.14431139,,,54,,
2009,25.53761219,,,54,,
2010,25.61152076,,,54,,
2011,24.69461439,,,54,,
2012,25.16605723,,,54,,
2013,23.57275627,,,54,,
2014,24.18577028,,,54,,
2015,23.81982248,,,54,,
2016,23.8201053277,,,54,,
2017,23.8261125368,,,54,,
2018,28.214153247,,,54,,
2019,27.95,,,54,,
2001,34.44244199,,,63,,
2002,36.84462151,,,63,,
2003,31.64934098,,,63,,
2004,35.26854192,,,63,,
2005,31.31580357,,,63,,
2006,28.85607352,,,63,,
2007,27.93720441,,,63,,
2008,27.29043569,,,63,,
2009,29.72383409,,,63,,
2010,26.0884933,,,63,,
2011,26.29016349,,,63,,
2012,25.46282692,,,63,,
2013,23.56476193,,,63,,
2014,21.6098372,,,63,,
2015,22.14005721,,,63,,
2016,21.5719548032,,,63,,
2017,21.8705566381,,,63,,
2018,21.5091183213,,,63,,
2019,24.83,,,63,,
2001,33.5273112,,,66,,
2002,32.72183412,,,66,,
2003,33.28177237,,,66,,
2004,32.48898609,,,66,,
2005,28.94467724,,,66,,
2006,27.50694843,,,66,,
2007,27.96671241,,,66,,
2008,26.28005287,,,66,,
2009,27.14053805,,,66,,
2010,27.54409603,,,66,,
2011,22.84620216,,,66,,
2012,25.73890196,,,66,,
2013,23.64414726,,,66,,
2014,22.98522601,,,66,,
2015,22.33693942,,,66,,
2016,19.3559222927,,,66,,
2017,19.9954504095,,,66,,
2018,19.9588842923,,,66,,
2019,21.14,,,66,,
2001,23.95239214,,,68,,
2002,25.6910146,,,68,,
2003,23.97071687,,,68,,
2004,24.96585404,,,68,,
2005,21.73522033,,,68,,
2006,23.61369293,,,68,,
2007,23.98928055,,,68,,
2008,20.41298959,,,68,,
2009,17.40715284,,,68,,
2010,17.23276888,,,68,,
2011,17.88448291,,,68,,
2012,15.9425592,,,68,,
2013,16.06896742,,,68,,
2014,15.14861629,,,68,,
2015,15.74396971,,,68,,
2016,16.2484246581,,,68,,
2017,16.4732763526,,,68,,
2018,18.2746407969,,,68,,
2019,19.48,,,68,,
2001,28.11105602,,,70,,
2002,32.17325108,,,70,,
2003,30.35461895,,,70,,
2004,30.59099301,,,70,,
2005,28.63905075,,,70,,
2006,29.10326387,,,70,,
2007,30.91809745,,,70,,
2008,26.55314359,,,70,,
2009,28.76955298,,,70,,
2010,29.035151,,,70,,
2011,28.36696686,,,70,,
2012,28.94539544,,,70,,
2013,28.60519494,,,70,,
2014,27.64245023,,,70,,
2015,27.01217902,,,70,,
2016,26.3103069483,,,70,,
2017,23.8474284415,,,70,,
2018,26.4086525439,,,70,,
2019,27.34,,,70,,
2001,30.87710798,,,73,,
2002,31.08175025,,,73,,
2003,30.52335128,,,73,,
2004,31.24432812,,,73,,
2005,29.90796931,,,73,,
2006,28.98086303,,,73,,
2007,26.88555907,,,73,,
2008,24.43013621,,,73,,
2009,24.86343395,,,73,,
2010,22.001694,,,73,,
2011,23.08584248,,,73,,
2012,19.95803305,,,73,,
2013,21.17404646,,,73,,
2014,21.20509945,,,73,,
2015,19.42128475,,,73,,
2016,20.628139299,,,73,,
2017,20.3066701578,,,73,,
2018,21.1220779635,,,73,,
2019,24.75,,,73,,
2001,29.63069455,,,76,,
2002,28.68813376,,,76,,
2003,27.70474668,,,76,,
2004,28.85248353,,,76,,
2005,28.79780499,,,76,,
2006,26.00159989,,,76,,
2007,24.17102649,,,76,,
2008,25.42819758,,,76,,
2009,25.71478512,,,76,,
2010,24.42233917,,,76,,
2011,25.33572949,,,76,,
2012,24.29582839,,,76,,
2013,24.29801442,,,76,,
2014,23.32031162,,,76,,
2015,21.7628774,,,76,,
2016,22.708471444,,,76,,
2017,22.88216187,,,76,,
2018,22.8375167949,,,76,,
2019,23.66,,,76,,
2007,30.95688603,,,,11,
2008,29.31425479,,,,11,
2009,28.79819005,,,,11,
2010,27.67556276,,,,11,
2011,27.34995639,,,,11,
2012,27.54892825,,,,11,
2013,26.72849265,,,,11,
2014,25.36515689,,,,11,
2015,24.67188953,,,,11,
2016,25.06759066,,,,11,
2017,25.34704866,,,,11,
2018,26.5135753184,,,,11,
2007,25.0314784,,,,12,
2008,22.41588543,,,,12,
2009,21.49036131,,,,12,
2010,21.58052008,,,,12,
2011,21.12731701,,,,12,
2012,20.20946815,,,,12,
2013,20.36426142,,,,12,
2014,19.64873634,,,,12,
2015,19.42274538,,,,12,
2016,19.16222079,,,,12,
2017,20.29252707,,,,12,
2018,21.9941174763,,,,12,
2007,28.02859608,,,,13,
2008,27.163689,,,,13,
2009,25.89549782,,,,13,
2010,24.60926155,,,,13,
2011,24.11150863,,,,13,
2012,23.14655163,,,,13,
2013,23.05138638,,,,13,
2014,22.42369759,,,,13,
2015,22.72457796,,,,13,
2016,21.34216073,,,,13,
2017,21.82174099,,,,13,
2018,22.754631663,,,,13,
2007,27.62350696,,,,14,
2008,27.69229527,,,,14,
2009,26.39607811,,,,14,
2010,25.6731194,,,,14,
2011,26.17357716,,,,14,
2012,25.51335721,,,,14,
2013,25.04830242,,,,14,
2014,25.00285136,,,,14,
2015,22.53511068,,,,14,
2016,22.6690943,,,,14,
2017,23.06915264,,,,14,
2018,23.7856062651,,,,14,
2001,26.34326302,,,,,52001
2002,26.25858496,,,,,52001
2003,21.52804574,,,,,52001
2004,23.2091592,,,,,52001
2005,26.32212717,,,,,52001
2006,24.58113826,,,,,52001
2007,24.32821771,,,,,52001
2008,25.82554832,,,,,52001
2009,26.33540201,,,,,52001
2010,24.22598932,,,,,52001
2011,22.94176278,,,,,52001
2012,22.2626208,,,,,52001
2013,18.25288228,,,,,52001
2014,19.61976895,,,,,52001
2015,17.77321241,,,,,52001
2016,18.0628035353,,,,,52001
2017,19.8427396096,,,,,52001
2018,18.8757343778,,,,,52001
2001,27.88781758,,,,,54001
2002,31.42129084,,,,,54001
2003,33.45711125,,,,,54001
2004,32.50151891,,,,,54001
2005,30.54331561,,,,,54001
2006,28.55183718,,,,,54001
2007,24.33867509,,,,,54001
2008,23.26674037,,,,,54001
2009,24.76436135,,,,,54001
2010,24.55902738,,,,,54001
2011,24.70452258,,,,,54001
2012,24.61250319,,,,,54001
2013,21.7099667,,,,,54001
2014,23.27460615,,,,,54001
2015,22.26616428,,,,,54001
2016,21.9012151345,,,,,54001
2017,22.6763840152,,,,,54001
2018,25.9797813716,,,,,54001
2007,23.31387808,,,,,63001
2008,23.61595812,,,,,63001
2009,25.97961539,,,,,63001
2010,23.07794198,,,,,63001
2011,25.5576861,,,,,63001
2012,20.33622354,,,,,63001
2013,21.52497513,,,,,63001
2014,20.89098373,,,,,63001
2015,20.04310783,,,,,63001
2016,20.3266078443,,,,,63001
2017,20.4361318809,,,,,63001
2018,20.6672362416,,,,,63001
2001,32.10417779,,,,,66001
2002,31.32008002,,,,,66001
2003,33.81025899,,,,,66001
2004,32.27672746,,,,,66001
2005,29.50973441,,,,,66001
2006,26.64097942,,,,,66001
2007,26.27496016,,,,,66001
2008,25.7252819,,,,,66001
2009,27.49691363,,,,,66001
2010,27.5923358,,,,,66001
2011,22.21929402,,,,,66001
2012,24.490734,,,,,66001
2013,22.82902829,,,,,66001
2014,22.53330919,,,,,66001
2015,21.05135815,,,,,66001
2016,17.5343483812,,,,,66001
2017,17.9262948592,,,,,66001
2018,18.3964352111,,,,,66001
2001,23.53771932,,,,,68001
2002,26.95588543,,,,,68001
2003,22.86886476,,,,,68001
2004,21.99716385,,,,,68001
2005,21.34731335,,,,,68001
2006,20.256942,,,,,68001
2007,19.07872965,,,,,68001
2008,17.21442672,,,,,68001
2009,14.69207846,,,,,68001
2010,14.21864868,,,,,68001
2011,15.89699368,,,,,68001
2012,15.31932721,,,,,68001
2013,15.41413201,,,,,68001
2014,13.74321605,,,,,68001
2015,14.53743369,,,,,68001
2016,14.4400215053,,,,,68001
2017,15.6032571717,,,,,68001
2018,17.1678731549,,,,,68001
2007,25.14809409,,,,,70001
2008,25.43600534,,,,,70001
2009,23.88065403,,,,,70001
2010,25.9519636,,,,,70001
2011,26.77446305,,,,,70001
2012,24.04930133,,,,,70001
2013,22.34965628,,,,,70001
2014,22.06312496,,,,,70001
2015,20.78291296,,,,,70001
2016,20.6509112758,,,,,70001
2017,19.4717195488,,,,,70001
2018,17.9990339331,,,,,70001
2001,27.71254172,,,,,73001
2002,23.74353469,,,,,73001
2003,24.21868088,,,,,73001
2004,25.85623586,,,,,73001
2005,26.78966705,,,,,73001
2006,26.58474974,,,,,73001
2007,21.71534477,,,,,73001
2008,22.00294451,,,,,73001
2009,19.18224375,,,,,73001
2010,20.03799279,,,,,73001
2011,19.13661156,,,,,73001
2012,17.2816657,,,,,73001
2013,16.39161036,,,,,73001
2014,15.37451776,,,,,73001
2015,15.2547132,,,,,73001
2016,16.8524603802,,,,,73001
2017,17.4151138823,,,,,73001
2018,17.8686370081,,,,,73001
2001,28.02718152,,,,,76001
2002,26.57250195,,,,,76001
2003,26.28179975,,,,,76001
2004,26.13367996,,,,,76001
2005,26.0144294,,,,,76001
2006,24.8863986,,,,,76001
2007,25.4173701,,,,,76001
2008,24.03137128,,,,,76001
2009,24.99679547,,,,,76001
2010,25.10682909,,,,,76001
2011,26.03150662,,,,,76001
2012,24.19075131,,,,,76001
2013,25.17428295,,,,,76001
2014,24.3772242,,,,,76001
2015,20.91623266,,,,,76001
2016,21.558990919,,,,,76001
2017,22.2808303851,,,,,76001
2018,22.9664447984,,,,,76001
2012,26.20610081,,,,,81001
2013,27.80348094,,,,,81001
2014,27.38884623,,,,,81001
2015,26.11254381,,,,,81001
2016,27.89067314,,,,,81001
2017,29.82470606,,,,,81001
2018,37.7546124418,,,,,81001
2012,20.49340933,,,,,85001
2013,15.56069851,,,,,85001
2014,15.83217724,,,,,85001
2015,15.86524965,,,,,85001
2016,19.69746076,,,,,85001
2017,21.21130606,,,,,85001
2018,20.9223412526,,,,,85001
2001,33.22881576,,,,,17001
2002,29.52269021,,,,,17001
2003,26.60729675,,,,,17001
2004,29.12484968,,,,,17001
2005,27.92523364,,,,,17001
2006,28.44549238,,,,,17001
2007,25.78923363,,,,,17001
2008,26.86529795,,,,,17001
2009,25.54290238,,,,,17001
2010,27.0239329,,,,,17001
2011,23.23703505,,,,,17001
2012,23.72334279,,,,,17001
2013,19.59868624,,,,,17001
2014,19.50222592,,,,,17001
2015,18.03014427,,,,,17001
2016,19.6009893805,,,,,17001
2017,19.2858736889,,,,,17001
2018,19.350824747,,,,,17001
2007,27.77726954,,,,,18001
2008,26.6285147,,,,,18001
2009,29.09561269,,,,,18001
2010,23.39989282,,,,,18001
2011,26.48731465,,,,,18001
2012,28.80878134,,,,,18001
2013,26.83378016,,,,,18001
2014,27.71328926,,,,,18001
2015,24.17863466,,,,,18001
2016,23.047917779,,,,,18001
2017,21.4431199706,,,,,18001
2018,22.4935233161,,,,,18001
2007,23.80726458,,,,,19001
2008,24.49795833,,,,,19001
2009,25.06296987,,,,,19001
2010,24.83812694,,,,,19001
2011,24.58979128,,,,,19001
2012,23.39750154,,,,,19001
2013,22.35599377,,,,,19001
2014,21.02367805,,,,,19001
2015,19.07789809,,,,,19001
2016,17.5518438585,,,,,19001
2017,18.6790553982,,,,,19001
2018,18.9484953015,,,,,19001
2007,29.91227836,,,,,20001
2008,25.0584756,,,,,20001
2009,22.29888195,,,,,20001
2010,24.47009365,,,,,20001
2011,24.84085184,,,,,20001
2012,22.16216216,,,,,20001
2013,22.21135384,,,,,20001
2014,21.34767902,,,,,20001
2015,22.10907996,,,,,20001
2016,22.0058664851,,,,,20001
2017,22.9800575658,,,,,20001
2018,27.4461174338,,,,,20001
2001,31.07710489,,,,,23001
2002,39.28385797,,,,,23001
2003,32.32272234,,,,,23001
2004,35.90128181,,,,,23001
2005,30.46419255,,,,,23001
2006,26.59290424,,,,,23001
2007,24.45315098,,,,,23001
2008,21.53748935,,,,,23001
2009,24.41996111,,,,,23001
2010,24.13085554,,,,,23001
2011,24.13118907,,,,,23001
2012,24.05686091,,,,,23001
2013,21.08746708,,,,,23001
2014,19.57066641,,,,,23001
2015,16.92934891,,,,,23001
2016,17.3484035721,,,,,23001
2017,21.6378640196,,,,,23001
2018,23.7546806701,,,,,23001
2007,29.03710969,,,,,27001
2008,25.31770551,,,,,27001
2009,20.40967882,,,,,27001
2010,20.92039662,,,,,27001
2011,24.87659574,,,,,27001
2012,25.78957566,,,,,27001
2013,26.43801358,,,,,27001
2014,25.98435769,,,,,27001
2015,23.54431296,,,,,27001
2016,22.6458694396,,,,,27001
2017,25.0464998309,,,,,27001
2018,24.1471147749,,,,,27001
2007,24.85160399,,,,,41001
2008,21.05887067,,,,,41001
2009,20.25828586,,,,,41001
2010,18.79361756,,,,,41001
2011,18.44041665,,,,,41001
2012,18.88500861,,,,,41001
2013,18.74541336,,,,,41001
2014,17.22304879,,,,,41001
2015,15.25727356,,,,,41001
2016,16.6733830345,,,,,41001
2017,17.2374292602,,,,,41001
2018,18.3336232388,,,,,41001
2007,25.9712315,,,,,44001
2008,27.59456298,,,,,44001
2009,25.49846626,,,,,44001
2010,23.54796144,,,,,44001
2011,22.32050068,,,,,44001
2012,22.89634007,,,,,44001
2013,22.68159182,,,,,44001
2014,22.53018373,,,,,44001
2015,21.80021135,,,,,44001
2016,21.7378497791,,,,,44001
2017,22.9136733011,,,,,44001
2018,26.4863164517,,,,,44001
2007,26.84365782,,,,,47001
2008,27.61572922,,,,,47001
2009,27.61172752,,,,,47001
2010,27.88804731,,,,,47001
2011,27.83963857,,,,,47001
2012,27.56285401,,,,,47001
2013,27.70349286,,,,,47001
2014,26.89321666,,,,,47001
2015,24.80833937,,,,,47001
2016,25.1667552413,,,,,47001
2017,23.8270050675,,,,,47001
2018,25.5167155793,,,,,47001
2001,29.01532433,,,,,50001
2002,26.11986889,,,,,50001
2003,31.86562865,,,,,50001
2004,32.30038326,,,,,50001
2005,27.0162699,,,,,50001
2006,28.44090681,,,,,50001
2007,25.17643865,,,,,50001
2008,25.83184771,,,,,50001
2009,26.80473519,,,,,50001
2010,25.43130006,,,,,50001
2011,26.36599359,,,,,50001
2012,25.2060173,,,,,50001
2013,25.05799939,,,,,50001
2014,23.82707627,,,,,50001
2015,22.32329342,,,,,50001
2016,22.8698175983,,,,,50001
2017,23.8038375537,,,,,50001
2018,23.1484614756,,,,,50001
2012,28.04099462,,,,,86001
2013,21.38168691,,,,,86001
2014,20.75044477,,,,,86001
2015,22.0077821,,,,,86001
2016,21.78701918,,,,,86001
2017,22.16736192,,,,,86001
2018,24.4168470934,,,,,86001
2012,23.53783456,,,,,88001
2013,22.7093873,,,,,88001
2014,19.83527022,,,,,88001
2015,18.71476888,,,,,88001
2016,19.90057933,,,,,88001
2017,19.55174159,,,,,88001
2018,21.97768686,,,,,88001
2012,24.95673909,,,,,91001
2013,21.21154935,,,,,91001
2014,24.70657277,,,,,91001
2015,21.30097087,,,,,91001
2016,20.46868298,,,,,91001
2017,19.71434673,,,,,91001
2018,23.0993137307,,,,,91001
2012,27.97947908,,,,,94001
2013,20.27777778,,,,,94001
2014,27.48091603,,,,,94001
2015,23.86185243,,,,,94001
2016,24.49312013,,,,,94001
2017,30.55096908,,,,,94001
2018,28.1592009186,,,,,94001
2012,25.61286744,,,,,95001
2013,18.94194127,,,,,95001
2014,18.40292725,,,,,95001
2015,20.04438616,,,,,95001
2016,15.60759683,,,,,95001
2017,17.2349946,,,,,95001
2018,16.8648238753,,,,,95001
2012,27.27272727,,,,,97001
2013,27.16836735,,,,,97001
2014,28.03621605,,,,,97001
2015,24.89244007,,,,,97001
2016,24.99552027,,,,,97001
2017,32.36223484,,,,,97001
2018,37.2404605835,,,,,97001
2012,29.18528704,,,,,99001
2013,26.93284936,,,,,99001
2014,22.06588881,,,,,99001
2015,23.8840013,,,,,99001
2016,29.28800797,,,,,99001
2017,28.55165586,,,,,99001
2018,39.5313257814,,,,,99001
2001,28.98102291,,,,,5001
2002,30.82870255,,,,,5001
2003,28.41832228,,,,,5001
2004,26.8355811,,,,,5001
2005,25.87724133,,,,,5001
2006,25.21223554,,,,,5001
2007,22.32451395,,,,,5001
2008,22.22697457,,,,,5001
2009,21.6805856,,,,,5001
2010,19.5531084,,,,,5001
2011,18.67873131,,,,,5001
2012,18.73400398,,,,,5001
2013,18.49922484,,,,,5001
2014,17.22651444,,,,,5001
2015,18.48599357,,,,,5001
2016,16.5800949637,,,,,5001
2017,17.4981281717,,,,,5001
2018,19.0692379342,,,,,5001
2001,31.63248629,,,,,8001
2002,34.7120111,,,,,8001
2003,34.72842851,,,,,8001
2004,31.53217637,,,,,8001
2005,33.13222982,,,,,8001
2006,31.13458389,,,,,8001
2007,30.9613819,,,,,8001
2008,27.4007227,,,,,8001
2009,30.08265897,,,,,8001
2010,26.70213174,,,,,8001
2011,27.93668434,,,,,8001
2012,26.66860221,,,,,8001
2013,25.30303128,,,,,8001
2014,24.23580856,,,,,8001
2015,22.57050942,,,,,8001
2016,23.0131817377,,,,,8001
2017,23.0910941667,,,,,8001
2018,24.7846009481,,,,,8001
2001,25.69557308,,,,,11001
2002,24.04333516,,,,,11001
2003,23.58264692,,,,,11001
2004,21.39104601,,,,,11001
2005,21.17557153,,,,,11001
2006,20.67074271,,,,,11001
2007,19.53133519,,,,,11001
2008,18.81847516,,,,,11001
2009,20.29888177,,,,,11001
2010,17.23743809,,,,,11001
2011,16.27482405,,,,,11001
2012,14.99761345,,,,,11001
2013,13.91832499,,,,,11001
2014,13.90787505,,,,,11001
2015,14.81075106,,,,,11001
2016,15.1112323073,,,,,11001
2017,17.6988972145,,,,,11001
2018,17.9788918324,,,,,11001
2001,33.34309236,,,,,13001
2002,35.08023584,,,,,13001
2003,30.5566855,,,,,13001
2004,30.37166055,,,,,13001
2005,31.69475361,,,,,13001
2006,29.78441004,,,,,13001
2007,25.79560081,,,,,13001
2008,24.430757,,,,,13001
2009,26.2055573,,,,,13001
2010,24.85115998,,,,,13001
2011,21.91958706,,,,,13001
2012,23.74403638,,,,,13001
2013,23.05377349,,,,,13001
2014,22.08185897,,,,,13001
2015,21.5924375,,,,,13001
2016,22.6388834328,,,,,13001
2017,24.2627119598,,,,,13001
2018,24.5233369251,,,,,13001
2007,16.88499261,,,,,15001
2008,15.43511193,,,,,15001
2009,13.82751938,,,,,15001
2010,15.2064257,,,,,15001
2011,12.10743669,,,,,15001
2012,13.81686083,,,,,15001
2013,13.93462543,,,,,15001
2014,13.00927055,,,,,15001
2015,10.82123275,,,,,15001
2016,11.1008820123,,,,,15001
2017,11.5152926112,,,,,15001
2018,13.1134489622,,,,,15001
2001,29.24989347,CO,,,,
2002,29.94417707,CO,,,,
2003,28.09273057,CO,,,,
2004,28.7427761,CO,,,,
2005,27.72125716,CO,,,,
2006,27.64621781,CO,,,,
2007,26.6946135,CO,,,,
2008,25.53967228,CO,,,,
2009,24.95835844,CO,,,,
2010,23.78525886,CO,,,,
2011,23.43968126,CO,,,,
2012,22.7351785,CO,,,,
2013,22.25229725,CO,,,,
2014,21.64568937,CO,,,,
2015,21.26014483,CO,,,,
2016,21.2213409013,CO,,,,
2017,21.9038376957,CO,,,,
2018,22.9056315448,CO,,,,
2019,23.95,CO,,,,
2020,29.12,CO,,,,
2001,28.66477042,,1,,,
2002,29.13546146,,1,,,
2003,27.24492384,,1,,,
2004,27.57895461,,1,,,
2005,26.45220274,,1,,,
2006,26.16784354,,1,,,
2007,24.58385086,,1,,,
2008,23.52176992,,1,,,
2009,23.73866987,,1,,,
2010,22.34513632,,1,,,
2011,21.94554402,,1,,,
2012,21.17718441,,1,,,
2013,20.77288427,,1,,,
2014,20.07940082,,1,,,
2015,19.60036339,,1,,,
2016,19.787792792,,1,,,
2017,20.9140101586,,1,,,
2018,21.8108080138,,1,,,
2019,22.70,,1,,,
2020,28.10,,1,,,
2001,30.99608901,,2,,,
2002,32.33652668,,2,,,
2003,30.66739136,,2,,,
2004,32.30283585,,2,,,
2005,31.64207692,,2,,,
2006,32.3468186,,2,,,
2007,33.36809801,,2,,,
2008,31.99588373,,2,,,
2009,28.85036982,,2,,,
2010,28.38561723,,2,,,
2011,28.241481,,2,,,
2012,27.88267103,,2,,,
2013,27.24437394,,2,,,
2014,26.99515894,,2,,,
2015,26.9348603,,2,,,
2016,26.102033319,,2,,,
2017,25.3486186746,,2,,,
2018,26.6662069533,,2,,,
2019,28.29,,2,,,
2020,32.53,,2,,,
2001,30.66543716,,,05,,
2002,31.52230404,,,05,,
2003,29.0647313,,,05,,
2004,30.82404813,,,05,,
2005,29.98471704,,,05,,
2006,30.24105214,,,05,,
2007,27.90623831,,,05,,
2008,27.21710149,,,05,,
2009,23.78644771,,,05,,
2010,22.7555344,,,05,,
2011,22.97953219,,,05,,
2012,21.03837814,,,05,,
2013,21.6112756,,,05,,
2014,21.72002482,,,05,,
2015,21.61634509,,,05,,
2016,20.4275564338,,,05,,
2017,21.8320683291,,,05,,
2018,23.1102072567,,,05,,
2019,20.80,,,05,,
2001,32.97805353,,,08,,
2002,36.16775655,,,08,,
2003,36.31732134,,,08,,
2004,33.7304475,,,08,,
2005,34.4941073,,,08,,
2006,33.20401724,,,08,,
2007,31.90879476,,,08,,
2008,29.18613675,,,08,,
2009,30.62764406,,,08,,
2010,28.40609396,,,08,,
2011,29.29041993,,,08,,
2012,30.12504432,,,08,,
2013,27.52247704,,,08,,
2014,25.86818429,,,08,,
2015,24.28855078,,,08,,
2016,25.3338933803,,,08,,
2017,25.9926270206,,,08,,
2018,27.5243575373,,,08,,
2019,28.36,,,08,,
2001,25.71786926,,,11,,
2002,23.98358848,,,11,,
2003,23.63487356,,,11,,
2004,21.29791153,,,11,,
2005,21.21662905,,,11,,
2006,20.46088289,,,11,,
2007,19.78310348,,,11,,
2008,18.93619482,,,11,,
2009,20.22119361,,,11,,
2010,17.1008617,,,11,,
2011,16.38730247,,,11,,
2012,14.96890756,,,11,,
2013,13.97594528,,,11,,
2014,13.91217384,,,11,,
2015,14.81272879,,,11,,
2016,15.1112323073,,,11,,
2017,17.6988972145,,,11,,
2018,17.9788918324,,,11,,
2019,19.16,,,11,,
2001,35.14583639,,,13,,
2002,36.02777589,,,13,,
2003,32.42504937,,,13,,
2004,31.89246832,,,13,,
2005,32.24070982,,,13,,
2006,30.85955728,,,13,,
2007,29.24735184,,,13,,
2008,28.34093164,,,13,,
2009,28.86082523,,,13,,
2010,26.81261431,,,13,,
2011,23.98287108,,,13,,
2012,24.7672967,,,13,,
2013,25.65027811,,,13,,
2014,23.7930109,,,13,,
2015,24.7139606,,,13,,
2016,24.6012838838,,,13,,
2017,24.5970946146,,,13,,
2018,23.9479686921,,,13,,
2019,23.73,,,13,,
2001,26.8845073,,,15,,
2002,26.24362687,,,15,,
2003,21.53585096,,,15,,
2004,30.01380122,,,15,,
2005,24.24400919,,,15,,
2006,25.54130584,,,15,,
2007,20.50540226,,,15,,
2008,20.13058093,,,15,,
2009,21.11429177,,,15,,
2010,22.61064511,,,15,,
2011,20.31300427,,,15,,
2012,20.30464506,,,15,,
2013,20.92908111,,,15,,
2014,18.20853571,,,15,,
2015,15.75739418,,,15,,
2016,16.5908176366,,,15,,
2017,19.5821801968,,,15,,
2018,19.566011065,,,15,,
2019,23.99,,,15,,
2001,32.20908669,,,17,,
2002,32.54887867,,,17,,
2003,31.79978539,,,17,,
2004,32.07756265,,,17,,
2005,30.54525265,,,17,,
2006,29.75958525,,,17,,
2007,31.8622716,,,17,,
2008,29.5897936,,,17,,
2009,29.41008932,,,17,,
2010,28.19125894,,,17,,
2011,30.15128101,,,17,,
2012,28.64085893,,,17,,
2013,26.38917403,,,17,,
2014,25.46020786,,,17,,
2015,26.94162145,,,17,,
2016,26.5380857875,,,17,,
2017,23.714134066,,,17,,
2018,24.8812543087,,,17,,
2019,25.68,,,17,,
2002,32.22928753,,,18,,
2003,32.94760985,,,18,,
2004,35.75509584,,,18,,
2005,29.24966588,,,18,,
2006,33.79434756,,,18,,
2007,33.29735765,,,18,,
2008,33.655098,,,18,,
2009,34.25421059,,,18,,
2010,31.25775852,,,18,,
2011,30.22963943,,,18,,
2012,31.67191425,,,18,,
2013,32.47778985,,,18,,
2014,28.78500477,,,18,,
2015,29.61109315,,,18,,
2016,25.845798777,,,18,,
2017,28.7997906307,,,18,,
2018,28.2808238802,,,18,,
2019,30.97,,,18,,
2001,24.34487728,,,19,,
2002,26.17559606,,,19,,
2003,23.90715788,,,19,,
2004,26.11458608,,,19,,
2005,27.44099859,,,19,,
2006,27.30831905,,,19,,
2007,27.37585162,,,19,,
2008,28.27865214,,,19,,
2009,26.28533059,,,19,,
2010,25.8425295,,,19,,
2011,27.36453711,,,19,,
2012,28.17144416,,,19,,
2013,27.59226922,,,19,,
2014,26.2708902,,,19,,
2015,24.15861861,,,19,,
2016,22.4249730793,,,19,,
2017,25.0592702606,,,19,,
2018,23.8986775466,,,19,,
2019,27.07,,,19,,
2001,33.48469581,,,20,,
2002,34.85389737,,,20,,
2003,34.45548891,,,20,,
2004,32.2424272,,,20,,
2005,27.74550842,,,20,,
2006,31.88254609,,,20,,
2007,32.74571552,,,20,,
2008,31.31929451,,,20,,
2009,26.67570081,,,20,,
2010,27.50346295,,,20,,
2011,27.53171804,,,20,,
2012,26.20551525,,,20,,
2013,26.99965401,,,20,,
2014,26.29605434,,,20,,
2015,25.82122451,,,20,,
2016,26.7479687175,,,20,,
2017,25.1915040897,,,20,,
2018,31.6035823347,,,20,,
2019,32.23,,,20,,
2001,34.40599975,,,23,,
2002,32.89924065,,,23,,
2003,33.2773103,,,23,,
2004,32.3285849,,,23,,
2005,31.28371589,,,23,,
2006,30.20730888,,,23,,
2007,28.73022096,,,23,,
2008,27.64703827,,,23,,
2009,26.05153213,,,23,,
2010,28.32263311,,,23,,
2011,27.20234298,,,23,,
2012,29.58467602,,,23,,
2013,25.99084676,,,23,,
2014,22.78400865,,,23,,
2015,21.51559022,,,23,,
2016,23.2871407992,,,23,,
2017,25.5329011366,,,23,,
2018,22.4555561688,,,23,,
2019,29.50,,,23,,
2001,31.92216366,,,25,,
2002,31.15636686,,,25,,
2003,25.85317262,,,25,,
2004,27.59439336,,,25,,
2005,25.20622777,,,25,,
2006,26.50867509,,,25,,
2007,26.78955784,,,25,,
2008,22.04164065,,,25,,
2009,19.94292462,,,25,,