TIME,OBS,COUNTRY,DES_GEO_CCPRURALDISP,DES_GEO_MUNICIPIOS,SEXO
2003,11.0043407,CO,,,
2005,8.912685499,CO,,,
2007,7.176111288,CO,,,
2009,9.126991268,CO,,,
2012,10.23477275,CO,,,
2013,9.699023532,CO,,,
2014,9.312673513,CO,,,
2015,9.146114259,CO,,,
2016,7.8078603311,CO,,,
2017,7.2561379056,CO,,,
2018,5.9321424696,CO,,,
2019,5.37,CO,,,
2020,4.86,CO,,,
2003,8.334955521,,1,,
2005,6.586437258,,1,,
2007,5.775221941,,1,,
2009,6.595431692,,1,,
2012,7.73065456,,1,,
2013,7.366161305,,1,,
2014,7.11633097,,1,,
2015,6.74853525,,1,,
2016,5.6919751734,,1,,
2017,4.4400019419,,1,,
2018,3.8131130985,,1,,
2019,3.50,,1,,
2020,3.03,,1,,
2003,17.52620318,,2,,
2005,14.87228897,,2,,
2007,10.81289868,,2,,
2009,15.81967696,,2,,
2012,16.95723,,2,,
2013,15.78912232,,2,,
2014,15.14683751,,2,,
2015,15.62575441,,2,,
2016,13.6276238215,,2,,
2017,14.7326446582,,2,,
2018,11.8139754393,,2,,
2019,10.36,,2,,
2020,10.11,,2,,
2003,8.084988233,,,52001,
2005,5.224505572,,,52001,
2007,5.922963696,,,52001,
2009,5.351048423,,,52001,
2012,6.790233018,,,52001,
2013,8.142817181,,,52001,
2014,9.278223824,,,52001,
2015,6.833844336,,,52001,
2016,7.0252226547,,,52001,
2017,6.1216746069,,,52001,
2018,2.5406293581,,,52001,
2003,9.297689401,,,54001,
2005,5.938738167,,,54001,
2007,8.357829115,,,54001,
2009,6.494413055,,,54001,
2012,6.925313549,,,54001,
2013,9.083633665,,,54001,
2014,6.773081581,,,54001,
2015,8.070895503,,,54001,
2016,4.7935516725,,,54001,
2017,3.7299304808,,,54001,
2018,2.9324967286,,,54001,
2007,3.44926141,,,63001,
2009,3.828825458,,,63001,
2012,7.09886752,,,63001,
2013,7.877514356,,,63001,
2014,4.723193904,,,63001,
2015,5.199616313,,,63001,
2016,6.8464694965,,,63001,
2017,4.3827053308,,,63001,
2018,4.0953159244,,,63001,
2003,8.59537551,,,66001,
2005,7.930678893,,,66001,
2007,3.645394911,,,66001,
2009,3.678675885,,,66001,
2012,5.556501228,,,66001,
2013,3.316294629,,,66001,
2014,5.584360873,,,66001,
2015,5.499714177,,,66001,
2016,5.3675679202,,,66001,
2017,7.021302397,,,66001,
2018,4.5979681196,,,66001,
2003,11.58714703,,,68001,
2005,8.893512957,,,68001,
2007,7.245226006,,,68001,
2009,12.08591555,,,68001,
2012,9.267053805,,,68001,
2013,6.219396792,,,68001,
2014,6.413540278,,,68001,
2015,5.477128203,,,68001,
2016,5.2164518867,,,68001,
2017,4.4983823479,,,68001,
2018,3.8518982817,,,68001,
2007,8.225765225,,,70001,
2009,3.910356472,,,70001,
2012,9.849005928,,,70001,
2013,7.278775996,,,70001,
2014,8.437701524,,,70001,
2015,6.33913658,,,70001,
2016,7.0948310948,,,70001,
2017,9.980204553,,,70001,
2018,5.7356190986,,,70001,
2003,10.90582724,,,73001,
2005,10.66173166,,,73001,
2007,12.14693564,,,73001,
2009,10.92374703,,,73001,
2012,10.36354217,,,73001,
2013,10.03259564,,,73001,
2014,8.357255143,,,73001,
2015,8.293417908,,,73001,
2016,5.3037599724,,,73001,
2017,3.5923696687,,,73001,
2018,4.2047858335,,,73001,
2003,10.66941624,,,76001,
2005,9.12760283,,,76001,
2007,8.284097473,,,76001,
2009,8.340320486,,,76001,
2012,5.990698729,,,76001,
2013,4.751818673,,,76001,
2014,5.288798472,,,76001,
2015,5.779409892,,,76001,
2016,5.9372564064,,,76001,
2017,3.9437692082,,,76001,
2018,3.7083735074,,,76001,
2003,6.916478966,,,17001,
2005,3.397558969,,,17001,
2007,4.52970716,,,17001,
2009,3.25941171,,,17001,
2012,2.477734783,,,17001,
2013,2.069939781,,,17001,
2014,2.173745965,,,17001,
2015,3.450491206,,,17001,
2016,0.9400260574,,,17001,
2017,0.9647578841,,,17001,
2018,0.4068101069,,,17001,
2007,6.544707758,,,18001,
2009,5.378142338,,,18001,
2012,5.062046005,,,18001,
2013,5.110581313,,,18001,
2014,8.604097682,,,18001,
2015,7.136944488,,,18001,
2016,5.9295514724,,,18001,
2017,3.7543353333,,,18001,
2018,2.2678018576,,,18001,
2007,4.554297038,,,19001,
2009,3.577095618,,,19001,
2012,1.960588576,,,19001,
2013,.8813926,,,19001,
2014,2.554094188,,,19001,
2015,1.459758022,,,19001,
2016,2.1453663433,,,19001,
2017,1.8644529124,,,19001,
2018,1.8192749621,,,19001,
2007,5.871469236,,,20001,
2009,7.412534879,,,20001,
2012,5.652225969,,,20001,
2013,4.878984989,,,20001,
2014,5.157784346,,,20001,
2015,3.494909891,,,20001,
2016,2.6936817393,,,20001,
2017,3.0251025631,,,20001,
2018,2.5527969303,,,20001,
2003,12.95281626,,,23001,
2005,7.252868036,,,23001,
2007,9.892126702,,,23001,
2009,12.88438306,,,23001,
2012,7.184158513,,,23001,
2013,7.516756497,,,23001,
2014,6.163348525,,,23001,
2015,5.530666999,,,23001,
2016,3.9955167445,,,23001,
2017,4.3296222286,,,23001,
2018,3.2296042929,,,23001,
2007,3.154954425,,,27001,
2009,2.028842294,,,27001,
2012,7.706772808,,,27001,
2013,6.097915657,,,27001,
2014,5.804285257,,,27001,
2015,4.948220172,,,27001,
2016,2.9626779531,,,27001,
2017,2.2131973303,,,27001,
2018,3.6097870988,,,27001,
2007,6.053384776,,,41001,
2009,6.060449896,,,41001,
2012,7.03034369,,,41001,
2013,7.171548937,,,41001,
2014,6.946141822,,,41001,
2015,8.265574643,,,41001,
2016,8.8213280642,,,41001,
2017,3.9948937448,,,41001,
2018,1.90049489,,,41001,
2007,5.360655738,,,44001,
2009,6.09829333,,,44001,
2012,5.853675523,,,44001,
2013,7.201171284,,,44001,
2014,8.125689085,,,44001,
2015,5.261897994,,,44001,
2016,5.9292805087,,,44001,
2017,3.8437161087,,,44001,
2018,2.5691349443,,,44001,
2007,3.557378643,,,47001,
2009,4.452978112,,,47001,
2012,5.131317218,,,47001,
2013,3.289648949,,,47001,
2014,3.008597212,,,47001,
2015,4.174468829,,,47001,
2016,1.8238661805,,,47001,
2017,1.7865368165,,,47001,
2018,2.0279020968,,,47001,
2003,8.744171259,,,50001,
2005,9.138888889,,,50001,
2007,5.596497353,,,50001,
2009,8.809695247,,,50001,
2012,7.191945928,,,50001,
2013,4.58935656,,,50001,
2014,3.926099115,,,50001,
2015,4.178414606,,,50001,
2016,3.5625058702,,,50001,
2017,3.6789746065,,,50001,
2018,4.156564527,,,50001,
2003,7.77416958,,,5001,
2005,4.933942142,,,5001,
2007,4.050968768,,,5001,
2009,6.330277512,,,5001,
2012,7.383095252,,,5001,
2013,8.293681264,,,5001,
2014,7.314768832,,,5001,
2015,5.434494492,,,5001,
2016,4.6982228523,,,5001,
2017,3.7410571692,,,5001,
2018,2.8741110643,,,5001,
2003,4.165039698,,,8001,
2005,3.218111713,,,8001,
2007,2.66486794,,,8001,
2009,3.314080194,,,8001,
2012,3.052095251,,,8001,
2013,1.684814544,,,8001,
2014,4.412768863,,,8001,
2015,4.543720259,,,8001,
2016,2.1333876807,,,8001,
2017,1.9167254285,,,8001,
2018,2.3361611637,,,8001,
2003,5.899520547,,,11001,
2005,4.828938402,,,11001,
2007,3.346553472,,,11001,
2009,2.818249769,,,11001,
2012,8.428683197,,,11001,
2013,6.505860987,,,11001,
2014,7.909950106,,,11001,
2015,5.857387118,,,11001,
2016,3.8682307243,,,11001,
2017,2.3462570673,,,11001,
2018,2.3977381857,,,11001,
2003,2.3309032,,,13001,
2005,1.901770031,,,13001,
2007,3.603952458,,,13001,
2009,.891879839,,,13001,
2012,2.99906452,,,13001,
2013,2.84380145,,,13001,
2014,4.028162074,,,13001,
2015,3.76047802,,,13001,
2016,1.2753954569,,,13001,
2017,0.8997037503,,,13001,
2018,0.2488632749,,,13001,
2007,4.374820213,,,15001,
2009,4.720310794,,,15001,
2012,7.109223301,,,15001,
2013,4.769403825,,,15001,
2014,6.53855943,,,15001,
2015,4.691302836,,,15001,
2016,3.0563514804,,,15001,
2017,3.9333922039,,,15001,
2018,1.3355935686,,,15001,
2003,7.907356823,,,,F
2005,5.898483756,,,,F
2007,4.442364081,,,,F
2009,6.017148965,,,,F
2012,6.707049483,,,,F
2013,6.61022105,,,,F
2014,6.463645704,,,,F
2015,6.057591139,,,,F
2016,5.1219566262,,,,F
2017,5.3754737332,,,,F
2018,3.8893815787,,,,F
2019,3.59,,,,F
2020,3.19,,,,F
2003,13.88846941,,,,M
2005,11.7023554,,,,M
2007,9.707159179,,,,M
2009,12.00555718,,,,M
2012,13.47533389,,,,M
2013,12.52845689,,,,M
2014,11.91046268,,,,M
2015,11.99954731,,,,M
2016,10.2318741702,,,,M
2017,8.9574881746,,,,M
2018,7.7775546966,,,,M
2019,6.99,,,,M
2020,6.34,,,,M